SOUBRE,ABENGOUROU,420
SOUBRE,ABIDJAN,369
SOUBRE,ABOISSO,488
SOUBRE,ADIAKE,452
SOUBRE,ADZOPE,488
SOUBRE,AGBOVILLE,314
SOUBRE,AGNIBILEKROU,498
SOUBRE,ALEPE,428
SOUBRE,BANGOLO,226
SOUBRE,BEOUMI,356
SOUBRE,BIANKOUMA,324
SOUBRE,BOCANDA,328
SOUBRE,BONDOUKOU,609
SOUBRE,BONGOUANOU,317
SOUBRE,BOUAFLE,219
SOUBRE,BOUAKE,350
SOUBRE,BOUNA,779
SOUBRE,BOUNDIALI,451
SOUBRE,DABAKALA,486
SOUBRE,DABOU,332
SOUBRE,DALOA,138
SOUBRE,DANANE,337
SOUBRE,DAOUKRO,396
SOUBRE,DIMBOKRO,265
SOUBRE,DIVO,180
SOUBRE,DUEKOUE,184
SOUBRE,FERKE,577
SOUBRE,GAGNOA,98
SOUBRE,GRAND-BASSAM,399
SOUBRE,GRAND-LAHOU,272
SOUBRE,GUIGLO,216
SOUBRE,ISSIA,86
SOUBRE,JACQUEVILLE,380
SOUBRE,KATIOLA,400
SOUBRE,KORHOGO,630
SOUBRE,LAKOTA,144
SOUBRE,MAN,405
SOUBRE,MANKONO,312
SOUBRE,M'BAHIAKRO,385
SOUBRE,ODIENNE,534
SOUBRE,OUME,164
SOUBRE,SAKASSOU,317
SOUBRE,SAN-PEDRO,135
SOUBRE,SASSANDRA,162
SOUBRE,SEGUELA,265
SOUBRE,SINFRA,158
SOUBRE,TABOU,232
SOUBRE,TANDA,581
SOUBRE,TENGRELA,578
SOUBRE,TIASSALE,244
SOUBRE,TIEBISSOU,285
SOUBRE,TOUBA,380
SOUBRE,TOULEPLEU,334
SOUBRE,TOUMODI,223
SOUBRE,VAVOUA,193
SOUBRE,YAMOUSSOUKRO,240
SOUBRE,ZUENOULA,230