DEPARTURE,DESTINATION,DISTANCE
VAVOUA,ABENGOUROU,447
VAVOUA,ABIDJAN,440
VAVOUA,ABOISSO,556
VAVOUA,ADIAKE,523
VAVOUA,ADZOPE,444
VAVOUA,AGBOVILLE,387
VAVOUA,AGNIBILEKROU,517
VAVOUA,ALEPE,485
VAVOUA,BANGOLO,202
VAVOUA,BEOUMI,288
VAVOUA,BIANKOUMA,290
VAVOUA,BOCANDA,330
VAVOUA,BONDOUKOU,645
VAVOUA,BONGOUANOU,350
VAVOUA,BOUAFLE,138
VAVOUA,BOUAKE,303
VAVOUA,BOUNA,655
VAVOUA,BOUNDIALI,268
VAVOUA,DABAKALA,399
VAVOUA,DABOU,433
VAVOUA,DALOA,56
VAVOUA,DANANE,313
VAVOUA,DAOUKRO,415
VAVOUA,DIMBOKRO,284
VAVOUA,DIVO,281
VAVOUA,DUEKOUE,160
VAVOUA,FERKE,419
VAVOUA,GAGNOA,199
VAVOUA,GRAND-BASSAM,470
VAVOUA,GRAND-LAHOU,373
VAVOUA,GUIGLO,192
VAVOUA,ISSIA,107
VAVOUA,JACQUEVILLE,481
VAVOUA,KATIOLA,309
VAVOUA,KORHOGO,366
VAVOUA,LAKOTA,245
VAVOUA,MAN,246
VAVOUA,MANKONO,141
VAVOUA,M'BAHIAKRO,382
VAVOUA,ODIENNE,297
VAVOUA,OUME,211
VAVOUA,SAKASSOU,274
VAVOUA,SAN-PEDRO,328
VAVOUA,SASSANDRA,355
VAVOUA,SEGUELA,72
VAVOUA,SINFRA,169
VAVOUA,SOUBRE,193
VAVOUA,TABOU,425
VAVOUA,TANDA,566
VAVOUA,TENGRELA,385
VAVOUA,TIASSALE,345
VAVOUA,TIEBISSOU,242
VAVOUA,TOUBA,205
VAVOUA,TOULEPLEU,202
VAVOUA,TOUMODI,242
VAVOUA,YAMOUSSOUKRO,197
VAVOUA,ZUENOULA,58