DEPARTURE,DESTINATION,DISTANCE
AGBOVILLE,ABENGOUROU,154
AGBOVILLE,ABIDJAN,79
AGBOVILLE,ABOISSO,192
AGBOVILLE,ADIAKE,162
AGBOVILLE,ADZOPE,54
AGBOVILLE,AGNIBILEKROU,207
AGBOVILLE,ALEPE,132
AGBOVILLE,BANGOLO,453
AGBOVILLE,BEOUMI,363
AGBOVILLE,BIANKOUMA,459
AGBOVILLE,BOCANDA,269
AGBOVILLE,BONDOUKOU,343
AGBOVILLE,BONGOUANOU,149
AGBOVILLE,BOUAFLE,250
AGBOVILLE,BOUAKE,307
AGBOVILLE,BOUNA,511
AGBOVILLE,BOUNDIALI,685
AGBOVILLE,DABAKALA,442
AGBOVILLE,DABOU,111
AGBOVILLE,DALOA,333
AGBOVILLE,DANANE,587
AGBOVILLE,DAOUKRO,184
AGBOVILLE,DIMBOKRO,189
AGBOVILLE,DIVO,140
AGBOVILLE,DUEKOUE,411
AGBOVILLE,FERKE,522
AGBOVILLE,GAGNOA,221
AGBOVILLE,GRAND-BASSAM,109
AGBOVILLE,GRAND-LAHOU,227
AGBOVILLE,GUIGLO,471
AGBOVILLE,ISSIA,334
AGBOVILLE,JACQUEVILLE,127
AGBOVILLE,KATIOLA,359
AGBOVILLE,KATIOLA,359
AGBOVILLE,KORHOGO,577
AGBOVILLE,LAKOTA,176
AGBOVILLE,MAN,526
AGBOVILLE,MANKONO,395
AGBOVILLE,M'BAHIAKRO,249
AGBOVILLE,ODIENNE,781
AGBOVILLE,OUME,206
AGBOVILLE,SAKASSOU,272
AGBOVILLE,SAN-PEDRO,504
AGBOVILLE,SASSANDRA,373
AGBOVILLE,SEGUELA,456
AGBOVILLE,SINFRA,277
AGBOVILLE,SOUBRE,314
AGBOVILLE,TABOU,530
AGBOVILLE,TANDA,328
AGBOVILLE,TENGRELA,800
AGBOVILLE,TIASSALE,76
AGBOVILLE,TIEBISSOU,236
AGBOVILLE,TOUBA,626
AGBOVILLE,TOULEPLEU,575
AGBOVILLE,TOUMODI,145
AGBOVILLE,VAVOUA,387
AGBOVILLE,YAMOUSSOUKRO,392
AGBOVILLE,ZUENOULA,316