GUIGLO,ABENGOUROU,548
GUIGLO,ABIDJAN,516
GUIGLO,ABOISSO,628
GUIGLO,ADIAKE,599
GUIGLO,ADZOPE,517
GUIGLO,AGBOVILLE,471
GUIGLO,AGNIBILEKROU,593
GUIGLO,ALEPE,568
GUIGLO,BANGOLO,74
GUIGLO,BEOUMI,441
GUIGLO,BIANKOUMA,169
GUIGLO,BOCANDA,380
GUIGLO,BONDOUKOU,708
GUIGLO,BONGOUANOU,416
GUIGLO,BOUAFLE,212
GUIGLO,BOUAKE,391
GUIGLO,BOUNA,878
GUIGLO,BOUNDIALI,550
GUIGLO,DABAKALA,526
GUIGLO,DABOU,458
GUIGLO,DALOA,131
GUIGLO,DANANE,185
GUIGLO,DAOUKRO,491
GUIGLO,DIMBOKRO,360
GUIGLO,DIVO,304
GUIGLO,DUEKOUE,34
GUIGLO,FERKE,610
GUIGLO,GAGNOA,222
GUIGLO,GRAND-BASSAM,546
GUIGLO,GRAND-LAHOU,396
GUIGLO,ISSIA,130
GUIGLO,JACQUEVILLE,506
GUIGLO,KATIOLA,433
GUIGLO,KORHOGO,663
GUIGLO,LAKOTA,268
GUIGLO,MAN,118
GUIGLO,MANKONO,326
GUIGLO,M'BAHIAKRO,467
GUIGLO,ODIENNE,382
GUIGLO,OUME,288
GUIGLO,SAKASSOU,350
GUIGLO,SAN-PEDRO,351
GUIGLO,SASSANDRA,378
GUIGLO,SEGUELA,255
GUIGLO,SINFRA,216
GUIGLO,SOUBRE,216
GUIGLO,TABOU,288
GUIGLO,TANDA,642
GUIGLO,TENGRELA,635
GUIGLO,TIASSALE,368
GUIGLO,TIEBISSOU,318
GUIGLO,TOUBA,228
GUIGLO,TOULEPLEU,112
GUIGLO,TOUMODI,318
GUIGLO,VAVOUA,192
GUIGLO,YAMOUSSOUKRO,273
GUIGLO,ZUENOULA,229