DEPARTURE,DESTINATION,DISTANCE
BOCANDA,ABENGOUROU,208
BOCANDA,ABIDJAN,312
BOCANDA,ABOISSO,419
BOCANDA,ADIAKE,461
BOCANDA,ADZOPE,215
BOCANDA,AGBOVILLE,269
BOCANDA,AGNIBILEKROU,278
BOCANDA,ALEPE,357
BOCANDA,BANGOLO,421
BOCANDA,BEOUMI,169
BOCANDA,BIANKOUMA,506
BOCANDA,BONDOUKOU,417
BOCANDA,BONGOUANOU,127
BOCANDA,BOUAFLE,198
BOCANDA,BOUAKE,144
BOCANDA,BOUNA,548
BOCANDA,DABAKALA,201
BOCANDA,DABOU,296
BOCANDA,DALOA,246
BOCANDA,DANANE,501
BOCANDA,DAOUKRO,70
BOCANDA,DIMBOKRO,63
BOCANDA,DIVO,230
BOCANDA,DUEKOUE,346
BOCANDA,FERKE,375
BOCANDA,GAGNOA,225
BOCANDA,GRAND-BASSAM,330
BOCANDA,GRAND-LAHOU,381
BOCANDA,GUIGLO,380
BOCANDA,ISSIA,303
BOCANDA,JACQUEVILLE,344
BOCANDA,KATIOLA,198
BOCANDA,KORHOGO,428
BOCANDA,LAKOTA,237
BOCANDA,MAN,477
BOCANDA,MANKONO,312
BOCANDA,M'BAHIAKRO,60
BOCANDA,ODIENNE,662
BOCANDA,OUME,157
BOCANDA,SAKASSOU,127
BOCANDA,SAN-PEDRO,466
BOCANDA,SASSANDRA,387
BOCANDA,SEGUELA,402
BOCANDA,SINFRA,219
BOCANDA,SOUBRE,328
BOCANDA,TABOU,556
BOCANDA,TANDA,361
BOCANDA,TENGRELA,643
BOCANDA,TIASSALE,216
BOCANDA,TIEBISSOU,92
BOCANDA,TOUBA,575
BOCANDA,TOULEPLEU,492
BOCANDA,TOUMODI,106
BOCANDA,VAVOUA,330
BOCANDA,YAMOUSSOUKRO,133
BOCANDA,ZUENOULA,260