ANTENNA,LONGITUDE,LATITUDE,ROUTE,SUBLOCALITY,LOCALITY,ADMIN2,ADMIN1,COUNTRY
1,-4.143452,5.342044,A3,Yopougon,Abidjan,Abidjan,Lagunes,Cote D'Ivoire
2,-3.913602,5.341612,Unnamed Road,Cocody,Abidjan,Abidjan,Lagunes,Cote D'Ivoire
3,-3.967045,5.263331,Boulevard de Petit Bassam,Port-Bouet,Abidjan,Abidjan,Lagunes,Cote D'Ivoire
4,-4.070007,5.451365,Unnamed Road,Abobo,Abidjan,Abidjan,Lagunes,Cote D'Ivoire
5,-3.496235,6.729410,Unnamed Road,null,Abengourou,Abengourou,Moyen-Comoe,Cote D'Ivoire
6,-3.485944,6.729422,Unnamed Road,null,Abengourou,Abengourou,Moyen-Comoe,Cote D'Ivoire
7,-3.981175,5.273144,Boulevard de Marseille,Marcory,Abidjan,Abidjan,Lagunes,Cote D'Ivoire
8,-3.911705,5.858010,A1,null,Abie,Adzope,Agnebi,Cote D'Ivoire
9,-4.014445,5.421120,O 124,Abobo,Abidjan,Abidjan,Lagunes,Cote D'Ivoire
10,-4.021600,5.446905,Q 1,Abobo,Abidjan,Abidjan,Lagunes,Cote D'Ivoire
11,-4.006585,5.435913,D 263,Abobo,Abidjan,Abidjan,Lagunes,Cote D'Ivoire
12,-4.018753,5.420699,A1,Abobo,Abidjan,Abidjan,Lagunes,Cote D'Ivoire
13,-3.997226,5.417191,P 2,Abobo,Abidjan,Abidjan,Lagunes,Cote D'Ivoire
14,-3.998050,5.407898,L 289,Abobo,Abidjan,Abidjan,Lagunes,Cote D'Ivoire
15,-3.211737,5.469107,A 100,null,Aboisso,Aboisso,Sud-Comoe,Cote D'Ivoire
16,-4.095467,6.664730,A8,null,null,Bongouanou,Nzi-Comoe,Cote D'Ivoire
17,-3.543346,6.221734,B 106,null,Yakasse,Adzope,Agnebi,Cote D'Ivoire
18,-4.531543,5.888553,A2,null,Aboude Mendeke,Agboville,Agnebi,Cote D'Ivoire
19,-3.164583,5.291790,B102,null,null,Aboisso,Sud-Comoe,Cote D'Ivoire
20,-4.110951,5.315826,Unnamed Road,Yopougon,Abidjan,Abidjan,Lagunes,Cote D'Ivoire
21,-5.222521,5.318050,null,null,null,null,Sud-Bandama,Cote D'Ivoire
22,-3.267292,5.422211,A 100,null,Adaou,Aboisso,Sud-Comoe,Cote D'Ivoire
23,-4.643405,5.175587,null,null,null,Jacqueville,Lagunes,Cote D'Ivoire
24,-5.829559,5.503682,Lakota - Bamenadou Road,null,null,Lakota,Sud-Bandama,Cote D'Ivoire
25,-3.312813,5.304410,Unnamed Road,null,null,Adiake,Sud-Comoe,Cote D'Ivoire
26,-4.196007,5.318276,A3,null,null,Abidjan,Lagunes,Cote D'Ivoire
27,-4.025873,5.349383,Boulevard Abrogoua,Adjame,Abidjan,Abidjan,Lagunes,Cote D'Ivoire
28,-6.850079,4.770215,San Pedro - Tabou Road,null,null,San-Pedro,Bas-Sassandra,Cote D'Ivoire
29,-3.886351,5.241777,Unnamed Road,Port-Bouet,Abidjan,Abidjan,Lagunes,Cote D'Ivoire
30,-3.854787,6.091386,A1,null,Adzope,Adzope,Agnebi,Cote D'Ivoire
31,-3.932052,5.255240,Boulevard de lAeroport,Port-Bouet,Abidjan,Abidjan,Lagunes,Cote D'Ivoire
32,-3.932886,5.254522,Boulevard de lAeroport,Port-Bouet,Abidjan,Abidjan,Lagunes,Cote D'Ivoire
33,-3.936289,5.255852,Boulevard de lAeroport,Port-Bouet,Abidjan,Abidjan,Lagunes,Cote D'Ivoire
34,-3.932173,5.255158,Boulevard de lAeroport,Port-Bouet,Abidjan,Abidjan,Lagunes,Cote D'Ivoire
35,-3.389103,6.657090,A1,null,null,Abengourou,Moyen-Comoe,Cote D'Ivoire
36,-3.943785,6.324254,A1,null,Bekuefin,Adzope,Agnebi,Cote D'Ivoire
37,-2.919295,5.414372,A 100,null,EHANIA,Aboisso,Sud-Comoe,Cote D'Ivoire
38,-4.030648,5.362591,Autoroute du Nord,Attecoube,Abidjan,Abidjan,Lagunes,Cote D'Ivoire
39,-4.210628,5.928580,B 107,null,Agboville,Agboville,Agnebi,Cote D'Ivoire
40,-4.023072,5.323831,Avenue Terrasson de Fougères,Plateau,Abidjan,Abidjan,Lagunes,Cote D'Ivoire
41,-3.953847,5.362749,Boulevard François Mitterrand,Cocody,Abidjan,Abidjan,Lagunes,Cote D'Ivoire
42,-4.217436,5.928619,null,null,Agboville,Agboville,Agnebi,Cote D'Ivoire
43,-4.480228,6.485860,null,null,null,Bongouanou,Nzi-Comoe,Cote D'Ivoire
44,-3.204848,7.127898,Route Secondaire,null,Agnibilekrou,Agnibilekrou,Moyen-Comoe,Cote D'Ivoire
45,-3.944274,5.979019,A1,null,null,Adzope,Agnebi,Cote D'Ivoire
46,-3.855413,6.358537,A1,null,null,Adzope,Agnebi,Cote D'Ivoire
47,-4.938259,6.257808,A3,null,null,Toumodi,Lacs,Cote D'Ivoire
48,-6.088081,6.046795,A4,null,null,Gagnoa,Fromager,Cote D'Ivoire
49,-4.889781,5.526307,null,null,null,Grand-Lahou,Lagunes,Cote D'Ivoire
50,-5.312954,7.657290,Unnamed Road,null,null,Sakassou,Vallee du Bandama,Cote D'Ivoire
51,-5.057637,7.682969,Unnamed Road,null,Bouake,Bouake,Vallee du Bandama,Cote D'Ivoire
52,-3.802443,5.477023,null,null,Ahoutoue,Alepe,Lagunes,Cote D'Ivoire
53,-5.023201,7.661988,A3,null,Bouake,Bouake,Vallee du Bandama,Cote D'Ivoire
54,-3.960562,5.289332,Boulevard du 7 Decembre,Koumassi,Abidjan,Abidjan,Lagunes,Cote D'Ivoire
55,-3.196808,6.394176,New Debiso - Akatiso Road,null,Akatiso,Juabeso,Western,GH
56,-4.011552,5.450978,Q 125,Abobo,Abidjan,Abidjan,Lagunes,Cote D'Ivoire
57,-4.039695,5.327666,K 76,Attecoube,Abidjan,Abidjan,Lagunes,Cote D'Ivoire
58,-3.229693,6.964909,A1,null,null,Agnibilekrou,Moyen-Comoe,Cote D'Ivoire
59,-5.074323,7.234814,Unnamed Road,null,null,Tiebissou Department,Lacs,Cote D'Ivoire
60,-5.326043,6.839458,A6,Yamoussoukro,Yamoussoukro,Yamoussoukro,Lacs,Cote D'Ivoire
61,-3.940107,5.353750,G 11,Cocody,Abidjan,Abidjan,Lagunes,Cote D'Ivoire
62,-5.502224,6.346656,A4,null,null,Oume,Fromager,Cote D'Ivoire
63,-3.886707,6.379913,Unnamed Road,null,Akoupe,Akoupe,Agnebi,Cote D'Ivoire
64,-5.879383,6.938892,A 6,null,null,Bouafle,Marahoue,Cote D'Ivoire
65,-4.362741,5.449850,Unnamed Road,null,Akradio,Dabou,Lagunes,Cote D'Ivoire
66,-3.066385,5.678652,B102,null,Akresi,Aboisso,Sud-Comoe,Cote D'Ivoire
67,-5.622253,5.656363,null,null,null,Lakota,Sud-Bandama,Cote D'Ivoire
68,-4.362966,5.206767,Unnamed Road,null,Akrou,Jacqueville,Lagunes,Cote D'Ivoire
69,-3.961111,5.269830,Boulevard Valery Giscard dEstaing,Koumassi,Abidjan,Abidjan,Lagunes,Cote D'Ivoire
70,-3.661060,5.497098,Unnamed Road,null,Alepe,Alepe,Lagunes,Cote D'Ivoire
71,-3.850767,5.234282,A 100,Port-Bouet,null,Abidjan,Lagunes,Cote D'Ivoire
72,-3.961963,5.349939,E 29,Cocody,Abidjan,Abidjan,Lagunes,Cote D'Ivoire
73,-2.901394,5.272661,B102,null,null,Aboisso,Sud-Comoe,Cote D'Ivoire
74,-5.047979,7.917161,A3,null,null,Bouake,Vallee du Bandama,Cote D'Ivoire
75,-4.069722,5.326284,M 37,Yopougon,Abidjan,Abidjan,Lagunes,Cote D'Ivoire
76,-3.957629,5.310841,Unnamed Road,Marcory,Abidjan,Abidjan,Lagunes,Cote D'Ivoire
77,-4.088085,5.321261,T 112,Yopougon,Abidjan,Abidjan,Lagunes,Cote D'Ivoire
78,-5.260289,7.351836,A3,null,null,Tiebissou Department,Lacs,Cote D'Ivoire
79,-3.960988,5.363379,I 161,Cocody,Abidjan,Abidjan,Lagunes,Cote D'Ivoire
80,-3.576687,6.822775,A1,null,null,Abengourou,Moyen-Comoe,Cote D'Ivoire
81,-4.060129,5.322377,Unnamed Road,Yopougon,Abidjan,Abidjan,Lagunes,Cote D'Ivoire
82,-3.975370,5.303743,Boulevard du Cameroun,Marcory,Abidjan,Abidjan,Lagunes,Cote D'Ivoire
83,-3.535525,7.106592,null,null,null,Agnibilekrou,Moyen-Comoe,Cote D'Ivoire
84,-4.257006,7.317604,A8,null,null,Daoukro,Nzi-Comoe,Cote D'Ivoire
85,-5.973374,6.121154,A4,null,Gagnoa,Gagnoa,Fromager,Cote D'Ivoire
86,-4.020957,5.396149,A1,Adjame,Abidjan,Abidjan,Lagunes,Cote D'Ivoire
87,-4.099931,5.345330,S 95,Yopougon,Abidjan,Abidjan,Lagunes,Cote D'Ivoire
88,-4.470855,6.076311,null,null,null,Agboville,Agnebi,Cote D'Ivoire
89,-3.765255,6.230481,A1,null,Ananguie,Adzope,Agnebi,Cote D'Ivoire
90,-4.006379,5.342979,Rue Pitot,Cocody,Abidjan,Abidjan,Lagunes,Cote D'Ivoire
91,-6.918692,7.662726,null,null,null,Vavoua,Haut-Sassandra,Cote D'Ivoire
92,-4.063918,6.778021,A8,null,null,Bongouanou,Nzi-Comoe,Cote D'Ivoire
93,-5.557924,7.485534,null,null,null,Sakassou,Vallee du Bandama,Cote D'Ivoire
94,-4.067051,5.366841,Unnamed Road,Yopougon,Abidjan,Abidjan,Lagunes,Cote D'Ivoire
95,-3.984856,5.404333,L 155 - Voie de la 7e Tranche,Cocody,Abidjan,Abidjan,Lagunes,Cote D'Ivoire
96,-4.010147,5.426250,Q 141,Abobo,Abidjan,Abidjan,Lagunes,Cote D'Ivoire
97,-5.029667,6.681041,A3,null,null,Toumodi,Lacs,Cote D'Ivoire
98,-5.538657,7.026516,A6,null,null,Bouafle,Marahoue,Cote D'Ivoire
99,-3.987795,5.387504,L 70,Cocody,Abidjan,Abidjan,Lagunes,Cote D'Ivoire
100,-3.671596,6.651527,A1,null,Aniassue,Abengourou,Moyen-Comoe,Cote D'Ivoire
101,-3.968803,5.348878,E 128,Cocody,Abidjan,Abidjan,Lagunes,Cote D'Ivoire
102,-3.972668,5.338835,D 28,Cocody,Abidjan,Abidjan,Lagunes,Cote D'Ivoire
103,-3.963821,5.304552,Unnamed Road,Koumassi,Abidjan,Abidjan,Lagunes,Cote D'Ivoire
104,-4.521858,6.333795,null,null,null,Bongouanou,Nzi-Comoe,Cote D'Ivoire
105,-4.049611,5.493694,A1,null,Anyama,Anyama,Lagunes,Cote D'Ivoire
106,-3.415245,6.560297,B 102,null,Akouaba,Abengourou,Moyen-Comoe,Cote D'Ivoire
107,-2.850978,7.882746,Sampa Bondoukou Road,null,null,Bondoukou,Zanzan,Cote D'Ivoire
108,-3.172580,5.981350,B 102,null,null,Aboisso,Sud-Comoe,Cote D'Ivoire
109,-3.333329,6.299667,B 102,null,null,Abengourou,Moyen-Comoe,Cote D'Ivoire
110,-3.354502,6.986765,A1,null,null,Agnibilekrou,Moyen-Comoe,Cote D'Ivoire
111,-4.007751,5.329997,Avenue de lEntente,Cocody,Abidjan,Abidjan,Lagunes,Cote D'Ivoire
112,-4.059797,7.139565,A8,null,null,Daoukro,Nzi-Comoe,Cote D'Ivoire
113,-3.945723,6.669894,A8,null,null,Adzope,Agnebi,Cote D'Ivoire
114,-4.002847,5.300285,Boulevard Mamadou Konate,Treichville,Abidjan,Abidjan,Lagunes,Cote D'Ivoire
115,-3.761142,5.210271,Unnamed Road,null,Grand-Bassam,Grand-Bassam,Sud-Comoe,Cote D'Ivoire
116,-5.149748,7.610253,A8,null,null,Bouake,Vallee du Bandama,Cote D'Ivoire
117,-3.888782,6.953638,A8,null,null,Daoukro,Nzi-Comoe,Cote D'Ivoire
118,-5.392878,7.352591,null,null,null,Sakassou,Vallee du Bandama,Cote D'Ivoire
119,-4.286104,6.775750,null,null,null,Bongouanou,Nzi-Comoe,Cote D'Ivoire
120,-3.812074,5.973719,A1,null,null,Adzope,Agnebi,Cote D'Ivoire
121,-3.507525,5.143694,null,null,null,null,null,Cote D'Ivoire
122,-4.984303,6.499950,A3,null,null,Toumodi,Lacs,Cote D'Ivoire
123,-2.988659,7.712284,A1,null,null,Tanda,Zanzan,Cote D'Ivoire
124,-4.019877,5.323140,Avenue Chardy,Plateau,Abidjan,Abidjan,Lagunes,Cote D'Ivoire
125,-3.387237,5.145088,Route Assinie-Mafia,null,null,Adiake,Sud-Comoe,Cote D'Ivoire
126,-4.081830,5.331853,Rue des Terminalias,Yopougon,Abidjan,Abidjan,Lagunes,Cote D'Ivoire
127,-5.118239,6.783518,INPHB Centre- INPHB Sud,Yamoussoukro,Yamoussoukro,Yamoussoukro,Lacs,Cote D'Ivoire
128,-3.983764,5.545714,L 237,Cocody,Abidjan,Abidjan,Lagunes,Cote D'Ivoire
129,-4.179349,5.456140,Autoroute du Nord,Attecoube,null,Abidjan,Lagunes,Cote D'Ivoire
130,-3.979273,5.366714,L 23,Cocody,Abidjan,Abidjan,Lagunes,Cote D'Ivoire
131,-4.045171,6.067150,A1,null,Miazdin,Adzope,Agnebi,Cote D'Ivoire
132,-5.250039,6.802218,A3,Yamoussoukro,Yamoussoukro,Yamoussoukro,Lacs,Cote D'Ivoire
133,-7.564386,9.502505,A7,null,Odienne,Odienne,Denguele,Cote D'Ivoire
134,-3.161502,5.602840,B102,null,Ayame,Aboisso,Sud-Comoe,Cote D'Ivoire
135,-4.045033,5.632944,A1,null,Agboville,Agboville,Agboville,Cote D'Ivoire
136,-4.088991,5.526551,A1,null,null,Abidjan,Lagunes,Cote D'Ivoire
137,-4.088784,5.312996,Unnamed Road,Yopougon,Abidjan,Abidjan,Lagunes,Cote D'Ivoire
138,-3.985522,5.300026,Rue dAgboville,Marcory,Abidjan,Abidjan,Lagunes,Cote D'Ivoire
139,-6.780258,7.125523,null,null,null,Vavoua,Haut-Sassandra,Cote D'Ivoire
140,-6.658660,4.767880,Unnamed Road,San-Pedro,San-Pedro,San-Pedro,Bas-Sassandra,Cote D'Ivoire
141,-5.945550,6.148645,Unnamed Road,null,Gagnoa,Gagnoa,Fromager,Cote D'Ivoire
142,-4.894020,5.657079,null,null,null,Grand-Lahou,Lagunes,Cote D'Ivoire
143,-4.018886,5.318739,Avenue Lamblin,Plateau,Abidjan,Abidjan,Lagunes,Cote D'Ivoire
144,-5.356928,5.842847,A2,null,Divo,Divo,Sud-Bandama,Cote D'Ivoire
145,-5.152683,9.190529,A3,null,Badikaha,Niakaramandougou,Vallee du Bandama,Cote D'Ivoire
146,-4.057111,5.333743,M 37,Yopougon,Abidjan,Abidjan,Lagunes,Cote D'Ivoire
147,-4.111707,5.369141,Autoroute du Nord,Yopougon,Abidjan,Abidjan,Lagunes,Cote D'Ivoire
148,-3.889210,5.346685,Unnamed Road,Cocody,Abidjan,Abidjan,Lagunes,Cote D'Ivoire
149,-7.214502,6.897852,null,null,null,Duekoue,Moyen-Cavally,Cote D'Ivoire
150,-6.522211,6.180779,San Pedro - Betia Road,null,null,Soubre,Bas-Sassandra,Cote D'Ivoire
151,-5.808089,6.493828,null,null,null,Gagnoa,Fromager,Cote D'Ivoire
152,-6.459591,7.237881,A5,null,Baboulifla,Vavoua,Haut-Sassandra,Cote D'Ivoire
153,-6.036916,5.548626,A5,null,Dagbaro,null,Bas-Sassandra,Cote D'Ivoire
154,-7.574627,9.185684,A7,null,null,Odienne,Denguele,Cote D'Ivoire
155,-8.405955,6.457124,A701,null,Toulepleu,Toulepleu,Moyen-Cavally,Cote D'Ivoire
156,-6.429590,6.320125,A5,null,Balahio,Issia,Haut-Sassandra,Cote D'Ivoire
157,-5.448673,9.505962,Unnamed Road,null,null,Korhogo,Savanes,Cote D'Ivoire
158,-6.003071,5.414547,A5,null,null,Sassandra,Bas-Sassandra,Cote D'Ivoire
159,-6.346468,5.208540,null,null,null,Sassandra,Bas-Sassandra,Cote D'Ivoire
160,-4.306268,6.701733,Unnamed Road,null,null,Bongouanou,Nzi-Comoe,Cote D'Ivoire
161,-5.625662,9.474096,Unnamed Road,Korhogo,Korhogo,Korhogo,Savanes,Cote D'Ivoire
162,-6.735606,8.839828,A5,null,null,Seguela,Worodougou,Cote D'Ivoire
163,-4.073871,5.333064,Boulevard PrinCote D'Ivoirepal,Yopougon,Abidjan,Abidjan,Lagunes,Cote D'Ivoire
164,-6.189007,7.188134,B205,null,null,Zuenoula,Marahoue,Cote D'Ivoire
165,-4.022178,5.347719,C 16,Adjame,Abidjan,Abidjan,Lagunes,Cote D'Ivoire
166,-7.493517,7.019180,A7,null,Bangolo,Bangolo,Dix-Huit Montagnes,Cote D'Ivoire
167,-4.340991,6.164495,null,null,null,Agboville,Agnebi,Cote D'Ivoire
168,-3.962161,5.297789,Boulevard du Cameroun,Koumassi,Abidjan,Abidjan,Lagunes,Cote D'Ivoire
169,-6.668980,4.772571,San Pedro - Tabou Road,San-Pedro,San-Pedro,San-Pedro,Bas-Sassandra,Cote D'Ivoire
170,-3.951484,5.246958,A 100,Port-Bouet,Abidjan,Abidjan,Lagunes,Cote D'Ivoire
171,-4.091508,5.338455,Unnamed Road,Yopougon,Abidjan,Abidjan,Lagunes,Cote D'Ivoire
172,-5.291650,6.824332,Unnamed Road,Yamoussoukro,Yamoussoukro,Yamoussoukro,Lacs,Cote D'Ivoire
173,-3.741967,5.208949,Unnamed Road,null,Grand-Bassam,Grand-Bassam,Sud-Comoe,Cote D'Ivoire
174,-4.134714,8.040593,A 10,null,null,Mbahiakro,Nzi-Comoe,Cote D'Ivoire
175,-5.989317,6.008171,A5,null,null,Gagnoa,Fromager,Cote D'Ivoire
176,-5.958943,6.461990,null,null,null,Gagnoa,Fromager,Cote D'Ivoire
177,-4.008022,5.907137,B 107,null,null,Agboville,Agnebi,Cote D'Ivoire
178,-3.841680,6.471480,A1,null,Bekuefin,Adzope,Agnebi,Cote D'Ivoire
179,-6.277189,7.168953,B205,null,null,Daloa,Haut-Sassandra,Cote D'Ivoire
180,-3.599589,5.275466,Unnamed Road,null,Bonoua,Aboisso,Sud-Comoe,Cote D'Ivoire
181,-6.856408,6.870535,A6,null,null,Daloa,Haut-Sassandra,Cote D'Ivoire
182,-4.005653,5.406751,N 69,Abobo,Abidjan,Abidjan,Lagunes,Cote D'Ivoire
183,-3.996002,5.303214,Avenue Laurent Clouzet,Treichville,Abidjan,Abidjan,Lagunes,Cote D'Ivoire
184,-3.981183,5.347603,D 1,Cocody,Abidjan,Abidjan,Lagunes,Cote D'Ivoire
185,-4.458363,6.779429,A4,null,null,Dimbokro,Nzi-Comoe,Cote D'Ivoire
186,-5.570656,7.679088,A8,null,Beoumi,Beoumi,Vallee du Bandama,Cote D'Ivoire
187,-3.960442,5.336617,E 38,Cocody,Abidjan,Abidjan,Lagunes,Cote D'Ivoire
188,-4.023854,5.356878,Blvd. de Gaulle,Adjame,Abidjan,Abidjan,Lagunes,Cote D'Ivoire
189,-3.410267,6.078371,Unnamed Road,null,null,Abengourou,Moyen-Comoe,Cote D'Ivoire
190,-4.014304,5.342935,B 5,Cocody,Abidjan,Abidjan,Lagunes,Cote D'Ivoire
191,-3.981093,5.444594,L 237,Cocody,Abidjan,Abidjan,Lagunes,Cote D'Ivoire
192,-4.004623,5.311905,Avenue 5,Treichville,Abidjan,Abidjan,Lagunes,Cote D'Ivoire
193,-7.619350,7.732864,A7,null,Biankouma,Biankouma,Dix-Huit Montagnes,Cote D'Ivoire
194,-3.194078,6.009510,B 102,null,Bianouan,Aboisso,Sud-Comoe,Cote D'Ivoire
195,-3.754619,6.802551,A1,null,null,Abengourou,Moyen-Comoe,Cote D'Ivoire
196,-4.023901,5.333848,Boulevard Carde,Plateau,Abidjan,Abidjan,Lagunes,Cote D'Ivoire
197,-6.219751,6.637728,null,null,null,Daloa,Haut-Sassandra,Cote D'Ivoire
198,-4.031213,5.346444,Boulevard de lOuest,Adjame,Abidjan,Abidjan,Lagunes,Cote D'Ivoire
199,-3.630361,6.071691,B 106,null,Adzope,Adzope,Agnebi,Cote D'Ivoire
200,-3.972002,5.272823,Boulevard de Marseille,Marcory,Abidjan,Abidjan,Lagunes,Cote D'Ivoire
201,-6.145423,6.208062,A5,null,null,Gagnoa,Fromager,Cote D'Ivoire
202,-4.360453,5.938451,A2,null,null,Agboville,Agnebi,Cote D'Ivoire
203,-8.312376,6.768741,A701,null,null,Danane,Dix-Huit Montagnes,Cote D'Ivoire
204,-4.693509,5.820192,A3,null,null,Tiassale,Lagunes,Cote D'Ivoire
205,-3.995890,5.400109,L 130,Cocody,Abidjan,Abidjan,Lagunes,Cote D'Ivoire
206,-5.015629,6.562483,Unnamed Road,null,Toumodi,Toumodi,Lacs,Cote D'Ivoire
207,-3.889793,5.355916,Unnamed Road,Cocody,Abidjan,Abidjan,Lagunes,Cote D'Ivoire
208,-6.034083,7.338732,B 409,null,null,Zuenoula,Marahoue,Cote D'Ivoire
209,-4.026443,5.355336,Boulevard Abrogoua,Adjame,Abidjan,Abidjan,Lagunes,Cote D'Ivoire
210,-6.580547,4.934835,San Pedro - Betia Road,null,null,San-Pedro,Bas-Sassandra,Cote D'Ivoire
211,-3.869922,5.348026,2nd boulevard,null,Bingerville,Bingerville,Lagunes,Cote D'Ivoire
212,-5.712812,6.316644,A4,null,null,Oume,Fromager,Cote D'Ivoire
213,-7.170058,7.155160,null,null,null,Bangolo,Dix-Huit Montagnes,Cote D'Ivoire
214,-6.402054,10.195996,A5,null,null,Boundiali,Savanes,Cote D'Ivoire
215,-7.468959,4.528970,A7,null,null,Tabou,Bas-Sassandra,Cote D'Ivoire
216,-3.998233,5.324333,A 4,Cocody,Abidjan,Abidjan,Lagunes,Cote D'Ivoire
217,-7.983435,6.594375,A701,null,Keibli,Guiglo,Moyen-Cavally,Cote D'Ivoire
218,-4.006020,5.328494,Boulevard Hassan II,Cocody,Abidjan,Abidjan,Lagunes,Cote D'Ivoire
219,-4.541440,7.044252,A 4,null,null,Bocanda,Nzi-Comoe,Cote D'Ivoire
220,-4.672973,5.905593,A2,null,null,Tiassale,Lagunes,Cote D'Ivoire
221,-5.487001,7.897072,null,null,null,Beoumi,Vallee du Bandama,Cote D'Ivoire
222,-6.200830,6.385569,A5,null,null,Gagnoa,Fromager,Cote D'Ivoire
223,-7.334768,9.906512,Samatiglia - Kouto Road,null,null,Odienne,Denguele,Cote D'Ivoire
224,-6.525366,6.654184,A5,null,null,Issia,Haut-Sassandra,Cote D'Ivoire
225,-4.053861,5.325659,M 13,Yopougon,Abidjan,Abidjan,Lagunes,Cote D'Ivoire
226,-3.981421,5.398935,L 130,Cocody,Abidjan,Abidjan,Lagunes,Cote D'Ivoire
227,-4.808063,7.198303,null,null,null,Yamoussoukro,Lacs,Cote D'Ivoire
228,-3.776135,6.582961,A1,null,Benaouin,Adzope,Agnebi,Cote D'Ivoire
229,-3.232956,8.281940,null,null,null,Bondoukou,Zanzan,Cote D'Ivoire
230,-2.801975,8.042674,A1,Bondoukou,Bondoukou,Bondoukou,Zanzan,Cote D'Ivoire
231,-3.526192,5.488762,A100,null,null,Aboisso,Sud-Comoe,Cote D'Ivoire
232,-4.204861,6.658500,A8,null,null,Bongouanou,Nzi-Comoe,Cote D'Ivoire
233,-4.204861,6.658500,A8,null,null,Bongouanou,Nzi-Comoe,Cote D'Ivoire
234,-4.210963,7.683941,null,null,null,Mbahiakro,Nzi-Comoe,Cote D'Ivoire
235,-3.956538,5.370529,Rue EDEC,Cocody,Abidjan,Abidjan,Lagunes,Cote D'Ivoire
236,-4.640944,8.352322,B412,null,Katiola,Niakaramandougou,Vallee du Bandama,Cote D'Ivoire
237,-4.106718,5.344941,A3,Yopougon,Abidjan,Abidjan,Lagunes,Cote D'Ivoire
238,-5.217724,6.370207,null,null,null,Oume,Fromager,Cote D'Ivoire
239,-6.051272,6.924573,A 6,null,Brozra,Bouafle,Marahoue,Cote D'Ivoire
240,-3.596764,5.261879,Unnamed Road,null,Bonoua,Aboisso,Sud-Comoe,Cote D'Ivoire
241,-6.485888,7.145734,A5,null,null,Vavoua,Haut-Sassandra,Cote D'Ivoire
242,-3.964356,5.360864,I 128,Cocody,Abidjan,Abidjan,Lagunes,Cote D'Ivoire
243,-3.512154,6.734689,Unnamed Road,null,Abengourou,Abengourou,Moyen-Comoe,Cote D'Ivoire
244,-7.758445,8.839415,null,null,null,null,Bafing,Cote D'Ivoire
245,-4.014864,5.317638,Rue du Commerce,Plateau,Abidjan,Abidjan,Lagunes,Cote D'Ivoire
246,-7.508520,8.774095,A7,null,null,Touba,Bafing,Cote D'Ivoire
247,-5.295145,7.877907,null,null,null,Bouake,Vallee du Bandama,Cote D'Ivoire
248,-5.260349,7.012374,A3,null,null,Yamoussoukro,Lacs,Cote D'Ivoire
249,-5.854713,7.263305,B 409,null,null,Bouafle,Marahoue,Cote D'Ivoire
250,-5.753299,6.982540,A6,null,Bouafle,Bouafle,Marahoue,Cote D'Ivoire
251,-5.031158,7.681516,La Route de Carnival,Quartier du Commerce,Bouake,Bouake,Vallee du Bandama,Cote D'Ivoire
252,-5.672175,8.211383,B 304,null,Bouandougou,Mankono,Worodougou,Cote D'Ivoire
253,-3.804281,6.251303,A1,null,null,Adzope,Agnebi,Cote D'Ivoire
254,-5.319670,5.634025,null,null,null,null,Sud-Bandama,Cote D'Ivoire
255,-2.982898,9.277208,Unnamed Road,null,Bouna,Bouna,Zanzan,Cote D'Ivoire
256,-5.489291,6.722429,A6,null,null,Yamoussoukro,Lacs,Cote D'Ivoire
257,-6.557875,9.521702,A12,null,null,Boundiali,Savanes,Cote D'Ivoire
258,-4.024002,5.359853,E 34,Adjame,Abidjan,Abidjan,Lagunes,Cote D'Ivoire
259,-3.815094,5.296401,null,null,null,Abidjan,Lagunes,Cote D'Ivoire
260,-4.015951,5.433888,Q 134,Abobo,Abidjan,Abidjan,Lagunes,Cote D'Ivoire
261,-4.162748,5.309044,A3,Yopougon,Abidjan,Abidjan,Lagunes,Cote D'Ivoire
262,-4.846348,7.600497,A8,null,null,Bouake,Vallee du Bandama,Cote D'Ivoire
263,-6.379644,6.498782,A5,null,null,Issia,Haut-Sassandra,Cote D'Ivoire
264,-4.040343,6.912917,A8,null,null,Bongouanou,Nzi-Comoe,Cote D'Ivoire
265,-6.516944,7.601789,A5,null,null,Vavoua,Haut-Sassandra,Cote D'Ivoire
266,-5.526901,5.519589,null,null,null,null,Sud-Bandama,Cote D'Ivoire
267,-4.221507,6.654994,Unnamed Road,null,Bongouanou,Bongouanou,Nzi-Comoe,Cote D'Ivoire
268,-7.004209,6.258240,null,null,null,Soubre,Bas-Sassandra,Cote D'Ivoire
269,-7.014496,6.247475,null,null,null,Soubre,Bas-Sassandra,Cote D'Ivoire
270,-5.261862,6.821173,10,Yamoussoukro,Yamoussoukro,Yamoussoukro,Lacs,Cote D'Ivoire
271,-3.987618,5.419455,L 237,Cocody,Abidjan,Abidjan,Lagunes,Cote D'Ivoire
272,-3.495588,6.715023,Unnamed Road,null,Abengourou,Abengourou,Moyen-Comoe,Cote D'Ivoire
273,-5.278736,6.867756,A3,Yamoussoukro,Yamoussoukro,Yamoussoukro,Lacs,Cote D'Ivoire
274,-3.937196,5.306728,Unnamed Road,Koumassi,Abidjan,Abidjan,Lagunes,Cote D'Ivoire
275,-3.988471,5.341687,C 47,Cocody,Abidjan,Abidjan,Lagunes,Cote D'Ivoire
276,-5.027187,7.651894,A3,null,Bouake,Bouake,Vallee du Bandama,Cote D'Ivoire
277,-6.613363,4.736188,Boulevard Houphouet-Boigny,null,San-Pedro,San-Pedro,Bas-Sassandra,Cote D'Ivoire
278,-3.985650,5.297623,Rue Thomas Edison,Marcory,Abidjan,Abidjan,Lagunes,Cote D'Ivoire
279,-4.028446,5.330621,Boulevard de la Paix,Plateau,Abidjan,Abidjan,Lagunes,Cote D'Ivoire
280,-4.015731,5.357661,E 59,Adjame,Abidjan,Abidjan,Lagunes,Cote D'Ivoire
281,-4.000783,5.297394,Boulevard de Marseille,Treichville,Abidjan,Abidjan,Lagunes,Cote D'Ivoire
282,-3.983911,5.381465,L 40,Cocody,Abidjan,Abidjan,Lagunes,Cote D'Ivoire
283,-4.001895,5.307834,Avenue 14,Treichville,Abidjan,Abidjan,Lagunes,Cote D'Ivoire
284,-4.397612,6.243561,null,null,null,Agboville,Agnebi,Cote D'Ivoire
285,-4.021620,5.419177,S 155,Abobo,Abidjan,Abidjan,Lagunes,Cote D'Ivoire
286,-4.091533,5.354696,S 584,Yopougon,Abidjan,Abidjan,Lagunes,Cote D'Ivoire
287,-4.088099,5.307023,Unnamed Road,Yopougon,Abidjan,Abidjan,Lagunes,Cote D'Ivoire
288,-6.681608,7.954907,A8,null,Seguela,Seguela,Worodougou,Cote D'Ivoire
289,-4.073932,5.355972,Boulevard PrinCote D'Ivoirepal,Yopougon,Abidjan,Abidjan,Lagunes,Cote D'Ivoire
290,-4.003454,5.295194,Boulevard de Marseille,Treichville,Abidjan,Abidjan,Lagunes,Cote D'Ivoire
291,-3.083494,7.267637,A101,null,null,Tanda,Zanzan,Cote D'Ivoire
292,-4.014943,5.323478,Rue Paris Village,Plateau,Abidjan,Abidjan,Lagunes,Cote D'Ivoire
293,-7.627257,6.193596,A7,null,null,Guiglo,Moyen-Cavally,Cote D'Ivoire
294,-5.076243,5.703332,null,null,null,Divo,Sud-Bandama,Cote D'Ivoire
295,-3.204733,7.143858,A1,null,Agnibilekrou,Agnibilekrou,Moyen-Comoe,Cote D'Ivoire
296,-5.060519,7.705747,Unnamed Road,null,Bouake,Bouake,Vallee du Bandama,Cote D'Ivoire
297,-4.024601,5.363671,Autoroute du Nord,Adjame,Abidjan,Abidjan,Lagunes,Cote D'Ivoire
298,-4.010922,5.399818,Unnamed Road,Abobo,Abidjan,Abidjan,Lagunes,Cote D'Ivoire
299,-6.441850,6.871595,A5,null,Daloa,Daloa,Haut-Sassandra,Cote D'Ivoire
300,-3.935408,5.363574,G 50,Cocody,Abidjan,Abidjan,Lagunes,Cote D'Ivoire
301,-4.033830,5.357051,H 4,Attecoube,Abidjan,Abidjan,Lagunes,Cote D'Ivoire
302,-3.929710,5.391959,Unnamed Road,Cocody,Abidjan,Abidjan,Lagunes,Cote D'Ivoire
303,-4.110586,5.330667,T 13,Yopougon,Abidjan,Abidjan,Lagunes,Cote D'Ivoire
304,-3.965509,5.291529,Rue du Centre SoCote D'Ivoireal,Koumassi,Abidjan,Abidjan,Lagunes,Cote D'Ivoire
305,-3.999674,5.423816,Unnamed Road,Abobo,Abidjan,Abidjan,Lagunes,Cote D'Ivoire
306,-4.000748,5.374202,K 125,Cocody,Abidjan,Abidjan,Lagunes,Cote D'Ivoire
307,-4.017140,5.321476,Avenue Delafosse,Plateau,Abidjan,Abidjan,Lagunes,Cote D'Ivoire
308,-4.004406,5.340151,Avenue Mermoz,Cocody,Abidjan,Abidjan,Lagunes,Cote D'Ivoire
309,-4.013611,5.438612,Q 180,Abobo,Abidjan,Abidjan,Lagunes,Cote D'Ivoire
310,-4.013690,5.438639,Q 180,Abobo,Abidjan,Abidjan,Lagunes,Cote D'Ivoire
311,-3.967119,5.299439,Boulevard du Cameroun,Koumassi,Abidjan,Abidjan,Lagunes,Cote D'Ivoire
312,-4.008216,5.275964,Boulevard de Vridi,Treichville,Abidjan,Abidjan,Lagunes,Cote D'Ivoire
313,-4.064482,5.337499,P 134,Yopougon,Abidjan,Abidjan,Lagunes,Cote D'Ivoire
314,-6.629436,4.745129,Avenue du Commerce,null,San-Pedro,San-Pedro,Bas-Sassandra,Cote D'Ivoire
315,-5.215331,6.761555,Unnamed Road,Yamoussoukro,Yamoussoukro,Yamoussoukro,Lacs,Cote D'Ivoire
316,-4.088608,5.389323,Unnamed Road,Yopougon,Abidjan,Abidjan,Lagunes,Cote D'Ivoire
317,-4.665621,5.322357,null,null,null,Dabou,Lagunes,Cote D'Ivoire
318,-3.957371,5.358006,E 148,Cocody,Abidjan,Abidjan,Lagunes,Cote D'Ivoire
319,-6.490724,6.392517,A5,null,null,Issia,Haut-Sassandra,Cote D'Ivoire
320,-4.323761,5.340854,A3,null,null,Dabou,Lagunes,Cote D'Ivoire
321,-4.012045,5.310706,Avenue Christiani,Treichville,Abidjan,Abidjan,Lagunes,Cote D'Ivoire
322,-4.389752,8.375399,B 412,null,null,Dabakala,Vallee du Bandama,Cote D'Ivoire
323,-4.375537,5.318976,Unnamed Road,null,Dabou,Dabou,Lagunes,Cote D'Ivoire
324,-2.945290,7.814484,B117,null,null,Bondoukou,Zanzan,Cote D'Ivoire
325,-6.813001,5.114723,null,null,null,San-Pedro,Bas-Sassandra,Cote D'Ivoire
326,-6.320198,6.548330,null,null,null,Issia,Haut-Sassandra,Cote D'Ivoire
327,-5.510773,5.301664,null,null,null,null,Sud-Bandama,Cote D'Ivoire
328,-5.466395,5.673988,null,null,null,Lakota,Sud-Bandama,Cote D'Ivoire
329,-6.065527,5.256029,A5,null,null,Sassandra,Bas-Sassandra,Cote D'Ivoire
330,-4.045457,5.340968,K 78,Attecoube,Abidjan,Abidjan,Lagunes,Cote D'Ivoire
331,-6.450498,6.886308,A6,null,Daloa,Daloa,Haut-Sassandra,Cote D'Ivoire
332,-3.153331,7.049857,A1,null,null,Agnibilekrou,Moyen-Comoe,Cote D'Ivoire
333,-8.152263,7.259263,A8,null,Danane,Danane,Dix-Huit Montagnes,Cote D'Ivoire
334,-6.841279,7.133519,null,null,null,Vavoua,Haut-Sassandra,Cote D'Ivoire
335,-3.965796,7.055639,Unnamed Road,null,Daoukro,Daoukro,Nzi-Comoe,Cote D'Ivoire
336,-5.031067,7.715351,Unnamed Road,null,Bouake,Bouake,Vallee du Bandama,Cote D'Ivoire
337,-5.824194,5.099781,Lakota - Bamenadou Road,null,null,Sassandra,Bas-Sassandra,Cote D'Ivoire
338,-5.741224,6.994209,A6,null,Bouafle,Bouafle,Marahoue,Cote D'Ivoire
339,-4.044116,5.308768,K 4,Attecoube,Abidjan,Abidjan,Lagunes,Cote D'Ivoire
340,-4.390144,5.364414,Unnamed Road,null,Debrimou,Dabou,Lagunes,Cote D'Ivoire
341,-6.590733,7.311535,A5,null,null,Vavoua,Haut-Sassandra,Cote D'Ivoire
342,-6.649482,4.725307,Route de lHôtel Balmer,null,San-Pedro,San-Pedro,Bas-Sassandra,Cote D'Ivoire
343,-5.928215,6.108661,A2,null,Gagnoa,Gagnoa,Fromager,Cote D'Ivoire
344,-4.019221,5.320609,Rue Colomb,Plateau,Abidjan,Abidjan,Lagunes,Cote D'Ivoire
345,-5.195365,7.757330,A8,null,null,Bouake,Vallee du Bandama,Cote D'Ivoire
346,-3.981818,5.393693,L 237,Cocody,Abidjan,Abidjan,Lagunes,Cote D'Ivoire
347,-5.358733,5.827758,Unnamed Road,null,Divo,Divo,Sud-Bandama,Cote D'Ivoire
348,-3.327757,6.223788,B 102,null,Diambarakrou,Abengourou,Moyen-Comoe,Cote D'Ivoire
349,-3.335695,6.572469,New Debiso - Akatiso Road,null,null,null,Western,GH
350,-4.581687,6.776808,A4,null,null,Dimbokro,Nzi-Comoe,Cote D'Ivoire
351,-6.040540,6.786449,null,null,null,Bouafle,Marahoue,Cote D'Ivoire
352,-6.267351,8.943313,Kongoso-Sienpurgo Road,null,Lengedougou Sityokaha,Mankono,Worodougou,Cote D'Ivoire
353,-6.193120,8.740131,B 301,null,Dianra,Mankono,Worodougou,Cote D'Ivoire
354,-6.597819,8.194899,A5,null,null,Seguela,Worodougou,Cote D'Ivoire
355,-3.333382,5.400626,A100,null,null,Aboisso,Sud-Comoe,Cote D'Ivoire
356,-5.465835,10.097692,A300,null,Diawala,Ferkessedougou,Savanes,Cote D'Ivoire
357,-8.092374,6.459497,A701,null,null,Guiglo,Moyen-Cavally,Cote D'Ivoire
358,-4.026400,5.341349,Boulevard Abrogoua,Plateau,Abidjan,Abidjan,Lagunes,Cote D'Ivoire
359,-2.994964,5.676073,B 102,null,null,Aboisso,Sud-Comoe,Cote D'Ivoire
360,-4.017303,5.446589,Q 125,Abobo,Abidjan,Abidjan,Lagunes,Cote D'Ivoire
361,-4.963677,7.095189,null,null,null,Tiebissou Department,Lacs,Cote D'Ivoire
362,-5.333982,6.022745,A2,null,null,Divo,Sud-Bandama,Cote D'Ivoire
363,-5.579036,6.290311,A4,null,null,Oume,Fromager,Cote D'Ivoire
364,-4.410055,6.495486,null,null,null,Bongouanou,Nzi-Comoe,Cote D'Ivoire
365,-6.276296,6.290551,A5,null,Dignago,Gagnoa,Fromager,Cote D'Ivoire
366,-5.777950,9.060697,B 302,null,Dikodougou,Korhogo,Savanes,Cote D'Ivoire
367,-4.705146,6.647368,Unnamed Road,null,Dimbokro,Dimbokro,Nzi-Comoe,Cote D'Ivoire
368,-3.597292,5.282500,Route d Adiao,null,Edio,Aboisso,Sud-Comoe,Cote D'Ivoire
369,-3.763411,5.652925,null,null,null,Alepe,Lagunes,Cote D'Ivoire
370,-3.489765,6.739238,Unnamed Road,null,Abengourou,Abengourou,Moyen-Comoe,Cote D'Ivoire
371,-5.286630,6.799785,Route De Daloa,Yamoussoukro,Yamoussoukro,Yamoussoukro,Lacs,Cote D'Ivoire
372,-7.165420,8.943801,null,null,null,Seguela,Worodougou,Cote D'Ivoire
373,-5.365853,5.835745,A2,null,Divo,Divo,Sud-Bandama,Cote D'Ivoire
374,-6.167662,6.904209,A6,null,null,Bouafle,Marahoue,Cote D'Ivoire
375,-3.649513,6.151548,B 106,null,Yakasse,Adzope,Agnebi,Cote D'Ivoire
376,-6.644531,4.761053,San Pedro - Betia Road,null,San-Pedro,San-Pedro,Bas-Sassandra,Cote D'Ivoire
377,-5.079317,7.536351,A3,null,null,Bouake,Vallee du Bandama,Cote D'Ivoire
378,-5.110817,6.476978,A4,null,null,Toumodi,Lacs,Cote D'Ivoire
379,-3.004928,5.279952,A 100,null,null,Aboisso,Sud-Comoe,Cote D'Ivoire
380,-6.593956,5.775369,Unnamed Road,null,Soubre,Soubre,Bas-Sassandra,Cote D'Ivoire
381,-3.978407,5.402154,Voie Djibi,Cocody,Abidjan,Abidjan,Lagunes,Cote D'Ivoire
382,-6.972517,8.764125,null,null,null,Seguela,Worodougou,Cote D'Ivoire
383,-5.059170,5.758322,null,null,null,Divo,Sud-Bandama,Cote D'Ivoire
384,-6.891037,5.640617,null,null,null,Soubre,Bas-Sassandra,Cote D'Ivoire
385,-3.994207,5.396479,L 87,Cocody,Abidjan,Abidjan,Lagunes,Cote D'Ivoire
386,-7.307506,5.379847,A7,null,null,Tabou,Bas-Sassandra,Cote D'Ivoire
387,-6.820336,5.207025,null,null,null,San-Pedro,Bas-Sassandra,Cote D'Ivoire
388,-7.067603,4.933897,null,null,null,San-Pedro,Bas-Sassandra,Cote D'Ivoire
389,-8.099251,6.577519,A701,null,null,Guiglo,Moyen-Cavally,Cote D'Ivoire
390,-7.063200,6.890848,null,null,null,null,Moyen-Cavally,Cote D'Ivoire
391,-7.558489,7.407572,Rue du Lycee Professionnel,null,Man,Man,Dix-Huit Montagnes,Cote D'Ivoire
392,-3.303137,9.802884,Unnamed Road,null,null,Bouna,Zanzan,Cote D'Ivoire
393,-5.615294,6.998964,A6,null,null,Bouafle,Marahoue,Cote D'Ivoire
394,-4.025588,5.321520,Boulevard de la Paix,Plateau,Abidjan,Abidjan,Lagunes,Cote D'Ivoire
395,-5.325081,5.279491,null,null,null,null,Sud-Bandama,Cote D'Ivoire
396,-5.549091,6.416902,A4,null,Oume,Oume,Fromager,Cote D'Ivoire
397,-6.558591,8.109144,A5,null,null,Seguela,Worodougou,Cote D'Ivoire
398,-7.335697,6.736038,A7,null,Duekoue,Duekoue,Moyen-Cavally,Cote D'Ivoire
399,-3.444847,7.102875,A1,null,Aprompronou,Agnibilekrou,Moyen-Comoe,Cote D'Ivoire
400,-3.103167,5.721778,B 102,null,Ebikro,Aboisso,Sud-Comoe,Cote D'Ivoire
401,-3.349588,6.364953,B 102,null,null,Abengourou,Moyen-Comoe,Cote D'Ivoire
402,-3.108281,5.156429,Half Assini - New Town Road,null,New Town,Jomoro,Western,GH
403,-2.946871,5.196997,Unnamed Road,null,null,Aboisso,Sud-Comoe,Cote D'Ivoire
404,-3.907973,5.249202,Unnamed Road,Port-Bouet,Abidjan,Abidjan,Lagunes,Cote D'Ivoire
405,-3.036088,5.287374,A 100,null,EHANIA,Aboisso,Sud-Comoe,Cote D'Ivoire
406,-4.181827,5.674443,A1,null,Agboville,Agboville,Agboville,Cote D'Ivoire
407,-4.517431,5.687066,B 108,null,Badasso,Dabou,Lagunes,Cote D'Ivoire
408,-4.024204,5.438757,R 144,Abobo,Abidjan,Abidjan,Lagunes,Cote D'Ivoire
409,-3.978126,5.374350,L 46,Cocody,Abidjan,Abidjan,Lagunes,Cote D'Ivoire
410,-3.998660,5.358400,J 3,Cocody,Abidjan,Abidjan,Lagunes,Cote D'Ivoire
411,-5.009199,7.704560,A 10,null,Bouake,Bouake,Vallee du Bandama,Cote D'Ivoire
412,-5.243575,6.865502,Unnamed Road,Yamoussoukro,Yamoussoukro,Yamoussoukro,Lacs,Cote D'Ivoire
413,-5.376729,6.243589,A 4,null,Oume,Oume,Fromager,Cote D'Ivoire
414,-6.433916,6.865056,Unnamed Road,null,Daloa,Daloa,Haut-Sassandra,Cote D'Ivoire
415,-3.751258,7.303110,null,null,null,Daoukro,Nzi-Comoe,Cote D'Ivoire
416,-4.206030,5.977015,A2,null,null,Agboville,Agnebi,Cote D'Ivoire
417,-7.383540,7.377818,A8,null,null,Man,Dix-Huit Montagnes,Cote D'Ivoire
418,-4.013284,5.300806,Avenue 20,Treichville,Abidjan,Abidjan,Lagunes,Cote D'Ivoire
419,-4.055642,5.476997,A1,null,Anyama,Anyama,Lagunes,Cote D'Ivoire
420,-4.029536,5.446151,R 144,Abobo,Abidjan,Abidjan,Lagunes,Cote D'Ivoire
421,-3.978754,7.887024,A10,null,Groumania,Mbahiakro,Nzi-Comoe,Cote D'Ivoire
422,-3.947516,5.310266,Boulevard du Cameroun,Koumassi,Abidjan,Abidjan,Lagunes,Cote D'Ivoire
423,-4.026930,5.433253,A1,Abobo,Abidjan,Abidjan,Lagunes,Cote D'Ivoire
424,-6.663211,4.982726,San Pedro - Betia Road,null,null,San-Pedro,Bas-Sassandra,Cote D'Ivoire
425,-4.018204,5.327251,Rue Lecoeur,Plateau,Abidjan,Abidjan,Lagunes,Cote D'Ivoire
426,-7.402350,6.802779,A7,null,null,Duekoue,Moyen-Cavally,Cote D'Ivoire
427,-6.881954,9.888806,B 317,null,Sanhala,Boundiali,Savanes,Cote D'Ivoire
428,-5.173229,9.577330,A12,null,Ferkessedougou,Ferkessedougou,Savanes,Cote D'Ivoire
429,-4.991186,7.718325,A 10,null,Bouake,Bouake,Vallee du Bandama,Cote D'Ivoire
430,-6.639379,4.803877,Unnamed Road,null,null,San-Pedro,Bas-Sassandra,Cote D'Ivoire
431,-4.073191,5.348648,Boulevard PrinCote D'Ivoirepal,Yopougon,Abidjan,Abidjan,Lagunes,Cote D'Ivoire
432,-3.093567,8.522855,A1,null,null,Bondoukou,Zanzan,Cote D'Ivoire
433,-3.954244,5.346763,E 90,Cocody,Abidjan,Abidjan,Lagunes,Cote D'Ivoire
434,-5.260561,6.788305,Rue De Hotel President,Yamoussoukro,Yamoussoukro,Yamoussoukro,Lacs,Cote D'Ivoire
435,-4.006901,5.394319,N 69,Abobo,Abidjan,Abidjan,Lagunes,Cote D'Ivoire
436,-4.025498,5.347331,Boulevard Abrogoua,Adjame,Abidjan,Abidjan,Lagunes,Cote D'Ivoire
437,-4.001763,5.273797,Rue Fumeurs,Port-Bouet,Abidjan,Abidjan,Lagunes,Cote D'Ivoire
438,-4.039175,5.321305,K 80,Attecoube,Abidjan,Abidjan,Lagunes,Cote D'Ivoire
439,-2.960267,5.143338,A 100,null,null,Aboisso,Sud-Comoe,Cote D'Ivoire
440,-4.020374,5.347431,C 16,Adjame,Abidjan,Abidjan,Lagunes,Cote D'Ivoire
441,-5.596074,5.114361,null,null,null,null,Sud-Bandama,Cote D'Ivoire
442,-3.996757,5.315408,Rue des Alizes,Marcory,Abidjan,Abidjan,Lagunes,Cote D'Ivoire
443,-3.971989,5.311081,Unnamed Road,Marcory,Abidjan,Abidjan,Lagunes,Cote D'Ivoire
444,-5.136517,8.232868,A3,null,null,Niakaramandougou,Vallee du Bandama,Cote D'Ivoire
445,-5.075063,7.667443,A8,null,Bouake,Bouake,Vallee du Bandama,Cote D'Ivoire
446,-5.374074,6.289009,A 4,null,Oume,Oume,Fromager,Cote D'Ivoire
447,-6.398958,6.386660,A5,null,null,Issia,Haut-Sassandra,Cote D'Ivoire
448,-6.556242,5.014968,San Pedro - Betia Road,null,null,San-Pedro,Bas-Sassandra,Cote D'Ivoire
449,-6.469458,7.057719,A5,null,null,Daloa,Haut-Sassandra,Cote D'Ivoire
450,-6.168467,6.674983,null,null,null,Daloa,Haut-Sassandra,Cote D'Ivoire
451,-5.942270,6.130722,A4,null,Gagnoa,Gagnoa,Fromager,Cote D'Ivoire
452,-5.956072,6.139050,Unnamed Road,null,Gagnoa,Gagnoa,Fromager,Cote D'Ivoire
453,-6.744566,5.040396,null,null,null,San-Pedro,Bas-Sassandra,Cote D'Ivoire
454,-6.308456,5.995786,A4,null,null,Gagnoa,Fromager,Cote D'Ivoire
455,-3.948415,5.291229,Rue Gandour Georges,Koumassi,Abidjan,Abidjan,Lagunes,Cote D'Ivoire
456,-5.811856,6.968019,A6,null,null,Bouafle,Marahoue,Cote D'Ivoire
457,-4.020596,5.352270,C 9,Adjame,Abidjan,Abidjan,Lagunes,Cote D'Ivoire
458,-5.578072,5.476926,null,null,null,null,Sud-Bandama,Cote D'Ivoire
459,-6.420293,5.996544,A4,null,null,Soubre,Bas-Sassandra,Cote D'Ivoire
460,-6.353718,5.748795,null,null,null,Soubre,Bas-Sassandra,Cote D'Ivoire
461,-7.510017,4.991704,A7,null,null,Tabou,Bas-Sassandra,Cote D'Ivoire
462,-7.533047,7.408513,A8,Man,Man,Man,Dix-Huit Montagnes,Cote D'Ivoire
463,-7.139250,6.460956,null,null,null,Duekoue,Moyen-Cavally,Cote D'Ivoire
464,-4.039971,5.441761,A1,Abobo,Abidjan,Abidjan,Lagunes,Cote D'Ivoire
465,-6.585684,6.777569,A6,null,null,Daloa,Haut-Sassandra,Cote D'Ivoire
466,-6.445524,9.842149,A5,null,Gbon,Boundiali,Savanes,Cote D'Ivoire
467,-6.943101,4.645024,San Pedro - Tabou Road,null,null,San-Pedro,Bas-Sassandra,Cote D'Ivoire
468,-4.459888,5.336893,Unnamed Road,null,Bouboury,Dabou,Lagunes,Cote D'Ivoire
469,-5.011565,5.259537,null,null,null,Grand-Lahou,Lagunes,Cote D'Ivoire
470,-3.936097,5.373825,Boulevard François Mitterrand,Cocody,Abidjan,Abidjan,Lagunes,Cote D'Ivoire
471,-4.098191,5.361681,A3,Yopougon,Abidjan,Abidjan,Lagunes,Cote D'Ivoire
472,-8.255800,6.848719,A701,null,null,Danane,Dix-Huit Montagnes,Cote D'Ivoire
473,-7.488701,6.202634,A7,null,Zagne,Guiglo,Moyen-Cavally,Cote D'Ivoire
474,-6.695674,5.200523,null,null,null,San-Pedro,Bas-Sassandra,Cote D'Ivoire
475,-6.920581,6.095993,null,null,null,Soubre,Bas-Sassandra,Cote D'Ivoire
476,-5.842532,5.991305,A2,null,null,Gagnoa,Fromager,Cote D'Ivoire
477,-5.788878,5.168620,null,null,null,null,Sud-Bandama,Cote D'Ivoire
478,-6.125097,5.901717,A5,null,Seryo,Gagnoa,Fromager,Cote D'Ivoire
479,-6.658015,5.693805,San Pedro - Betia Road,null,null,Soubre,Bas-Sassandra,Cote D'Ivoire
480,-6.562302,5.137364,San Pedro - Betia Road,null,null,San-Pedro,Bas-Sassandra,Cote D'Ivoire
481,-6.588124,5.788395,San Pedro - Betia Road,null,Soubre,Soubre,Bas-Sassandra,Cote D'Ivoire
482,-6.411278,5.891642,A4,null,null,Soubre,Bas-Sassandra,Cote D'Ivoire
483,-6.244498,6.897730,Unnamed Road,null,Gonate,Bouafle,Marahoue,Cote D'Ivoire
484,-5.933819,6.116618,A2,null,Gagnoa,Gagnoa,Fromager,Cote D'Ivoire
485,-6.264471,5.656026,null,null,null,Sassandra,Bas-Sassandra,Cote D'Ivoire
486,-6.644302,5.243337,San Pedro - Betia Road,null,null,San-Pedro,Bas-Sassandra,Cote D'Ivoire
487,-5.875734,7.468174,null,null,null,Zuenoula,Marahoue,Cote D'Ivoire
488,-5.871653,7.575051,A8,null,null,Beoumi,Vallee du Bandama,Cote D'Ivoire
489,-3.982461,5.331994,Boulevard de France,Cocody,Abidjan,Abidjan,Lagunes,Cote D'Ivoire
490,-3.970137,5.330806,Boulevard de France,Cocody,Abidjan,Abidjan,Lagunes,Cote D'Ivoire
491,-4.442550,5.741749,B 108,null,Gomon,Dabou,Lagunes,Cote D'Ivoire
492,-6.241554,6.910795,A6,null,Gonate,Bouafle,Marahoue,Cote D'Ivoire
493,-5.056944,7.725550,A3,null,Bouake,Bouake,Vallee du Bandama,Cote D'Ivoire
494,-3.918318,5.242714,A 100,Port-Bouet,Abidjan,Abidjan,Lagunes,Cote D'Ivoire
495,-4.065106,5.331971,M 37,Yopougon,Abidjan,Abidjan,Lagunes,Cote D'Ivoire
496,-3.981615,6.976050,A8,null,null,Daoukro,Nzi-Comoe,Cote D'Ivoire
497,-5.096036,6.143526,null,null,null,null,Lagunes,Cote D'Ivoire
498,-6.257249,7.248938,B205,null,null,Zuenoula,Marahoue,Cote D'Ivoire
499,-7.232343,10.032200,Samatiglia - Kouto Road,null,null,Odienne,Denguele,Cote D'Ivoire
500,-2.967225,7.896009,A1,null,null,Bondoukou,Zanzan,Cote D'Ivoire
501,-6.536738,7.516731,A5,null,null,Vavoua,Haut-Sassandra,Cote D'Ivoire
502,-5.173287,6.719836,A3,null,null,Toumodi,Lacs,Cote D'Ivoire
503,-7.416628,6.571898,A7,null,null,Duekoue,Moyen-Cavally,Cote D'Ivoire
504,-7.410396,4.922147,A7,null,null,Tabou,Bas-Sassandra,Cote D'Ivoire
505,-3.970720,6.024290,A2,null,null,Adzope,Agnebi,Cote D'Ivoire
506,-3.767708,5.473576,null,null,Grand Alepe,Alepe,Lagunes,Cote D'Ivoire
507,-4.131656,5.827580,B 107,null,null,Agboville,Agnebi,Cote D'Ivoire
508,-6.544046,6.120313,San Pedro - Betia Road,null,Zadieguhe,Soubre,Bas-Sassandra,Cote D'Ivoire
509,-4.011513,5.320095,Rue du Commerce,Plateau,Abidjan,Abidjan,Lagunes,Cote D'Ivoire
510,-6.903042,6.200876,null,null,null,Soubre,Bas-Sassandra,Cote D'Ivoire
511,-5.498054,5.835720,A2,null,null,Lakota,Sud-Bandama,Cote D'Ivoire
512,-6.419613,5.050336,San Pedro - Betia Road,null,null,San-Pedro,Bas-Sassandra,Cote D'Ivoire
513,-3.951586,5.370134,I 179,Cocody,Abidjan,Abidjan,Lagunes,Cote D'Ivoire
514,-4.092211,5.349731,S 394,Yopougon,Abidjan,Abidjan,Lagunes,Cote D'Ivoire
515,-7.463198,6.899397,A7,null,null,Duekoue,Moyen-Cavally,Cote D'Ivoire
516,-6.942918,6.740812,A6,null,null,Daloa,Haut-Sassandra,Cote D'Ivoire
517,-4.249769,5.740303,B 108,null,Besse,Agboville,Agnebi,Cote D'Ivoire
518,-6.064595,5.687304,A5,null,Gueyo,Gagnoa,Fromager,Cote D'Ivoire
519,-6.202436,6.265889,A5,null,null,Gagnoa,Fromager,Cote D'Ivoire
520,-7.104274,6.726616,A6,null,Guezon,Duekoue,Moyen-Cavally,Cote D'Ivoire
521,-7.488580,6.544460,A7,null,Guiglo,Guiglo,Moyen-Cavally,Cote D'Ivoire
522,-6.177912,6.236273,A5,null,Guiberoua,Gagnoa,Fromager,Cote D'Ivoire
523,-5.729851,9.224298,Unnamed Road,null,Guiembe,Korhogo,Savanes,Cote D'Ivoire
524,-7.499575,6.548957,A7,null,Guiglo,Guiglo,Moyen-Cavally,Cote D'Ivoire
525,-5.240423,5.532858,null,null,null,null,Sud-Bandama,Cote D'Ivoire
526,-3.968576,5.280758,Boulevard Valery Giscard dEstaing,Koumassi,Abidjan,Abidjan,Lagunes,Cote D'Ivoire
527,-6.961800,4.691381,San Pedro - Tabou Road,null,null,San-Pedro,Bas-Sassandra,Cote D'Ivoire
528,-7.113375,4.743886,San Pedro - Tabou Road,null,null,San-Pedro,Bas-Sassandra,Cote D'Ivoire
529,-5.026854,5.936340,A2,null,null,Divo,Sud-Bandama,Cote D'Ivoire
530,-5.375137,5.569036,null,null,null,null,Sud-Bandama,Cote D'Ivoire
531,-5.304716,6.195294,null,null,Hire-Ouatta,Divo,Fromager,Cote D'Ivoire
532,-3.973681,5.302463,Boulevard du Cameroun,Marcory,Abidjan,Abidjan,Lagunes,Cote D'Ivoire
533,-7.346521,6.745932,A7,null,Duekoue,Duekoue,Moyen-Cavally,Cote D'Ivoire
534,-7.352674,6.744438,Unnamed Road,null,Duekoue,Duekoue,Moyen-Cavally,Cote D'Ivoire
535,-5.271294,9.602008,A12,null,null,Ferkessedougou,Savanes,Cote D'Ivoire
536,-6.462767,6.872890,Unnamed Road,null,Daloa,Daloa,Haut-Sassandra,Cote D'Ivoire
537,-3.971822,5.291417,Boulevard Valery Giscard dEstaing,Marcory,Abidjan,Abidjan,Lagunes,Cote D'Ivoire
538,-6.829481,6.557124,null,null,null,Issia,Haut-Sassandra,Cote D'Ivoire
539,-7.412778,4.686023,A7,null,null,Tabou,Bas-Sassandra,Cote D'Ivoire
540,-4.080680,5.271017,Boulevard du Port,Treichville,Abidjan,Abidjan,Lagunes,Cote D'Ivoire
541,-3.741038,5.216546,A 100,null,Grand-Bassam,Grand-Bassam,Sud-Comoe,Cote D'Ivoire
542,-4.021495,5.325344,Avenue Marchand,Plateau,Abidjan,Abidjan,Lagunes,Cote D'Ivoire
543,-3.861475,6.123827,A1,null,null,Adzope,Agnebi,Cote D'Ivoire
544,-4.021516,5.337642,Rue Toussaint Louverture,Plateau,Abidjan,Abidjan,Lagunes,Cote D'Ivoire
545,-3.982854,5.308647,Rue du Lion,Marcory,Abidjan,Abidjan,Lagunes,Cote D'Ivoire
546,-3.997911,5.344791,Boulevard de lUniversite,Cocody,Abidjan,Abidjan,Lagunes,Cote D'Ivoire
547,-5.230336,6.884146,INPHB Centre- INPHB Sud,Yamoussoukro,Yamoussoukro,Yamoussoukro,Lacs,Cote D'Ivoire
548,-3.979221,5.408609,Voie Djibi,Cocody,Abidjan,Abidjan,Lagunes,Cote D'Ivoire
549,-3.997855,5.264206,Boulevard de Petit Bassam,Port-Bouet,Abidjan,Abidjan,Lagunes,Cote D'Ivoire
550,-4.009713,5.347320,Rue du Lycee Technique,Cocody,Abidjan,Abidjan,Lagunes,Cote D'Ivoire
551,-6.121149,6.710107,null,null,null,Bouafle,Marahoue,Cote D'Ivoire
552,-3.918091,6.166579,A1,null,null,Adzope,Agnebi,Cote D'Ivoire
553,-4.810945,5.277572,null,null,null,Grand-Lahou,Lagunes,Cote D'Ivoire
554,-5.162949,6.027690,A2,null,null,Divo,Sud-Bandama,Cote D'Ivoire
555,-6.591126,6.486824,A5,null,Issia,Issia,Haut-Sassandra,Cote D'Ivoire
556,-6.574729,6.495825,Unnamed Road,null,Issia,Issia,Haut-Sassandra,Cote D'Ivoire
557,-8.111105,6.921308,A701,null,Bouenneu,Danane,Dix-Huit Montagnes,Cote D'Ivoire
558,-4.000861,5.329992,Rue Washington,Cocody,Abidjan,Abidjan,Lagunes,Cote D'Ivoire
559,-4.410116,5.209258,Unnamed Road,null,Jacqueville,Jacqueville,Lagunes,Cote D'Ivoire
560,-4.093978,5.351223,S 159,Yopougon,Abidjan,Abidjan,Lagunes,Cote D'Ivoire
561,-3.900311,5.242825,A 100,Port-Bouet,Abidjan,Abidjan,Lagunes,Cote D'Ivoire
562,-3.990227,5.287957,Boulevard de Marseille,Marcory,Abidjan,Abidjan,Lagunes,Cote D'Ivoire
563,-6.638127,4.743548,Unnamed Road,null,San-Pedro,San-Pedro,Bas-Sassandra,Cote D'Ivoire
564,-6.655096,4.750824,Unnamed Road,null,San-Pedro,San-Pedro,Bas-Sassandra,Cote D'Ivoire
565,-7.702269,7.736758,A7,null,null,Biankouma,Dix-Huit Montagnes,Cote D'Ivoire
566,-3.908197,5.368849,Unnamed Road,null,Cote D'Ivoirete MARINA,Abidjan,Lagunes,Cote D'Ivoire
567,-5.880514,8.957472,B 302,null,null,Korhogo,Savanes,Cote D'Ivoire
568,-4.048045,5.354356,L 72,Yopougon,Abidjan,Abidjan,Lagunes,Cote D'Ivoire
569,-5.358690,6.149017,null,null,null,Divo,Sud-Bandama,Cote D'Ivoire
570,-3.968027,5.296172,Boulevard du Cameroun,Koumassi,Abidjan,Abidjan,Lagunes,Cote D'Ivoire
571,-5.148806,6.840950,Unnamed Road,null,null,Yamoussoukro,Lacs,Cote D'Ivoire
572,-3.384673,5.300356,Unnamed Road,null,null,Adiake,Sud-Comoe,Cote D'Ivoire
574,-3.970887,5.364740,I 89,Cocody,Abidjan,Abidjan,Lagunes,Cote D'Ivoire
575,-6.190153,10.362245,null,null,null,Tengrela,Savanes,Cote D'Ivoire
576,-3.922745,5.358844,G 50,Cocody,Abidjan,Abidjan,Lagunes,Cote D'Ivoire
577,-4.189861,6.645374,Unnamed Road,null,Bongouanou,Bongouanou,Nzi-Comoe,Cote D'Ivoire
578,-6.568541,8.396486,A5,null,null,Seguela,Worodougou,Cote D'Ivoire
579,-7.494363,9.810881,Samatiglia - Kouto Road,null,null,Odienne,Denguele,Cote D'Ivoire
580,-3.964283,5.253716,Rue des Caraibes,Port-Bouet,Abidjan,Abidjan,Lagunes,Cote D'Ivoire
581,-6.223618,7.329344,B205,null,null,Zuenoula,Marahoue,Cote D'Ivoire
582,-6.190267,9.883158,B315,null,null,Boundiali,Savanes,Cote D'Ivoire
583,-5.101735,8.150414,A3,null,Katiola,Niakaramandougou,Vallee du Bandama,Cote D'Ivoire
584,-4.107859,5.366512,Autoroute du Nord,Yopougon,Abidjan,Abidjan,Lagunes,Cote D'Ivoire
585,-5.004701,7.684258,Unnamed Road,null,Bouake,Bouake,Vallee du Bandama,Cote D'Ivoire
586,-3.163169,5.898876,B 102,null,Ketesso,Aboisso,Sud-Comoe,Cote D'Ivoire
587,-3.888342,6.387691,A1,null,Akoupe,Akoupe,Agnebi,Cote D'Ivoire
588,-6.657187,7.164719,null,null,null,Vavoua,Haut-Sassandra,Cote D'Ivoire
589,-6.510922,6.830770,A6,null,null,Daloa,Haut-Sassandra,Cote D'Ivoire
590,-3.988129,5.426968,P 2,Abobo,Abidjan,Abidjan,Lagunes,Cote D'Ivoire
591,-3.999023,5.291489,Boulevard de Marseille,Treichville,Abidjan,Abidjan,Lagunes,Cote D'Ivoire
592,-6.554129,5.397204,San Pedro - Betia Road,null,null,Soubre,Bas-Sassandra,Cote D'Ivoire
593,-3.593544,6.737575,A1,null,null,Abengourou,Moyen-Comoe,Cote D'Ivoire
594,-4.632792,6.740119,A4,null,null,Dimbokro,Nzi-Comoe,Cote D'Ivoire
595,-3.925076,7.459637,null,null,null,Mbahiakro,Nzi-Comoe,Cote D'Ivoire
596,-2.997322,5.565651,B102,null,null,Aboisso,Sud-Comoe,Cote D'Ivoire
597,-6.538548,5.259052,San Pedro - Betia Road,null,null,San-Pedro,Bas-Sassandra,Cote D'Ivoire
598,-3.357625,5.486608,A100,null,null,Aboisso,Sud-Comoe,Cote D'Ivoire
599,-5.937500,6.239034,Cour dAppel,null,null,Gagnoa,Fromager,Cote D'Ivoire
600,-5.246719,6.551589,A4,null,null,Toumodi,Lacs,Cote D'Ivoire
601,-5.276244,6.781851,Unnamed Road,Yamoussoukro,Yamoussoukro,Yamoussoukro,Lacs,Cote D'Ivoire
602,-6.473204,9.759210,A5,null,Kolia,Boundiali,Savanes,Cote D'Ivoire
603,-5.433118,9.308232,B 311,null,Komborodougou,Korhogo,Savanes,Cote D'Ivoire
604,-5.361033,5.852308,Unnamed Road,null,Divo,Divo,Sud-Bandama,Cote D'Ivoire
605,-5.089482,7.473700,A3,null,null,Bouake,Vallee du Bandama,Cote D'Ivoire
606,-6.660906,6.022803,Unnamed Road,null,null,Soubre,Bas-Sassandra,Cote D'Ivoire
607,-5.610111,6.653255,null,null,Konefla,Sinfra,Marahoue,Cote D'Ivoire
608,-4.595980,9.170818,B 313,null,Kong,Ferkessedougou,Savanes,Cote D'Ivoire
609,-6.103152,7.759529,A8,null,Kongaso,Mankono,Worodougou,Cote D'Ivoire
610,-6.642806,6.178199,San Pedro - Betia Road,null,null,Soubre,Bas-Sassandra,Cote D'Ivoire
611,-5.630547,9.453492,B 311,Korhogo,Korhogo,Korhogo,Savanes,Cote D'Ivoire
612,-5.623402,9.420328,B 308,Korhogo,Korhogo,Korhogo,Savanes,Cote D'Ivoire
613,-7.457531,8.503655,null,null,null,null,Bafing,Cote D'Ivoire
614,-5.474221,7.013511,A6,null,null,Yamoussoukro,Lacs,Cote D'Ivoire
615,-5.615580,5.716959,A2,null,null,Lakota,Sud-Bandama,Cote D'Ivoire
616,-5.029970,7.743987,A3,null,Bouake,Bouake,Vallee du Bandama,Cote D'Ivoire
617,-7.158029,4.640418,San Pedro - Tabou Road,null,null,San-Pedro,Bas-Sassandra,Cote D'Ivoire
618,-4.126935,6.695834,A8,null,Kotobi,Bongouanou,Nzi-Comoe,Cote D'Ivoire
619,-2.894074,5.508171,null,null,null,Aboisso,Sud-Comoe,Cote D'Ivoire
620,-3.493364,5.283255,B 107,null,null,Aboisso,Sud-Comoe,Cote D'Ivoire
621,-5.453556,6.601731,A4,null,null,Oume,Fromager,Cote D'Ivoire
622,-3.542469,7.810267,A10,null,Namassi,Tanda,Zanzan,Cote D'Ivoire
623,-4.681458,7.358088,null,null,null,Bocanda,Nzi-Comoe,Cote D'Ivoire
624,-5.687914,5.843144,Lakota - Bamenadou Road,null,Lakota,Lakota,Sud-Bandama,Cote D'Ivoire
625,-4.091141,5.346078,S 394,Yopougon,Abidjan,Abidjan,Lagunes,Cote D'Ivoire
626,-6.021667,6.617777,null,null,null,Sinfra,Marahoue,Cote D'Ivoire
627,-7.215218,7.231140,null,null,null,null,Dix-Huit Montagnes,Cote D'Ivoire
628,-3.955440,5.296296,Boulevard du Gabon,Koumassi,Abidjan,Abidjan,Lagunes,Cote D'Ivoire
629,-3.267133,7.550244,A1,null,null,Tanda,Zanzan,Cote D'Ivoire
630,-5.826223,7.764632,A8,null,null,Beoumi,Vallee du Bandama,Cote D'Ivoire
631,-6.424268,9.876011,A5,null,null,Boundiali,Savanes,Cote D'Ivoire
632,-4.060124,5.318207,Unnamed Road,Yopougon,Abidjan,Abidjan,Lagunes,Cote D'Ivoire
633,-4.722904,6.152263,null,null,null,Tiassale,Lagunes,Cote D'Ivoire
634,-6.499812,5.791645,San Pedro - Betia Road,null,null,Soubre,Bas-Sassandra,Cote D'Ivoire
635,-7.546299,7.712097,A7,null,null,Man,Dix-Huit Montagnes,Cote D'Ivoire
636,-5.198871,6.539346,A4,null,null,Toumodi,Lacs,Cote D'Ivoire
637,-4.871380,6.332571,A3,null,null,Toumodi,Lacs,Cote D'Ivoire
638,-4.398675,5.332066,Unnamed Road,null,Dabou,Dabou,Lagunes,Cote D'Ivoire
639,-6.626656,5.420351,San Pedro - Betia Road,null,null,Soubre,Bas-Sassandra,Cote D'Ivoire
640,-3.211824,5.390026,Route de Krinjabo,null,Krinjabo,Aboisso,Sud-Comoe,Cote D'Ivoire
641,-6.350181,5.142698,null,null,null,Sassandra,Bas-Sassandra,Cote D'Ivoire
642,-4.020949,5.357459,E 24,Adjame,Abidjan,Abidjan,Lagunes,Cote D'Ivoire
643,-2.799478,8.035303,Unnamed Road,Bondoukou,Bondoukou,Bondoukou,Zanzan,Cote D'Ivoire
644,-5.055711,9.597773,A12,null,null,Ferkessedougou,Savanes,Cote D'Ivoire
645,-6.450498,6.886308,A6,null,Daloa,Daloa,Haut-Sassandra,Cote D'Ivoire
646,-4.115737,5.323931,Unnamed Road,Yopougon,Abidjan,Abidjan,Lagunes,Cote D'Ivoire
647,-3.991649,5.313473,Rue des Lagunes,Marcory,Abidjan,Abidjan,Lagunes,Cote D'Ivoire
648,-5.705257,6.221361,A4,null,null,Oume,Fromager,Cote D'Ivoire
649,-5.682307,5.856200,Lakota - Bamenadou Road,null,Lakota,Lakota,Sud-Bandama,Cote D'Ivoire
650,-3.976765,5.284691,Rue Paul Langevin,Marcory,Abidjan,Abidjan,Lagunes,Cote D'Ivoire
651,-5.209950,9.583722,Unnamed Road,null,Ferkessedougou,Ferkessedougou,Savanes,Cote D'Ivoire
652,-4.158974,5.976500,A2,null,null,Agboville,Agnebi,Cote D'Ivoire
653,-2.981291,8.287601,A1,null,null,Bondoukou,Zanzan,Cote D'Ivoire
654,-3.968235,7.064204,A8,null,Daoukro,Daoukro,Nzi-Comoe,Cote D'Ivoire
655,-3.459730,5.335762,A100,null,null,Aboisso,Sud-Comoe,Cote D'Ivoire
656,-4.019145,5.360715,Autoroute du Nord,Adjame,Abidjan,Abidjan,Lagunes,Cote D'Ivoire
657,-3.970119,5.372886,I 89,Cocody,Abidjan,Abidjan,Lagunes,Cote D'Ivoire
658,-5.297223,5.200653,null,null,null,null,Sud-Bandama,Cote D'Ivoire
659,-3.975797,5.418142,M 2,Cocody,Abidjan,Abidjan,Lagunes,Cote D'Ivoire
660,-6.319879,6.314036,A5,null,null,Gagnoa,Fromager,Cote D'Ivoire
661,-4.094236,5.334197,Unnamed Road,Yopougon,Abidjan,Abidjan,Lagunes,Cote D'Ivoire
662,-7.543550,7.395898,A8,Man,Man,Man,Dix-Huit Montagnes,Cote D'Ivoire
663,-6.477021,5.915255,A4,null,null,Soubre,Bas-Sassandra,Cote D'Ivoire
664,-6.362448,5.978142,A4,null,null,Gagnoa,Fromager,Cote D'Ivoire
665,-3.734598,5.208740,Boulevard Gouverneur Angoulvant,null,Grand-Bassam,Grand-Bassam,Sud-Comoe,Cote D'Ivoire
666,-6.602872,6.860205,A6,null,null,Daloa,Haut-Sassandra,Cote D'Ivoire
667,-6.839484,6.115042,null,null,null,Soubre,Bas-Sassandra,Cote D'Ivoire
668,-7.559087,7.124531,A7,null,null,Man,Dix-Huit Montagnes,Cote D'Ivoire
669,-4.035639,5.314499,K 14,Attecoube,Abidjan,Abidjan,Lagunes,Cote D'Ivoire
670,-4.098020,5.316675,T 112,Yopougon,Abidjan,Abidjan,Lagunes,Cote D'Ivoire
671,-5.277383,6.966191,A3,null,null,Yamoussoukro,Lacs,Cote D'Ivoire
672,-4.986808,6.369647,A3,null,null,Toumodi,Lacs,Cote D'Ivoire
673,-5.034828,7.092473,null,null,null,Tiebissou Department,Lacs,Cote D'Ivoire
674,-4.464711,5.412637,A3,null,Lopou,Dabou,Lagunes,Cote D'Ivoire
675,-5.218826,8.030003,A3,null,null,Bouake,Vallee du Bandama,Cote D'Ivoire
676,-4.893759,6.574764,A4,null,null,Toumodi,Lacs,Cote D'Ivoire
677,-6.730638,6.525348,A5,null,Issia,Issia,Haut-Sassandra,Cote D'Ivoire
678,-4.336083,5.807071,B 108,null,Loviguie Un,Agboville,Agnebi,Cote D'Ivoire
679,-6.780792,6.285883,null,null,null,Issia,Haut-Sassandra,Cote D'Ivoire
680,-6.224953,7.087309,B205,null,null,Daloa,Haut-Sassandra,Cote D'Ivoire
681,-3.992043,5.296137,Rue Clement Ader,Marcory,Abidjan,Abidjan,Lagunes,Cote D'Ivoire
682,-4.006083,5.402037,N 69,Abobo,Abidjan,Abidjan,Lagunes,Cote D'Ivoire
683,-6.420821,5.668651,null,null,null,Soubre,Bas-Sassandra,Cote D'Ivoire
684,-4.075773,5.381076,Unnamed Road,Abobo,Abidjan,Abidjan,Lagunes,Cote D'Ivoire
685,-4.018453,5.384969,A1,Abobo,Abidjan,Abidjan,Lagunes,Cote D'Ivoire
686,-6.910376,9.619640,Unnamed Road,null,null,Odienne,Denguele,Cote D'Ivoire
687,-3.026582,5.391941,B102,null,null,Aboisso,Sud-Comoe,Cote D'Ivoire
688,-3.306660,5.128291,Route Assini-Mafia,null,Assinie,Adiake,Sud-Comoe,Cote D'Ivoire
689,-4.051984,5.347102,L 34,Yopougon,Abidjan,Abidjan,Lagunes,Cote D'Ivoire
690,-3.989198,5.300560,Boulevard Valery Giscard dEstaing,Marcory,Abidjan,Abidjan,Lagunes,Cote D'Ivoire
691,-6.048640,6.013814,A5,null,null,Gagnoa,Fromager,Cote D'Ivoire
692,-6.120581,6.101958,A4,null,null,Gagnoa,Fromager,Cote D'Ivoire
693,-5.201829,10.127418,A3,null,Kaouara,Ferkessedougou,Savanes,Cote D'Ivoire
694,-7.905283,7.192241,A8,null,null,Danane,Dix-Huit Montagnes,Cote D'Ivoire
695,-3.976629,5.353939,Boulevard François Mitterrand,Cocody,Abidjan,Abidjan,Lagunes,Cote D'Ivoire
696,-4.066507,5.361046,H 36,Yopougon,Abidjan,Abidjan,Lagunes,Cote D'Ivoire
697,-7.549322,7.411446,A8,Man,Man,Man,Dix-Huit Montagnes,Cote D'Ivoire
698,-7.574889,7.372969,A8,null,null,Man,Bangolo,Cote D'Ivoire
699,-5.918333,7.400231,B 409,null,Zuenoula,Zuenoula,Marahoue,Cote D'Ivoire
700,-7.607907,7.620342,A7,null,null,Man,Dix-Huit Montagnes,Cote D'Ivoire
701,-3.975456,5.363771,L 25,Cocody,Abidjan,Abidjan,Lagunes,Cote D'Ivoire
702,-6.188025,8.057509,Kongoso-Sienpurgo,null,Mankono,Mankono,Worodougou,Cote D'Ivoire
703,-3.959041,5.282471,Boulevard Antanarivo,Koumassi,Abidjan,Abidjan,Lagunes,Cote D'Ivoire
704,-3.302620,6.816576,Dormaa Ahenkro - Yamatwa Road,null,null,Bia,Western,GH
705,-5.442950,8.087727,B 304,null,Marabadiassa,Beoumi,Vallee du Bandama,Cote D'Ivoire
706,-2.722930,8.604928,null,null,null,Bondoukou,Zanzan,Cote D'Ivoire
707,-3.953466,5.302947,Boulevard du Cameroun,Koumassi,Abidjan,Abidjan,Lagunes,Cote D'Ivoire
708,-3.405973,5.155959,Route Assinie-Mafia,null,null,Adiake,Sud-Comoe,Cote D'Ivoire
709,-5.243342,6.822054,Rue Du Lycee SCote D'Ivoireentifique,Yamoussoukro,Yamoussoukro,Yamoussoukro,Lacs,Cote D'Ivoire
710,-4.098681,5.341738,S 95,Yopougon,Abidjan,Abidjan,Lagunes,Cote D'Ivoire
711,-6.499539,7.921808,A8,null,null,Seguela,Worodougou,Cote D'Ivoire
712,-6.497682,5.021883,San Pedro - Betia Road,null,null,San-Pedro,Bas-Sassandra,Cote D'Ivoire
713,-6.397111,6.091424,A 4,null,null,Soubre,Bas-Sassandra,Cote D'Ivoire
714,-3.972980,5.277731,Rue du Canal,Marcory,Abidjan,Abidjan,Lagunes,Cote D'Ivoire
715,-4.353217,7.479989,A8,null,null,Daoukro,Nzi-Comoe,Cote D'Ivoire
716,-4.350911,6.470088,null,null,null,Bongouanou,Nzi-Comoe,Cote D'Ivoire
717,-5.910284,9.959329,B314,null,null,Korhogo,Savanes,Cote D'Ivoire
718,-4.232783,5.569379,A1,null,Agboville,Agboville,Agboville,Cote D'Ivoire
719,-6.564359,5.399278,San Pedro - Betia Road,null,null,Soubre,Bas-Sassandra,Cote D'Ivoire
720,-3.986897,5.352943,C2,Cocody,Abidjan,Abidjan,Lagunes,Cote D'Ivoire
721,-3.326068,5.187367,Route Assinie-Mafia,null,Assinie,Adiake,Sud-Comoe,Cote D'Ivoire
722,-3.745863,5.511044,null,null,Memni,Alepe,Lagunes,Cote D'Ivoire
723,-7.271463,4.539052,San Pedro - Tabou Road,null,null,Tabou,Bas-Sassandra,Cote D'Ivoire
724,-4.089827,5.330620,Unnamed Road,Yopougon,Abidjan,Abidjan,Lagunes,Cote D'Ivoire
725,-3.981154,5.287905,Rue Paul Langevin,Marcory,Abidjan,Abidjan,Lagunes,Cote D'Ivoire
726,-3.996917,5.338776,Avenue Mermoz,Cocody,Abidjan,Abidjan,Lagunes,Cote D'Ivoire
727,-3.948061,5.301857,Boulevard du Cameroun,Koumassi,Abidjan,Abidjan,Lagunes,Cote D'Ivoire
728,-4.010331,5.433724,Q 134,Abobo,Abidjan,Abidjan,Lagunes,Cote D'Ivoire
729,-3.977106,5.262975,Ave. Ebrie,Port-Bouet,Abidjan,Abidjan,Lagunes,Cote D'Ivoire
730,-3.901632,6.042368,A1,null,Miazdin,Adzope,Agnebi,Cote D'Ivoire
731,-3.992120,5.330695,Rue du Belier,Cocody,Abidjan,Abidjan,Lagunes,Cote D'Ivoire
732,-4.005167,5.327250,Boulevard Hassan II,Cocody,Abidjan,Abidjan,Lagunes,Cote D'Ivoire
733,-4.004686,5.326608,Boulevard Hassan II,Cocody,Abidjan,Abidjan,Lagunes,Cote D'Ivoire
734,-4.022785,5.348971,Avenue 13,Adjame,Abidjan,Abidjan,Lagunes,Cote D'Ivoire
735,-4.012956,5.322000,Blvd. de Gaulle,Plateau,Abidjan,Abidjan,Lagunes,Cote D'Ivoire
736,-4.019658,5.303226,Rue des Tonniers,Treichville,Abidjan,Abidjan,Lagunes,Cote D'Ivoire
737,-4.012956,5.322000,Blvd. de Gaulle,Plateau,Abidjan,Abidjan,Lagunes,Cote D'Ivoire
738,-4.018288,5.315845,Avenue Nogues,Plateau,Abidjan,Abidjan,Lagunes,Cote D'Ivoire
739,-4.022977,5.328233,Boulevard Roume,Plateau,Abidjan,Abidjan,Lagunes,Cote D'Ivoire
740,-3.103167,5.721778,B 102,null,Ebikro,Aboisso,Sud-Comoe,Cote D'Ivoire
741,-4.013608,5.321946,Avenue Delafosse Prolongee,Plateau,Abidjan,Abidjan,Lagunes,Cote D'Ivoire
742,-4.025863,5.317340,Boulevard de la Paix,Plateau,Abidjan,Abidjan,Lagunes,Cote D'Ivoire
743,-4.012956,5.322000,Blvd. de Gaulle,Plateau,Abidjan,Abidjan,Lagunes,Cote D'Ivoire
744,-4.020125,5.326327,Boulevard Clozel,Plateau,Abidjan,Abidjan,Lagunes,Cote D'Ivoire
745,-4.020806,5.330889,Boulevard Clozel,Plateau,Abidjan,Abidjan,Lagunes,Cote D'Ivoire
746,-4.016714,5.321921,Avenue Franchet dEsperey,Plateau,Abidjan,Abidjan,Lagunes,Cote D'Ivoire
747,-4.014864,5.317636,Rue du Commerce,Plateau,Abidjan,Abidjan,Lagunes,Cote D'Ivoire
748,-4.088972,5.375542,Unnamed Road,Yopougon,Abidjan,Abidjan,Lagunes,Cote D'Ivoire
750,-3.977307,5.299651,Boulevard du Cameroun,Marcory,Abidjan,Abidjan,Lagunes,Cote D'Ivoire
751,-4.054213,5.356424,Route de Dabou,Yopougon,Abidjan,Abidjan,Lagunes,Cote D'Ivoire
752,-7.801058,9.936394,Unnamed Road,null,null,Odienne,Denguele,Cote D'Ivoire
753,-6.585165,6.474772,Unnamed Road,null,Issia,Issia,Haut-Sassandra,Cote D'Ivoire
754,-4.025267,5.356514,Blvd. de Gaulle,Adjame,Abidjan,Abidjan,Lagunes,Cote D'Ivoire
755,-4.014643,5.365073,K 64,Cocody,Abidjan,Abidjan,Lagunes,Cote D'Ivoire
756,-4.015500,5.353386,E 8,Adjame,Abidjan,Abidjan,Lagunes,Cote D'Ivoire
757,-3.815310,6.198773,A1,null,null,Adzope,Agnebi,Cote D'Ivoire
758,-3.909364,5.239959,A 100,Port-Bouet,Abidjan,Abidjan,Lagunes,Cote D'Ivoire
759,-5.046261,7.671804,Unnamed Road,null,Bouake,Bouake,Vallee du Bandama,Cote D'Ivoire
760,-3.676390,5.184273,A 100,null,null,Grand-Bassam,Sud-Comoe,Cote D'Ivoire
761,-6.846487,7.089473,null,null,null,Daloa,Haut-Sassandra,Cote D'Ivoire
762,-5.649694,9.460815,Unnamed Road,Korhogo,Korhogo,Korhogo,Savanes,Cote D'Ivoire
763,-6.838689,8.077641,A8,null,null,Seguela,Worodougou,Cote D'Ivoire
764,-7.630437,7.458949,A7,null,null,Man,Dix-Huit Montagnes,Cote D'Ivoire
765,-3.726429,5.228471,Unnamed Road,null,Grand-Bassam,Grand-Bassam,Sud-Comoe,Cote D'Ivoire
766,-8.160174,7.267459,A8,null,Danane,Danane,Dix-Huit Montagnes,Cote D'Ivoire
767,-5.295970,6.847863,A3,Yamoussoukro,Yamoussoukro,Yamoussoukro,Lacs,Cote D'Ivoire
768,-4.709957,6.078331,A3,null,null,Tiassale,Lagunes,Cote D'Ivoire
769,-6.796540,8.972820,A5,null,null,Seguela,Worodougou,Cote D'Ivoire
770,-5.270035,6.807758,Rue De Sopim,Yamoussoukro,Yamoussoukro,Yamoussoukro,Lacs,Cote D'Ivoire
771,-3.631903,5.308506,Route Internationale,null,Grand-Bassam,Grand-Bassam,Sud-Comoe,Cote D'Ivoire
772,-4.025338,5.377405,Autoroute dAbobo,Adjame,Abidjan,Abidjan,Lagunes,Cote D'Ivoire
773,-6.370024,4.905353,San Pedro - Lohiri Road,null,null,Sassandra,Bas-Sassandra,Cote D'Ivoire
774,-3.393341,6.251808,B 106,null,Mbasso,Abengourou,Moyen-Comoe,Cote D'Ivoire
775,-3.089640,5.373443,A 100,null,Bleouhokro,Aboisso,Sud-Comoe,Cote D'Ivoire
776,-3.989137,5.363434,J 50,Cocody,Abidjan,Abidjan,Lagunes,Cote D'Ivoire
777,-3.988926,5.363291,J 50,Cocody,Abidjan,Abidjan,Lagunes,Cote D'Ivoire
778,-6.678872,4.762784,San Pedro - Tabou Road,null,San-Pedro,San-Pedro,Bas-Sassandra,Cote D'Ivoire
779,-5.329580,10.075161,A300,null,null,Ferkessedougou,Savanes,Cote D'Ivoire
780,-6.607487,5.786158,San Pedro - Betia Road,null,Soubre,Soubre,Bas-Sassandra,Cote D'Ivoire
781,-4.036388,5.347707,I 26,Attecoube,Abidjan,Abidjan,Lagunes,Cote D'Ivoire
782,-4.748786,9.192303,B 312,null,null,Ferkessedougou,Savanes,Cote D'Ivoire
783,-6.266345,6.369761,A5,null,Dignago,Gagnoa,Fromager,Cote D'Ivoire
784,-6.688809,6.374213,A5,null,Issia,Issia,Haut-Sassandra,Cote D'Ivoire
785,-5.178671,9.717820,A3,null,null,Ferkessedougou,Savanes,Cote D'Ivoire
786,-4.057114,5.339667,L 37,Yopougon,Abidjan,Abidjan,Lagunes,Cote D'Ivoire
787,-3.992448,5.436594,Unnamed Road,Abobo,Abidjan,Abidjan,Lagunes,Cote D'Ivoire
788,-5.596282,9.303588,B 309,null,null,Korhogo,Savanes,Cote D'Ivoire
789,-3.497535,8.511047,B 119,null,null,Bouna,Zanzan,Cote D'Ivoire
790,-4.229835,5.264880,A3,null,Songon-Mbratte,Abidjan,Lagunes,Cote D'Ivoire
791,-4.063565,5.445851,T 170,Abobo,Abidjan,Abidjan,Lagunes,Cote D'Ivoire
792,-4.769442,5.855244,A2,null,NdouCote D'Ivoire,Tiassale,Lagunes,Cote D'Ivoire
793,-5.792845,6.863848,null,null,null,Bouafle,Marahoue,Cote D'Ivoire
794,-5.151122,6.660933,A3,null,null,Toumodi,Lacs,Cote D'Ivoire
795,-4.440599,6.710645,A4,null,null,Dimbokro,Nzi-Comoe,Cote D'Ivoire
796,-7.343679,5.188305,A7,null,Anamoue,Tabou,Bas-Sassandra,Cote D'Ivoire
797,-5.726958,5.797728,Lakota - Bamenadou Road,null,null,Lakota,Sud-Bandama,Cote D'Ivoire
798,-5.136130,7.260168,A3,null,null,Tiebissou Department,Lacs,Cote D'Ivoire
799,-3.759741,7.055896,null,null,null,Daoukro,Nzi-Comoe,Cote D'Ivoire
800,-4.053941,5.317747,Unnamed Road,Yopougon,Abidjan,Abidjan,Lagunes,Cote D'Ivoire
801,-4.399970,6.462498,null,null,null,Bongouanou,Nzi-Comoe,Cote D'Ivoire
802,-4.285253,6.635310,null,null,null,Bongouanou,Nzi-Comoe,Cote D'Ivoire
803,-5.466451,7.990722,B 304,null,Marabadiassa,Beoumi,Vallee du Bandama,Cote D'Ivoire
804,-3.273700,6.655242,Dormaa Ahenkro - Yamatwa Road,null,null,Bia,Western,GH
805,-5.273131,8.618677,A3,null,null,Niakaramandougou,Vallee du Bandama,Cote D'Ivoire
806,-5.756228,5.695936,Lakota - Bamenadou Road,null,null,Lakota,Sud-Bandama,Cote D'Ivoire
807,-3.278460,7.054153,A1,null,Niando,Agnibilekrou,Moyen-Comoe,Cote D'Ivoire
808,-4.098707,5.321568,T 112,Yopougon,Abidjan,Abidjan,Lagunes,Cote D'Ivoire
809,-7.445185,7.294163,Unnamed Road,null,null,Man,Dix-Huit Montagnes,Cote D'Ivoire
810,-5.664048,10.180096,B314,null,null,null,Savanes,Cote D'Ivoire
811,-4.094090,5.370520,Unnamed Road,Yopougon,Abidjan,Abidjan,Lagunes,Cote D'Ivoire
812,-6.075724,9.575919,A12,null,null,Korhogo,Savanes,Cote D'Ivoire
813,-6.126029,5.763024,A5,null,null,Gagnoa,Fromager,Cote D'Ivoire
814,-3.994769,5.432752,Unnamed Road,Abobo,Abidjan,Abidjan,Lagunes,Cote D'Ivoire
815,-2.821519,5.286129,B102,null,null,Aboisso,Sud-Comoe,Cote D'Ivoire
816,-6.556094,5.408507,San Pedro - Betia Road,null,null,Soubre,Bas-Sassandra,Cote D'Ivoire
817,-4.003407,5.303255,Avenue 23,Treichville,Abidjan,Abidjan,Lagunes,Cote D'Ivoire
818,-2.909185,5.186481,A 100,null,Nouamou,Aboisso,Sud-Comoe,Cote D'Ivoire
819,-4.019121,5.423850,A1,Abobo,Abidjan,Abidjan,Lagunes,Cote D'Ivoire
820,-4.520345,5.400100,A3,null,Youhouli,Dabou,Lagunes,Cote D'Ivoire
821,-4.015356,5.314399,Blvd. de Gaulle,Plateau,Abidjan,Abidjan,Lagunes,Cote D'Ivoire
822,-5.056944,7.725550,A3,null,Bouake,Bouake,Vallee du Bandama,Cote D'Ivoire
823,-3.514883,6.721583,A1,null,Abengourou,Abengourou,Moyen-Comoe,Cote D'Ivoire
824,-4.243407,7.074232,null,null,null,Bocanda,Nzi-Comoe,Cote D'Ivoire
825,-4.830103,5.988323,A3,null,null,Tiassale,Lagunes,Cote D'Ivoire
826,-3.393465,5.377509,A100,null,null,Aboisso,Sud-Comoe,Cote D'Ivoire
827,-3.841183,5.579715,null,null,null,Alepe,Lagunes,Cote D'Ivoire
828,-5.253321,6.820784,Unnamed Road,Yamoussoukro,Yamoussoukro,Yamoussoukro,Lacs,Cote D'Ivoire
829,-4.099694,5.354700,S 584,Yopougon,Abidjan,Abidjan,Lagunes,Cote D'Ivoire
830,-6.637936,5.900627,San Pedro - Betia Road,null,null,Soubre,Bas-Sassandra,Cote D'Ivoire
831,-3.960463,5.256698,Rue des Soles,Port-Bouet,Abidjan,Abidjan,Lagunes,Cote D'Ivoire
832,-4.051118,5.446725,A1,Abobo,Abidjan,Abidjan,Lagunes,Cote D'Ivoire
833,-7.523694,9.529498,A12,null,null,Odienne,Denguele,Cote D'Ivoire
834,-5.036647,7.701393,Rue de IAeroport,null,Bouake,Bouake,Vallee du Bandama,Cote D'Ivoire
835,-4.479133,5.973894,A2,null,null,Agboville,Agnebi,Cote D'Ivoire
836,-4.049699,5.332281,M 49,Yopougon,Abidjan,Abidjan,Lagunes,Cote D'Ivoire
837,-5.153277,5.890399,A2,null,Ble,Divo,Sud-Bandama,Cote D'Ivoire
838,-3.738898,5.390224,null,null,null,Alepe,Lagunes,Cote D'Ivoire
839,-4.011606,5.321550,Blvd. de Gaulle,Plateau,Abidjan,Abidjan,Lagunes,Cote D'Ivoire
840,-5.702363,5.347602,null,null,null,null,Sud-Bandama,Cote D'Ivoire
841,-6.403703,5.768551,Unnamed Road,null,null,Soubre,Bas-Sassandra,Cote D'Ivoire
842,-3.995322,5.310525,Rue de lOlympe,Marcory,Abidjan,Abidjan,Lagunes,Cote D'Ivoire
843,-3.091661,9.012583,A1,null,null,Bouna,Zanzan,Cote D'Ivoire
844,-3.590987,5.376503,Route Internationale,null,Grand-Bassam,Grand-Bassam,Sud-Comoe,Cote D'Ivoire
845,-4.423950,5.402335,Unnamed Road,null,Orbaff,Dabou,Lagunes,Cote D'Ivoire
846,-3.974450,5.291300,Rue Louis Lumiere,Marcory,Abidjan,Abidjan,Lagunes,Cote D'Ivoire
847,-4.405386,5.742895,B 108,null,Orès-Krobou,Agboville,Agnebi,Cote D'Ivoire
848,-4.111146,5.325874,T 13,Yopougon,Abidjan,Abidjan,Lagunes,Cote D'Ivoire
849,-6.455458,6.854143,A5,null,Daloa,Daloa,Haut-Sassandra,Cote D'Ivoire
850,-3.508544,6.740343,A1,null,Abengourou,Abengourou,Moyen-Comoe,Cote D'Ivoire
851,-3.961623,5.344896,E 70,Cocody,Abidjan,Abidjan,Lagunes,Cote D'Ivoire
852,-6.283844,5.673284,null,null,null,Soubre,Bas-Sassandra,Cote D'Ivoire
853,-6.273180,5.662083,null,null,null,Sassandra,Bas-Sassandra,Cote D'Ivoire
854,-5.491503,10.335212,A300,null,null,Ferkessedougou,Savanes,Cote D'Ivoire
855,-5.124405,9.956008,Unnamed Road,null,null,Ferkessedougou,Savanes,Cote D'Ivoire
856,-7.880249,8.261990,null,null,null,null,Bafing,Cote D'Ivoire
857,-4.049310,7.296272,A8,null,null,Daoukro,Nzi-Comoe,Cote D'Ivoire
858,-3.965893,5.287599,Rue Raoul Follereau,Koumassi,Abidjan,Abidjan,Lagunes,Cote D'Ivoire
859,-5.799253,6.041612,A2,null,null,Lakota,Sud-Bandama,Cote D'Ivoire
860,-5.417676,6.385409,A4,null,Oume,Oume,Fromager,Cote D'Ivoire
861,-5.419338,6.403413,A4,null,Oume,Oume,Fromager,Cote D'Ivoire
862,-5.166956,8.398062,A3,null,null,Niakaramandougou,Vallee du Bandama,Cote D'Ivoire
863,-6.590383,5.567304,San Pedro - Betia Road,null,null,Soubre,Bas-Sassandra,Cote D'Ivoire
864,-5.935957,6.305509,Cour dAppel,null,null,Gagnoa,Fromager,Cote D'Ivoire
865,-6.586605,6.015938,San Pedro - Betia Road,null,null,Soubre,Bas-Sassandra,Cote D'Ivoire
866,-4.015030,5.374694,G 7,Adjame,Abidjan,Abidjan,Lagunes,Cote D'Ivoire
867,-6.595686,5.940536,San Pedro - Betia Road,null,Yabayo,Soubre,Bas-Sassandra,Cote D'Ivoire
868,-5.804499,7.182681,B 409,null,null,Bouafle,Marahoue,Cote D'Ivoire
869,-4.002239,5.353209,Boulevard des Martyrs,Cocody,Abidjan,Abidjan,Lagunes,Cote D'Ivoire
870,-4.794865,5.344656,null,null,null,Grand-Lahou,Lagunes,Cote D'Ivoire
871,-3.956748,5.378876,I 98,Cocody,Abidjan,Abidjan,Lagunes,Cote D'Ivoire
872,-7.301728,5.556538,A7,null,null,Tabou,Bas-Sassandra,Cote D'Ivoire
873,-6.445289,6.903603,Unnamed Road,null,Daloa,Daloa,Haut-Sassandra,Cote D'Ivoire
874,-6.183911,4.989307,San Pedro - Lohiri Road,null,null,Sassandra,Bas-Sassandra,Cote D'Ivoire
875,-4.009936,5.290049,Boulevard de Vridi,Treichville,Abidjan,Abidjan,Lagunes,Cote D'Ivoire
876,-8.289353,6.579074,A701,null,null,Toulepleu,Moyen-Cavally,Cote D'Ivoire
877,-6.795374,7.280781,null,null,null,Vavoua,Haut-Sassandra,Cote D'Ivoire
878,-3.984510,5.284364,Boulevard de Marseille,Marcory,Abidjan,Abidjan,Lagunes,Cote D'Ivoire
879,-3.998567,5.386569,L64,Cocody,Abidjan,Abidjan,Lagunes,Cote D'Ivoire
880,-6.646964,5.610841,San Pedro - Betia Road,null,null,Soubre,Bas-Sassandra,Cote D'Ivoire
881,-6.729435,5.823710,San Pedro - Betia Road,null,KPEIRIE,Soubre,Bas-Sassandra,Cote D'Ivoire
882,-3.986284,5.259549,Boulevard de Petit Bassam,Port-Bouet,Abidjan,Abidjan,Lagunes,Cote D'Ivoire
883,-4.062846,5.345727,L 29,Yopougon,Abidjan,Abidjan,Lagunes,Cote D'Ivoire
884,-7.348263,6.637013,A7,null,null,Duekoue,Moyen-Cavally,Cote D'Ivoire
885,-4.011197,5.334394,Boulevard de France,Cocody,Abidjan,Abidjan,Lagunes,Cote D'Ivoire
886,-4.054454,5.452798,A1,Abobo,Abidjan,Abidjan,Lagunes,Cote D'Ivoire
887,-4.346054,5.552062,B 108,null,null,Dabou,Lagunes,Cote D'Ivoire
888,-4.525953,5.724252,B 108,null,Sikensi,Dabou,Lagunes,Cote D'Ivoire
889,-7.735540,7.158652,A8,null,null,Man,Dix-Huit Montagnes,Cote D'Ivoire
890,-5.621403,10.434731,A300,null,Pogo,Ferkessedougou,Savanes,Cote D'Ivoire
891,-6.698920,5.391193,San Pedro - Betia Road,null,null,Soubre,Bas-Sassandra,Cote D'Ivoire
892,-4.017028,5.325652,Boulevard Botreau Roussel,Plateau,Abidjan,Abidjan,Lagunes,Cote D'Ivoire
893,-8.377062,6.491729,A701,null,null,Toulepleu,Moyen-Cavally,Cote D'Ivoire
894,-3.994750,5.327443,Avenue Aka,Cocody,Abidjan,Abidjan,Lagunes,Cote D'Ivoire
895,-4.004951,5.368954,K 64,Cocody,Abidjan,Abidjan,Lagunes,Cote D'Ivoire
896,-4.004832,7.645522,null,null,null,Mbahiakro,Nzi-Comoe,Cote D'Ivoire
897,-3.984416,5.290766,Rue Thomas Edison,Marcory,Abidjan,Abidjan,Lagunes,Cote D'Ivoire
898,-4.069498,5.346651,P 152,Yopougon,Abidjan,Abidjan,Lagunes,Cote D'Ivoire
899,-3.985378,5.297343,Rue Louis Lumiere,Marcory,Abidjan,Abidjan,Lagunes,Cote D'Ivoire
900,-3.985378,5.297343,Rue Louis Lumiere,Marcory,Abidjan,Abidjan,Lagunes,Cote D'Ivoire
901,-3.990324,5.372785,Rue des Jardins,Cocody,Abidjan,Abidjan,Lagunes,Cote D'Ivoire
902,-3.725257,5.192710,Unnamed Road,null,Grand-Bassam,Grand-Bassam,Sud-Comoe,Cote D'Ivoire
903,-3.970385,5.303291,Unnamed Road,Marcory,Abidjan,Abidjan,Lagunes,Cote D'Ivoire
904,-3.198878,5.483006,B102,null,Aboisso,Aboisso,Sud-Comoe,Cote D'Ivoire
905,-6.627457,5.111013,San Pedro - Betia Road,null,null,San-Pedro,Bas-Sassandra,Cote D'Ivoire
906,-4.878660,7.430837,null,null,null,Yamoussoukro,Lacs,Cote D'Ivoire
907,-5.275967,6.818977,A3,Yamoussoukro,Yamoussoukro,Yamoussoukro,Lacs,Cote D'Ivoire
908,-4.020102,5.315223,Avenue Faidherbe,Plateau,Abidjan,Abidjan,Lagunes,Cote D'Ivoire
909,-4.020806,5.330888,Boulevard Clozel,Plateau,Abidjan,Abidjan,Lagunes,Cote D'Ivoire
910,-5.248607,6.847996,Unnamed Road,Yamoussoukro,Yamoussoukro,Yamoussoukro,Lacs,Cote D'Ivoire
911,-4.009864,5.266423,Rue des Moisis ?,Port-Bouet,Abidjan,Abidjan,Lagunes,Cote D'Ivoire
912,-3.979848,5.339804,D 46,Cocody,Abidjan,Abidjan,Lagunes,Cote D'Ivoire
913,-3.204099,5.469740,B102,null,Aboisso,Aboisso,Sud-Comoe,Cote D'Ivoire
914,-3.977899,5.345458,D 46,Cocody,Abidjan,Abidjan,Lagunes,Cote D'Ivoire
915,-3.967674,5.384017,I 87,Cocody,Abidjan,Abidjan,Lagunes,Cote D'Ivoire
916,-4.023316,5.353329,C 34,Adjame,Abidjan,Abidjan,Lagunes,Cote D'Ivoire
917,-3.470933,6.720536,B 102,null,null,Abengourou,Moyen-Comoe,Cote D'Ivoire
918,-4.320550,6.089490,null,null,null,Agboville,Agnebi,Cote D'Ivoire
919,-4.013449,5.307591,Rue 10,Treichville,Abidjan,Abidjan,Lagunes,Cote D'Ivoire
920,-4.371027,5.334358,Unnamed Road,null,Dabou,Dabou,Lagunes,Cote D'Ivoire
921,-4.072201,5.356907,P 208,Yopougon,Abidjan,Abidjan,Lagunes,Cote D'Ivoire
922,-4.000592,5.411181,L 289,Abobo,Abidjan,Abidjan,Lagunes,Cote D'Ivoire
923,-3.985811,5.293161,Rue Thomas Edison,Marcory,Abidjan,Abidjan,Lagunes,Cote D'Ivoire
924,-4.002814,5.257520,Rue Sylvestre,Port-Bouet,Abidjan,Abidjan,Lagunes,Cote D'Ivoire
925,-4.012103,5.409001,Unnamed Road,Abobo,Abidjan,Abidjan,Lagunes,Cote D'Ivoire
926,-4.047327,5.330121,M 49,Yopougon,Abidjan,Abidjan,Lagunes,Cote D'Ivoire
927,-3.998302,5.269165,Rue Fumeurs,Port-Bouet,Abidjan,Abidjan,Lagunes,Cote D'Ivoire
928,-4.025898,5.414137,S 40,Abobo,Abidjan,Abidjan,Lagunes,Cote D'Ivoire
929,-6.910380,5.965207,null,null,null,Soubre,Bas-Sassandra,Cote D'Ivoire
930,-3.973996,5.396387,L 84,Cocody,Abidjan,Abidjan,Lagunes,Cote D'Ivoire
931,-5.923428,5.287617,Lakota - Bamenadou Road,null,Sagbe,Sassandra,Bas-Sassandra,Cote D'Ivoire
932,-4.074105,5.330317,M 37,Yopougon,Abidjan,Abidjan,Lagunes,Cote D'Ivoire
933,-3.978848,5.293699,Rue Louis Lumiere,Marcory,Abidjan,Abidjan,Lagunes,Cote D'Ivoire
934,-3.978847,5.293697,Rue Louis Lumiere,Marcory,Abidjan,Abidjan,Lagunes,Cote D'Ivoire
935,-6.221344,5.053563,A5,null,null,Sassandra,Bas-Sassandra,Cote D'Ivoire
936,-6.271604,6.492347,null,null,Saouia,Issia,Haut-Sassandra,Cote D'Ivoire
937,-5.703699,6.460480,A4,null,null,Oume,Fromager,Cote D'Ivoire
938,-5.284679,7.451474,Unnamed Road,null,Sakassou,Sakassou,Vallee du Bandama,Cote D'Ivoire
939,-5.268273,7.030907,A3,null,null,Yamoussoukro,Lacs,Cote D'Ivoire
940,-4.005636,5.414592,N 90,Abobo,Abidjan,Abidjan,Lagunes,Cote D'Ivoire
941,-3.992174,5.307732,Avenue de Marcory,Marcory,Abidjan,Abidjan,Lagunes,Cote D'Ivoire
942,-7.562353,9.829152,A7,null,Samatiglia,Odienne,Denguele,Cote D'Ivoire
943,-6.622706,4.740540,Unnamed Road,null,San-Pedro,San-Pedro,Bas-Sassandra,Cote D'Ivoire
944,-3.568572,7.940226,A 10,null,Kouakou,Bondoukou,Zanzan,Cote D'Ivoire
945,-5.808033,6.648569,null,null,null,Sinfra,Marahoue,Cote D'Ivoire
946,-7.802993,7.271131,A8,null,null,Man,Dix-Huit Montagnes,Cote D'Ivoire
947,-3.136051,5.393767,A 100,null,Sahoma,Aboisso,Sud-Comoe,Cote D'Ivoire
948,-3.477266,6.856607,A1,null,Zinzenou,Abengourou,Moyen-Comoe,Cote D'Ivoire
949,-8.009149,8.264046,null,null,null,null,Bafing,Cote D'Ivoire
950,-4.044807,5.321480,K 21,Attecoube,Abidjan,Abidjan,Lagunes,Cote D'Ivoire
951,-3.316707,6.124379,B 102,null,null,Aboisso,Sud-Comoe,Cote D'Ivoire
952,-2.982229,8.148595,A1,null,Saleye,Bondoukou,Zanzan,Cote D'Ivoire
953,-4.063759,5.346845,P 152,Yopougon,Abidjan,Abidjan,Lagunes,Cote D'Ivoire
954,-6.797353,5.824882,null,null,null,Soubre,Bas-Sassandra,Cote D'Ivoire
955,-4.282499,5.214623,A3,null,Songon-Mbratte,Abidjan,Lagunes,Cote D'Ivoire
956,-6.084862,4.974524,A5,null,Sassandra,Sassandra,Bas-Sassandra,Cote D'Ivoire
957,-4.529507,7.908459,B 417,null,null,Dabakala,Vallee du Bandama,Cote D'Ivoire
958,-4.329356,7.893799,A 10,null,null,null,Vallee du Bandama,Cote D'Ivoire
959,-4.016019,5.308711,Avenue Victor Biaka,Treichville,Abidjan,Abidjan,Lagunes,Cote D'Ivoire
960,-4.031563,5.338566,Boulevard de la Paix,Plateau,Abidjan,Abidjan,Lagunes,Cote D'Ivoire
961,-4.005607,5.261121,Rue des Chimistes,Port-Bouet,Abidjan,Abidjan,Lagunes,Cote D'Ivoire
962,-6.303949,7.022033,B205,null,null,Daloa,Haut-Sassandra,Cote D'Ivoire
963,-6.670667,7.965074,A8,null,Seguela,Seguela,Worodougou,Cote D'Ivoire
964,-5.022029,7.727629,A3,null,Bouake,Bouake,Vallee du Bandama,Cote D'Ivoire
965,-6.715318,7.427203,null,null,null,Vavoua,Haut-Sassandra,Cote D'Ivoire
966,-6.858007,6.626425,A6,null,null,Daloa,Haut-Sassandra,Cote D'Ivoire
967,-6.698068,5.532563,San Pedro - Betia Road,null,null,Soubre,Bas-Sassandra,Cote D'Ivoire
968,-5.297313,6.889354,A3,null,null,Yamoussoukro,Lacs,Cote D'Ivoire
969,-7.150399,7.640225,A8,null,null,Man,Dix-Huit Montagnes,Cote D'Ivoire
970,-4.055803,5.489903,A1,null,Anyama,Anyama,Lagunes,Cote D'Ivoire
971,-5.141360,9.865936,A3,null,null,Ferkessedougou,Savanes,Cote D'Ivoire
972,-4.069111,5.351727,P 179,Yopougon,Abidjan,Abidjan,Lagunes,Cote D'Ivoire
973,-6.651274,4.778034,San Pedro - Tabou Road,San-Pedro,San-Pedro,San-Pedro,Bas-Sassandra,Cote D'Ivoire
974,-5.720149,8.137478,B 304,null,null,Mankono,Worodougou,Cote D'Ivoire
975,-4.054094,5.471627,A1,Attecoube,Anyama,Anyama,Lagunes,Cote D'Ivoire
976,-2.952940,7.943184,A1,null,null,Bondoukou,Zanzan,Cote D'Ivoire
977,-4.080665,5.323305,O 7,Yopougon,Abidjan,Abidjan,Lagunes,Cote D'Ivoire
978,-6.202082,9.546601,Kongoso-Sienpurgo Road,null,Sienpurgo,Boundiali,Savanes,Cote D'Ivoire
979,-4.021144,5.305735,Rue des Marsouins,Treichville,Abidjan,Abidjan,Lagunes,Cote D'Ivoire
980,-6.522415,7.293005,A5,null,Vavoua,Vavoua,Haut-Sassandra,Cote D'Ivoire
981,-6.932338,7.957018,A8,null,null,Seguela,Worodougou,Cote D'Ivoire
982,-3.980657,5.361540,I 1,Cocody,Abidjan,Abidjan,Lagunes,Cote D'Ivoire
983,-4.554739,5.661731,B 108,null,null,Dabou,Lagunes,Cote D'Ivoire
984,-5.399283,9.615114,A12,null,Sinematiali,Korhogo,Savanes,Cote D'Ivoire
985,-5.909124,6.627758,Unnamed Road,null,Sinfra,Sinfra,Marahoue,Cote D'Ivoire
986,-4.931111,6.070418,A3,null,null,Tiassale,Lagunes,Cote D'Ivoire
987,-3.974381,5.408791,Unnamed Road,Cocody,Abidjan,Abidjan,Lagunes,Cote D'Ivoire
988,-6.038795,5.308711,A5,null,null,Sassandra,Bas-Sassandra,Cote D'Ivoire
989,-7.839806,8.090833,A7,null,null,Touba,Bafing,Cote D'Ivoire
990,-4.079025,5.353319,P 208,Yopougon,Abidjan,Abidjan,Lagunes,Cote D'Ivoire
991,-6.099268,9.345653,Kongoso-Sienpurgo Road,null,null,Korhogo,Savanes,Cote D'Ivoire
992,-3.941862,5.252234,Unnamed Road,Port-Bouet,Abidjan,Abidjan,Lagunes,Cote D'Ivoire
993,-6.023974,8.412343,Kongoso-Sienpurgo,null,null,Mankono,Worodougou,Cote D'Ivoire
994,-4.026684,5.328545,Boulevard de la Paix,Plateau,Abidjan,Abidjan,Lagunes,Cote D'Ivoire
995,-3.999637,5.371768,K 57,Cocody,Abidjan,Abidjan,Lagunes,Cote D'Ivoire
996,-3.998696,5.348125,Rue des Bijoutiers,Cocody,Abidjan,Abidjan,Lagunes,Cote D'Ivoire
997,-6.442098,6.856231,A5,null,Daloa,Daloa,Haut-Sassandra,Cote D'Ivoire
998,-4.013608,5.321946,Avenue Delafosse Prolongee,Plateau,Abidjan,Abidjan,Lagunes,Cote D'Ivoire
999,-7.080512,4.674656,San Pedro - Tabou Road,null,null,San-Pedro,Bas-Sassandra,Cote D'Ivoire
1000,-4.023450,5.328242,Boulevard Carde,Plateau,Abidjan,Abidjan,Lagunes,Cote D'Ivoire
1001,-2.753803,7.996683,Sampa Bondoukou Road,null,null,Bondoukou,Zanzan,Cote D'Ivoire
1002,-4.701064,6.642362,A4,null,Dimbokro,Dimbokro,Nzi-Comoe,Cote D'Ivoire
1003,-7.784464,7.860739,A7,null,null,Biankouma,Dix-Huit Montagnes,Cote D'Ivoire
1004,-3.958797,5.326502,Unnamed Road,Cocody,Abidjan,Abidjan,Lagunes,Cote D'Ivoire
1005,-3.977956,5.390427,L 84,Cocody,Abidjan,Abidjan,Lagunes,Cote D'Ivoire
1006,-3.996183,5.298053,Boulevard de Marseille,Treichville,Abidjan,Abidjan,Lagunes,Cote D'Ivoire
1007,-5.921794,6.610487,Unnamed Road,null,Sinfra,Sinfra,Marahoue,Cote D'Ivoire
1008,-4.097359,5.377776,Unnamed Road,Yopougon,Abidjan,Abidjan,Lagunes,Cote D'Ivoire
1009,-3.186495,6.087522,B 102,null,null,Aboisso,Sud-Comoe,Cote D'Ivoire
1010,-4.226197,5.320060,A3,null,Songon-Dagbe,Abidjan,Lagunes,Cote D'Ivoire
1011,-4.181172,5.338324,A3,Yopougon,Abidjan,Abidjan,Lagunes,Cote D'Ivoire
1012,-5.273617,6.793558,Rue de la Mosquee,Yamoussoukro,Yamoussoukro,Yamoussoukro,Lacs,Cote D'Ivoire
1013,-4.064887,5.354070,L 98,Yopougon,Abidjan,Abidjan,Lagunes,Cote D'Ivoire
1014,-2.687337,8.137369,null,null,null,Bondoukou,Zanzan,Cote D'Ivoire
1015,-6.819456,5.760641,null,null,null,Soubre,Bas-Sassandra,Cote D'Ivoire
1016,-6.615019,5.773250,San Pedro - Betia Road,null,KPEIRIE,Soubre,Bas-Sassandra,Cote D'Ivoire
1017,-4.075927,5.373855,Unnamed Road,Yopougon,Abidjan,Abidjan,Lagunes,Cote D'Ivoire
1018,-4.012899,5.443486,Q 125,Abobo,Abidjan,Abidjan,Lagunes,Cote D'Ivoire
1019,-3.989324,5.394109,L 100,Cocody,Abidjan,Abidjan,Lagunes,Cote D'Ivoire
1020,-4.073820,5.342848,Boulevard PrinCote D'Ivoirepal,Yopougon,Abidjan,Abidjan,Lagunes,Cote D'Ivoire
1021,-5.747370,6.977082,A6,null,Bouafle,Bouafle,Marahoue,Cote D'Ivoire
1022,-3.976474,5.308242,Pont Henry Konan Bedie,Cocody,Abidjan,Abidjan,Lagunes,Cote D'Ivoire
1023,-3.912997,5.248450,Unnamed Road,Port-Bouet,Abidjan,Abidjan,Lagunes,Cote D'Ivoire
1024,-4.088490,5.333922,S 341,Yopougon,Abidjan,Abidjan,Lagunes,Cote D'Ivoire
1025,-4.000633,5.334601,Rue Washington,Cocody,Abidjan,Abidjan,Lagunes,Cote D'Ivoire
1026,-4.032990,5.354488,Boulevard de lOuest,Adjame,Abidjan,Abidjan,Lagunes,Cote D'Ivoire
1027,-3.943740,5.309186,Boulevard du Cameroun,Koumassi,Abidjan,Abidjan,Lagunes,Cote D'Ivoire
1028,-4.044759,5.436365,T 189,Abobo,Abidjan,Abidjan,Lagunes,Cote D'Ivoire
1029,-3.956425,5.383992,I 98,Cocody,Abidjan,Abidjan,Lagunes,Cote D'Ivoire
1030,-4.019965,5.327830,Boulevard de le Republique,Plateau,Abidjan,Abidjan,Lagunes,Cote D'Ivoire
1031,-3.992217,5.406264,L 319,Cocody,Abidjan,Abidjan,Lagunes,Cote D'Ivoire
1032,-6.470442,6.888433,Unnamed Road,null,Daloa,Daloa,Haut-Sassandra,Cote D'Ivoire
1033,-4.028116,5.426486,Unnamed Road,Abobo,Abidjan,Abidjan,Lagunes,Cote D'Ivoire
1034,-3.993941,5.375575,L 2,Cocody,Abidjan,Abidjan,Lagunes,Cote D'Ivoire
1035,-3.968842,5.355836,Boulevard François Mitterrand,Cocody,Abidjan,Abidjan,Lagunes,Cote D'Ivoire
1036,-3.997956,5.335125,Boulevard de France,Cocody,Abidjan,Abidjan,Lagunes,Cote D'Ivoire
1037,-3.999970,5.403825,L 289,Abobo,Abidjan,Abidjan,Lagunes,Cote D'Ivoire
1038,-4.059227,5.436523,T 170,Abobo,Abidjan,Abidjan,Lagunes,Cote D'Ivoire
1039,-4.020710,5.355059,C 21,Adjame,Abidjan,Abidjan,Lagunes,Cote D'Ivoire
1040,-4.101965,5.329320,T 112,Yopougon,Abidjan,Abidjan,Lagunes,Cote D'Ivoire
1041,-5.281512,6.698118,A3,null,null,Toumodi,Lacs,Cote D'Ivoire
1042,-7.174698,8.475566,null,null,null,null,Bafing,Cote D'Ivoire
1043,-5.279875,9.518572,A12,null,null,Ferkessedougou,Savanes,Cote D'Ivoire
1044,-5.313813,9.316720,B 311,null,null,Ferkessedougou,Savanes,Cote D'Ivoire
1045,-6.162711,7.595659,B410,null,null,Zuenoula,Marahoue,Cote D'Ivoire
1046,-6.148401,7.548696,B 409,null,Zuenoula,Zuenoula,Marahoue,Cote D'Ivoire
1047,-3.993232,5.354921,C 2,Cocody,Abidjan,Abidjan,Lagunes,Cote D'Ivoire
1048,-3.966466,5.370573,I 87,Cocody,Abidjan,Abidjan,Lagunes,Cote D'Ivoire
1049,-5.064446,6.267423,A3,null,null,Toumodi,Lacs,Cote D'Ivoire
1050,-3.050732,7.986611,B117,null,null,Bondoukou,Zanzan,Cote D'Ivoire
1051,-7.351712,4.408735,A7,null,Tabou,Tabou,Bas-Sassandra,Cote D'Ivoire
1052,-5.176080,9.057534,A3,null,null,Niakaramandougou,Vallee du Bandama,Cote D'Ivoire
1053,-5.715859,5.952427,A2,null,null,Lakota,Sud-Bandama,Cote D'Ivoire
1054,-6.406859,6.810410,A5,null,null,Daloa,Haut-Sassandra,Cote D'Ivoire
1055,-7.437721,5.910885,A7,null,null,Guiglo,Moyen-Cavally,Cote D'Ivoire
1056,-2.978213,7.247045,A101,null,null,Tanda,Zanzan,Cote D'Ivoire
1057,-6.787840,5.760175,null,null,null,Soubre,Bas-Sassandra,Cote D'Ivoire
1058,-3.149886,7.821147,A1,null,null,Tanda,Zanzan,Cote D'Ivoire
1059,-3.294586,7.185922,A1,null,null,Tanda,Zanzan,Cote D'Ivoire
1060,-3.180923,7.324107,A1,null,null,Tanda,Zanzan,Cote D'Ivoire
1062,-4.078347,5.318462,O 7,Yopougon,Abidjan,Abidjan,Lagunes,Cote D'Ivoire
1063,-6.432639,6.893828,A6,null,Daloa,Daloa,Haut-Sassandra,Cote D'Ivoire
1064,-6.056476,6.116848,A5,null,null,Gagnoa,Fromager,Cote D'Ivoire
1065,-8.125467,7.027796,A701,null,Beapleu,Danane,Dix-Huit Montagnes,Cote D'Ivoire
1066,-5.640454,9.444401,B 310,Korhogo,Korhogo,Korhogo,Savanes,Cote D'Ivoire
1067,-5.976049,6.391187,null,null,null,Gagnoa,Fromager,Cote D'Ivoire
1068,-8.191481,7.185767,A701,null,null,Danane,Dix-Huit Montagnes,Cote D'Ivoire
1069,-4.073926,5.329682,M 37,Yopougon,Abidjan,Abidjan,Lagunes,Cote D'Ivoire
1070,-3.946385,5.340520,Unnamed Road,Cocody,Abidjan,Abidjan,Lagunes,Cote D'Ivoire
1071,-7.246350,6.759770,A6,null,null,Duekoue,Moyen-Cavally,Cote D'Ivoire
1072,-5.274026,6.825037,Rue du Château dEau,Yamoussoukro,Yamoussoukro,Yamoussoukro,Lacs,Cote D'Ivoire
1073,-3.025978,5.140762,A 100,null,null,Aboisso,Sud-Comoe,Cote D'Ivoire
1074,-4.836461,5.899300,A2,null,Tiassale,Tiassale,Lagunes,Cote D'Ivoire
1075,-5.962343,5.192678,Lakota - Bamenadou Road,null,null,Sassandra,Bas-Sassandra,Cote D'Ivoire
1076,-5.225292,7.140274,A3,null,Tiebissou,Tiebissou Department,Lacs,Cote D'Ivoire
1077,-5.226838,7.160973,A3,null,Tiebissou,Tiebissou Department,Lacs,Cote D'Ivoire
1078,-5.154451,5.606403,null,null,null,null,Sud-Bandama,Cote D'Ivoire
1079,-5.314328,9.678264,A12,null,null,Ferkessedougou,Savanes,Cote D'Ivoire
1080,-7.261318,9.517848,A12,null,null,Odienne,Denguele,Cote D'Ivoire
1081,-4.605355,6.515369,null,null,null,Bongouanou,Nzi-Comoe,Cote D'Ivoire
1082,-4.779862,7.407484,null,null,null,Dimbokro,Nzi-Comoe,Cote D'Ivoire
1083,-5.752911,8.448706,B 301,null,null,Mankono,Worodougou,Cote D'Ivoire
1084,-5.725263,8.179231,B 304,null,Tieningboue,Mankono,Worodougou,Cote D'Ivoire
1085,-7.477706,10.331072,A7,null,null,Odienne,Denguele,Cote D'Ivoire
1086,-3.060236,7.220449,A101,null,null,Tanda,Zanzan,Cote D'Ivoire
1087,-7.444431,7.376089,A7,null,null,Man,Dix-Huit Montagnes,Cote D'Ivoire
1088,-4.956745,8.144781,B412,null,Katiola,Niakaramandougou,Vallee du Bandama,Cote D'Ivoire
1089,-6.384948,10.473013,A5,null,Tingrela,Tingrela,Savanes,Cote D'Ivoire
1090,-8.484241,6.534166,A701,null,Toulepleu,Toulepleu,Moyen-Cavally,Cote D'Ivoire
1091,-5.868789,6.090734,A2,null,null,Gagnoa,Fromager,Cote D'Ivoire
1092,-4.953337,5.896717,A2,null,null,Tiassale,Lagunes,Cote D'Ivoire
1093,-5.498242,6.926563,A6,null,null,Yamoussoukro,Lacs,Cote D'Ivoire
1094,-6.107153,8.302688,Kongoso-Sienpurgo,null,null,Mankono,Worodougou,Cote D'Ivoire
1095,-5.701889,9.934165,null,null,null,null,Savanes,Cote D'Ivoire
1096,-6.194959,8.070381,Kongoso-Sienpurgo,null,Mankono,Mankono,Worodougou,Cote D'Ivoire
1097,-5.642838,6.343247,A4,null,null,Oume,Fromager,Cote D'Ivoire
1098,-6.465024,6.945142,A5,null,Daloa,Daloa,Haut-Sassandra,Cote D'Ivoire
1099,-5.675625,8.819672,null,null,null,Katiola,Vallee du Bandama,Cote D'Ivoire
1100,-3.943354,5.329308,Unnamed Road,Cocody,Abidjan,Abidjan,Lagunes,Cote D'Ivoire
1101,-7.682574,8.286433,Unnamed Road,null,Touba,Touba,Bafing,Cote D'Ivoire
1102,-7.683700,8.275936,A7,null,Touba,Touba,Bafing,Cote D'Ivoire
1103,-6.519713,5.293636,San Pedro - Betia Road,null,null,San-Pedro,Bas-Sassandra,Cote D'Ivoire
1104,-4.804710,5.149611,null,null,null,Grand-Lahou,Lagunes,Cote D'Ivoire
1105,-8.437930,6.576323,A701,null,Toulepleu,Toulepleu,Moyen-Cavally,Cote D'Ivoire
1106,-5.017079,6.554245,A3,null,Toumodi,Toumodi,Lacs,Cote D'Ivoire
1107,-5.729538,10.380158,RN7,null,null,Kadiolo,Sikasso,ML
1108,-6.510985,9.906997,Samatiglia - Kouto Road,null,null,Boundiali,Savanes,Cote D'Ivoire
1109,-4.536995,5.300141,A3,null,null,Dabou,Lagunes,Cote D'Ivoire
1110,-2.981886,7.538756,null,null,null,Tanda,Zanzan,Cote D'Ivoire
1111,-4.008704,5.304253,Boulevard Gbon Coulibaly,Treichville,Abidjan,Abidjan,Lagunes,Cote D'Ivoire
1112,-5.014550,7.679530,Unnamed Road,null,Bouake,Bouake,Vallee du Bandama,Cote D'Ivoire
1113,-4.059708,5.328403,M 37,Yopougon,Abidjan,Abidjan,Lagunes,Cote D'Ivoire
1114,-4.051642,5.460177,A1,Abobo,Abidjan,Abidjan,Lagunes,Cote D'Ivoire
1115,-4.004685,5.281529,Impasse Lagunaire,Treichville,Abidjan,Abidjan,Lagunes,Cote D'Ivoire
1116,-4.076574,5.363365,H 36,Yopougon,Abidjan,Abidjan,Lagunes,Cote D'Ivoire
1117,-4.736053,6.662581,A 4,null,Dimbokro,Dimbokro,Nzi-Comoe,Cote D'Ivoire
1118,-6.643506,7.412852,A5,null,null,Vavoua,Haut-Sassandra,Cote D'Ivoire
1119,-5.582278,7.666136,Unnamed Road,null,Beoumi,Beoumi,Vallee du Bandama,Cote D'Ivoire
1120,-6.997255,7.466479,null,null,null,Vavoua,Haut-Sassandra,Cote D'Ivoire
1121,-6.478066,7.375988,A5,null,Vavoua,Vavoua,Haut-Sassandra,Cote D'Ivoire
1122,-3.976829,5.351453,D 33,Cocody,Abidjan,Abidjan,Lagunes,Cote D'Ivoire
1123,-4.146375,5.383531,Autoroute du Nord,Attecoube,Abidjan,Abidjan,Lagunes,Cote D'Ivoire
1124,-4.018149,5.431777,Q 112,Abobo,Abidjan,Abidjan,Lagunes,Cote D'Ivoire
1125,-4.007670,5.307767,Avenue 10,Treichville,Abidjan,Abidjan,Lagunes,Cote D'Ivoire
1126,-4.019397,5.268509,Boulevard du Canal,Port-Bouet,Abidjan,Abidjan,Lagunes,Cote D'Ivoire
1127,-4.073444,5.339271,Boulevard PrinCote D'Ivoirepal,Yopougon,Abidjan,Abidjan,Lagunes,Cote D'Ivoire
1128,-4.013210,5.413054,A1,Abobo,Abidjan,Abidjan,Lagunes,Cote D'Ivoire
1129,-4.067936,5.346604,P 152,Yopougon,Abidjan,Abidjan,Lagunes,Cote D'Ivoire
1130,-6.786988,4.924203,San Pedro - Tabou Road,San-Pedro,San-Pedro,San-Pedro,Bas-Sassandra,Cote D'Ivoire
1131,-4.021973,5.366494,Rue de Williamsville,Adjame,Abidjan,Abidjan,Lagunes,Cote D'Ivoire
1132,-4.106697,5.334920,T 128,Yopougon,Abidjan,Abidjan,Lagunes,Cote D'Ivoire
1133,-7.028058,6.174261,null,null,null,Soubre,Bas-Sassandra,Cote D'Ivoire
1134,-6.600531,5.959034,San Pedro - Betia Road,null,Yabayo,Soubre,Bas-Sassandra,Cote D'Ivoire
1135,-3.396721,6.948100,A1,null,Yakasse,Abengourou,Moyen-Comoe,Cote D'Ivoire
1136,-3.961984,5.818958,A1,null,Yacasse,null,Agnebi,Cote D'Ivoire
1137,-3.649335,6.189947,B 106,null,Yakasse,Adzope,Agnebi,Cote D'Ivoire
1138,-3.968872,5.392038,I 87,Cocody,Abidjan,Abidjan,Lagunes,Cote D'Ivoire
1139,-6.508826,5.973005,A4,null,null,Soubre,Bas-Sassandra,Cote D'Ivoire
1140,-5.257207,6.840956,Unnamed Road,Yamoussoukro,Yamoussoukro,Yamoussoukro,Lacs,Cote D'Ivoire
1141,-4.085163,5.345281,Rue des Terminalias,Yopougon,Abidjan,Abidjan,Lagunes,Cote D'Ivoire
1142,-5.851367,6.706735,Unnamed Road,null,Gagnoa,Gagnoa,Fromager,Cote D'Ivoire
1143,-3.967178,7.732124,null,null,null,Mbahiakro,Nzi-Comoe,Cote D'Ivoire
1144,-3.630282,5.252063,A 100,null,Yaou,Aboisso,Sud-Comoe,Cote D'Ivoire
1145,-3.160870,5.804869,B 102,null,null,Aboisso,Sud-Comoe,Cote D'Ivoire
1146,-4.007219,5.418145,O 40,Abobo,Abidjan,Abidjan,Lagunes,Cote D'Ivoire
1147,-5.107579,5.270079,null,null,Yokoboue,Divo,Sud-Bandama,Cote D'Ivoire
1148,-4.070450,5.322654,Unnamed Road,Yopougon,Abidjan,Abidjan,Lagunes,Cote D'Ivoire
1149,-4.078238,5.342349,Ave. M-T Houphouet-Boigny,Yopougon,Abidjan,Abidjan,Lagunes,Cote D'Ivoire
1150,-4.089831,5.366032,Autoroute du Nord,Yopougon,Abidjan,Abidjan,Lagunes,Cote D'Ivoire
1151,-5.832099,6.407401,null,null,null,Gagnoa,Fromager,Cote D'Ivoire
1152,-3.691192,8.092560,B118,null,null,Bondoukou,Zanzan,Cote D'Ivoire
1153,-7.485960,6.222280,A7,null,Zagne,Guiglo,Moyen-Cavally,Cote D'Ivoire
1154,-6.036881,6.926087,A 6,null,Brozra,Bouafle,Marahoue,Cote D'Ivoire
1155,-6.371520,10.085516,A5,null,null,Boundiali,Savanes,Cote D'Ivoire
1156,-5.260911,6.809881,A3,Yamoussoukro,Yamoussoukro,Yamoussoukro,Lacs,Cote D'Ivoire
1157,-6.660267,6.967025,A6,null,null,Daloa,Haut-Sassandra,Cote D'Ivoire
1158,-6.502835,6.243347,San Pedro - Betia Road,null,null,Soubre,Bas-Sassandra,Cote D'Ivoire
1159,-6.242608,6.800704,A 6,null,null,Bouafle,Marahoue,Cote D'Ivoire
1160,-5.380955,6.728269,A6,Yamoussoukro,Yamoussoukro,Yamoussoukro,Lacs,Cote D'Ivoire
1161,-6.060696,7.430141,Unnamed Road,null,Zuenoula,Zuenoula,Marahoue,Cote D'Ivoire
1162,-5.356759,6.431600,A4,null,Zangue,Oume,Fromager,Cote D'Ivoire
1163,-2.816409,8.047891,Unnamed Road,Bondoukou,Bondoukou,Bondoukou,Zanzan,Cote D'Ivoire
1164,-3.372610,6.434700,B 102,null,null,Abengourou,Moyen-Comoe,Cote D'Ivoire
1165,-5.308225,6.137375,Unnamed Road,null,null,Divo,Sud-Bandama,Cote D'Ivoire
1166,-5.418121,6.885821,A6,null,null,Yamoussoukro,Lacs,Cote D'Ivoire
1167,-7.843287,6.563043,A701,null,Banhiei,Guiglo,Moyen-Cavally,Cote D'Ivoire
1168,-8.162403,6.986683,A701,null,null,Danane,Dix-Huit Montagnes,Cote D'Ivoire
1169,-5.936842,6.354122,Cour dAppel,null,null,Gagnoa,Fromager,Cote D'Ivoire
1170,-6.530113,6.917546,A6,null,null,Daloa,Haut-Sassandra,Cote D'Ivoire
1171,-5.591397,5.169862,null,null,null,null,Sud-Bandama,Cote D'Ivoire
1172,-5.200761,6.135884,null,null,null,Divo,Sud-Bandama,Cote D'Ivoire
1173,-5.785561,6.547296,null,null,null,Sinfra,Marahoue,Cote D'Ivoire
1174,-3.958031,7.054591,A8,null,Daoukro,Daoukro,Nzi-Comoe,Cote D'Ivoire
1175,-3.946500,5.334642,E 46,Cocody,Abidjan,Abidjan,Lagunes,Cote D'Ivoire
1176,-6.369645,6.905912,A6,null,null,Daloa,Haut-Sassandra,Cote D'Ivoire
1177,-6.594385,5.890346,San Pedro - Betia Road,null,null,Soubre,Bas-Sassandra,Cote D'Ivoire
1178,-4.081445,5.369224,Unnamed Road,Yopougon,Abidjan,Abidjan,Lagunes,Cote D'Ivoire
1179,-8.131365,7.120678,A701,null,null,Danane,Dix-Huit Montagnes,Cote D'Ivoire
1180,-5.467192,5.769567,A2,null,null,Lakota,Sud-Bandama,Cote D'Ivoire
1181,-5.716071,6.053100,A4,null,null,Oume,Fromager,Cote D'Ivoire
1182,-5.073717,7.097454,A3,null,null,Tiebissou Department,Lacs,Cote D'Ivoire
1183,-6.159440,6.314571,A5,null,null,Gagnoa,Fromager,Cote D'Ivoire
1184,-3.991798,5.379097,L 125,Cocody,Abidjan,Abidjan,Lagunes,Cote D'Ivoire
1185,-7.835124,6.982713,null,null,null,Man,Dix-Huit Montagnes,Cote D'Ivoire
1186,-8.197300,6.918422,A701,null,Bouenneu,Danane,Dix-Huit Montagnes,Cote D'Ivoire
1187,-6.776448,6.786920,A6,null,null,Daloa,Haut-Sassandra,Cote D'Ivoire
1188,-6.612299,6.213366,San Pedro - Betia Road,null,null,Soubre,Bas-Sassandra,Cote D'Ivoire
1189,-6.876230,6.782261,A6,null,null,Daloa,Haut-Sassandra,Cote D'Ivoire
1190,-6.280406,6.482835,null,null,Saouia,Issia,Haut-Sassandra,Cote D'Ivoire
1191,-4.004014,5.396899,L 100,Cocody,Abidjan,Abidjan,Lagunes,Cote D'Ivoire
1192,-6.040607,7.430058,B 409,null,Zuenoula,Zuenoula,Marahoue,Cote D'Ivoire
1193,-3.962886,5.258589,Rue des Barracudas,Port-Bouet,Abidjan,Abidjan,Lagunes,Cote D'Ivoire
1194,-4.061409,5.350170,L 35,Yopougon,Abidjan,Abidjan,Lagunes,Cote D'Ivoire
1195,-5.729087,9.906391,null,null,null,null,Savanes,Cote D'Ivoire
1196,-3.401652,5.717779,null,null,null,Aboisso,Sud-Comoe,Cote D'Ivoire
1197,-5.210215,6.080446,null,null,null,Divo,Sud-Bandama,Cote D'Ivoire
1198,-4.098662,6.853491,A8,null,null,Bongouanou,Nzi-Comoe,Cote D'Ivoire
1199,-4.374957,6.015209,A2,null,null,Agboville,Agnebi,Cote D'Ivoire
1201,-3.919027,5.250004,Unnamed Road,Port-Bouet,Abidjan,Abidjan,Lagunes,Cote D'Ivoire
1202,-6.559049,6.590100,A5,null,null,Issia,Haut-Sassandra,Cote D'Ivoire
1203,-3.319203,7.810947,A 10,null,null,Tanda,Zanzan,Cote D'Ivoire
1204,-5.464682,5.229399,null,null,null,null,Sud-Bandama,Cote D'Ivoire
1206,-6.440637,6.779499,A5,null,null,Daloa,Haut-Sassandra,Cote D'Ivoire
1207,-5.966848,6.940755,A 6,null,Dabouzra,Bouafle,Marahoue,Cote D'Ivoire
1209,-3.224453,7.678262,A1,null,null,Tanda,Zanzan,Cote D'Ivoire
1210,-3.122347,7.696913,A1,null,null,Tanda,Zanzan,Cote D'Ivoire
1211,-4.331352,6.945681,null,null,null,Bocanda,Nzi-Comoe,Cote D'Ivoire
1212,-6.057989,7.514042,B 409,null,Zuenoula,Zuenoula,Marahoue,Cote D'Ivoire
1214,-5.725953,6.804113,A6,null,null,Bouafle,Marahoue,Cote D'Ivoire
1215,-5.264480,7.239703,A3,null,Tiebissou,Tiebissou Department,Lacs,Cote D'Ivoire
1216,-3.285428,7.880712,B117,null,null,Tanda,Zanzan,Cote D'Ivoire
1217,-5.552958,6.477255,A4,null,Oume,Oume,Fromager,Cote D'Ivoire
1218,-3.128618,7.959227,B117,null,null,Bondoukou,Zanzan,Cote D'Ivoire
1219,-5.302300,5.514340,null,null,null,null,Sud-Bandama,Cote D'Ivoire
1220,-4.627866,5.591925,A3,null,null,Dabou,Lagunes,Cote D'Ivoire
1221,-3.577463,7.547218,null,null,null,Tanda,Zanzan,Cote D'Ivoire
1222,-4.391984,5.372978,Unnamed Road,null,Debrimou,Dabou,Lagunes,Cote D'Ivoire
1223,-4.660082,7.448089,A8,null,null,Mbahiakro,Nzi-Comoe,Cote D'Ivoire
1224,-4.994017,7.401084,A3,null,null,Bouake,Vallee du Bandama,Cote D'Ivoire
1225,-4.255717,5.417749,Unnamed Road,null,null,Abidjan,Lagunes,Cote D'Ivoire
1226,-4.820098,6.837881,Unnamed Road,null,null,Dimbokro,Nzi-Comoe,Cote D'Ivoire
1227,-3.891184,7.365258,A8,null,null,Daoukro,Nzi-Comoe,Cote D'Ivoire
1228,-4.082880,5.320877,O 5,Yopougon,Abidjan,Abidjan,Lagunes,Cote D'Ivoire
1229,-4.058580,5.338743,L 4,Yopougon,Abidjan,Abidjan,Lagunes,Cote D'Ivoire
1230,-5.541175,6.907344,A6,null,null,Bouafle,Marahoue,Cote D'Ivoire
1231,-4.014404,5.320946,Avenue Lamblin,Plateau,Abidjan,Abidjan,Lagunes,Cote D'Ivoire
1232,-3.982302,5.304477,Boulevard du Cameroun,Marcory,Abidjan,Abidjan,Lagunes,Cote D'Ivoire
1233,-7.586397,7.288547,A7,null,null,Man,Dix-Huit Montagnes,Cote D'Ivoire
1234,-4.005167,5.327250,Boulevard Hassan II,Cocody,Abidjan,Abidjan,Lagunes,Cote D'Ivoire
1235,-3.988471,5.341687,C 47,Cocody,Abidjan,Abidjan,Lagunes,Cote D'Ivoire
1236,-4.084326,5.338377,Rue des Terminalias,Yopougon,Abidjan,Abidjan,Lagunes,Cote D'Ivoire
1237,-4.086550,5.350422,S 341,Yopougon,Abidjan,Abidjan,Lagunes,Cote D'Ivoire
1238,-4.603487,6.630197,A4,null,null,Dimbokro,Nzi-Comoe,Cote D'Ivoire
