"ANTENNA","CALLS"
-1,248812
1,18446
2,6604
4,9429
5,37739
6,20691
8,8726
9,51587
10,31586
11,28396
12,19585
13,30521
14,25051
15,22561
16,15824
17,11045
18,7695
19,6541
20,25077
22,8098
24,7810
25,16734
26,5334
27,41848
28,15557
29,12588
30,38340
35,8212
36,12216
37,8424
39,29981
40,20954
41,23052
42,40776
43,8306
44,40760
45,9443
46,6385
47,10281
48,8254
50,11916
51,31940
52,9985
53,20999
54,9102
56,34955
58,5163
59,9702
60,13157
61,26956
62,8689
63,19621
64,7100
67,11398
70,14282
71,7105
72,16701
73,4986
74,4781
76,13441
79,27196
80,11239
82,7379
83,14702
84,6895
85,14056
86,19709
88,7623
89,7224
90,19935
91,17231
92,15594
93,5360
95,43552
96,22295
97,13315
99,44752
100,15011
101,38572
102,27966
103,19630
104,11063
105,35232
106,9186
107,7770
108,9502
109,12890
110,6525
111,18229
112,8997
113,23440
115,23121
116,18160
117,9374
118,11832
119,17153
120,5113
121,6646
122,7432
123,14691
124,24303
125,4045
127,9567
128,10931
129,13330
130,40915
131,8337
132,17740
133,6810
134,10298
135,18883
136,6245
139,8694
140,30645
141,17575
142,9946
143,27560
144,36942
145,3212
148,20894
149,11872
150,13566
151,6112
152,11640
153,12608
154,2295
155,3014
156,6427
158,14650
159,21046
160,3682
161,30983
162,4691
164,6555
165,18759
166,13696
167,8090
168,9496
169,33801
172,16118
173,15632
174,7305
175,12504
176,15675
177,5544
178,3465
179,10070
180,15529
181,8360
182,31664
184,25887
185,4922
186,28530
187,9797
188,42063
189,20215
190,26382
191,16579
192,20384
193,18414
194,11971
195,7486
196,32883
197,7493
198,29522
199,8171
201,8107
202,7053
203,6948
204,16560
205,39446
206,41798
207,38995
208,11179
209,44061
210,11922
211,25001
212,8156
213,13252
214,4781
215,12169
216,19610
217,15933
219,31402
220,8545
221,9075
222,8218
223,1823
224,7284
226,16552
227,5909
228,12643
229,7175
230,41411
231,9708
232,22269
234,8371
235,22277
236,6684
238,6834
239,28563
240,30111
241,13402
242,33889
243,22298
244,4575
245,26267
246,3266
247,14669
249,7904
250,28956
251,60746
252,8429
253,4001
254,10984
255,14199
256,12065
259,11577
260,22774
261,11486
262,22772
263,9471
264,15985
265,7095
267,21745
268,24366
269,14891
270,23845
271,36660
272,19184
273,11673
274,13726
276,19298
277,5670
279,13993
280,22590
282,19289
284,8717
285,23116
288,15571
291,5454
292,25760
293,16069
294,6625
295,16909
296,29854
298,32478
299,23153
300,26192
302,12731
303,33038
305,35783
306,28170
307,33303
308,46205
309,29601
310,7936
311,23869
314,23299
315,14219
318,31742
319,15036
320,7085
321,30276
322,13896
324,7135
325,15995
326,6498
327,4922
328,7630
329,11376
331,41425
332,12421
333,22506
334,11242
335,35213
336,31456
337,11281
338,37176
342,8289
343,12295
344,21542
345,16050
346,18752
347,39616
348,15280
349,8927
350,3463
351,6358
352,6635
353,5996
354,7593
355,11459
357,13502
358,37226
360,25271
361,22689
362,6078
363,23382
364,6009
365,12695
366,10265
367,46257
368,19573
369,6663
370,25957
371,12205
372,1528
373,38108
374,6901
375,9528
376,24800
377,16493
378,12698
379,7310
380,24918
381,48836
382,3024
383,7709
384,17712
385,40645
386,11848
387,11887
388,13879
389,5434
390,13833
391,26253
392,7956
393,22158
394,16214
396,16733
397,6020
398,18575
399,9667
400,3245
401,14038
402,7526
403,7722
404,12429
405,13635
406,6827
407,12214
408,45324
409,12993
410,19618
411,21263
412,11819
413,8606
414,26139
415,6572
416,15582
419,17970
420,44406
421,10050
422,14363
423,51961
424,13827
425,15291
426,10258
427,3307
429,30297
430,12907
432,7974
433,25493
434,13282
435,32455
436,4321
439,3365
440,39499
441,11040
443,16486
444,5967
445,16108
446,17100
447,10219
448,21001
449,11488
450,11666
451,29888
452,28909
453,17889
454,16693
455,11794
456,8953
457,32099
458,11925
459,16835
460,9214
461,7431
462,12924
463,14897
464,13712
465,7402
467,16620
470,35254
472,4544
473,12625
474,12767
475,17874
476,9563
477,12028
478,9156
479,15075
480,20320
481,35386
482,11268
483,9014
484,18583
485,11622
486,9653
487,8270
488,6965
489,22397
490,11424
491,10646
492,8758
493,26750
494,7592
496,8701
497,6952
498,7284
499,1945
500,6594
501,6647
502,9700
503,13013
504,14735
505,6416
506,6416
507,4070
508,21222
509,18534
510,14078
511,13132
512,14245
513,28759
515,13244
516,22117
517,3846
518,17157
519,7501
520,21821
521,23320
522,20607
523,3287
524,22340
527,14624
528,11998
529,20605
531,24550
532,25724
533,28088
534,12928
536,29976
538,9725
539,20445
541,36204
542,10272
543,14391
544,42300
546,23020
547,15103
548,35578
550,18127
552,3825
554,13347
555,34880
556,23795
557,17215
558,12790
561,19933
563,22549
564,20700
565,8899
566,34741
567,6202
569,6952
571,11100
572,9957
574,21917
576,32225
577,15711
578,10826
579,2714
581,5998
583,27636
585,12293
586,9173
587,10267
588,10008
589,6620
590,20162
592,19852
593,8719
594,3541
595,6901
596,7598
597,18276
598,7689
599,5988
600,21378
601,25592
602,4891
603,5190
604,28521
605,12643
606,11647
607,21349
608,7755
609,2134
610,13105
611,39982
612,15420
613,6222
614,13300
615,7954
616,14456
617,7424
618,18654
619,8164
620,12409
621,11774
622,9701
623,11952
624,17826
626,12281
627,20322
628,10708
629,16800
630,6426
633,7592
634,10340
635,5975
637,14258
639,10985
640,7464
641,18499
642,30067
643,10006
645,19222
646,28901
648,13388
649,32466
652,11408
653,8682
654,10430
655,8961
656,14953
657,33878
659,15265
660,10221
661,13184
662,15076
663,17108
664,12194
665,22959
666,7497
667,21306
668,12764
670,37571
671,10745
672,7702
673,8818
675,3365
676,7284
677,14779
678,5790
679,12470
680,6120
682,43150
683,15096
685,27013
686,4144
687,15788
688,7069
693,2581
694,13082
695,32959
697,30821
698,10085
699,5708
700,7252
701,16120
702,13337
704,2470
705,5889
706,4114
707,9014
708,4720
709,18191
710,33312
711,3976
712,11166
713,13433
715,23367
716,17415
718,4413
719,21466
720,28513
721,3369
722,9353
723,10150
726,23000
727,13779
728,36289
730,9241
731,233
732,234
734,16193
738,1517
739,1381
741,622
743,1788
744,460
745,8078
746,17747
747,4495
750,9234
752,3234
753,12570
754,35822
755,33670
756,22476
757,7422
758,4166
759,39077
760,4940
761,10983
762,16783
763,8461
764,18450
765,11923
766,10168
767,21467
768,12650
769,4628
770,33487
771,2977
772,42294
773,18702
774,12041
775,7422
776,52262
778,24138
780,26365
781,32951
782,1737
784,10759
787,23325
788,8238
789,7249
791,24798
792,28978
793,11127
794,4454
795,6018
796,20228
797,13290
798,8162
799,7408
801,8824
802,14370
803,5689
804,17753
805,17211
806,14692
807,5020
808,31943
809,5181
812,6125
813,1894
814,19222
815,10565
816,28646
818,5435
819,48992
821,1839
822,9324
823,22092
824,4382
825,18962
826,16899
827,7076
828,36949
832,40430
833,13178
834,38384
835,14408
837,14666
838,4521
839,6618
840,15176
841,17501
843,3937
844,9190
847,3666
848,38416
849,8681
850,26613
851,8269
852,25998
854,5216
855,22557
856,5714
857,20975
859,11364
860,43105
861,22468
862,2574
863,11504
864,11960
865,8138
866,39400
867,12730
868,9607
869,22896
871,38224
872,14846
873,23415
874,14230
876,7452
877,15042
879,49848
880,9730
881,12981
884,8046
885,20141
886,28737
887,9130
888,5037
889,4887
890,10101
891,7277
892,1578
894,6825
895,39782
896,18422
901,34544
902,8633
903,16384
904,11605
905,11053
906,13639
907,46154
908,31050
909,31478
910,6429
912,10975
913,24116
914,44181
915,35394
916,47655
917,13521
918,7733
919,39437
922,33694
925,43477
928,28423
929,16208
930,31800
931,12929
935,14584
936,14123
937,15113
938,22426
939,16928
940,38808
942,2351
943,15177
944,8359
945,7393
946,8623
947,5694
948,9298
949,5288
951,10714
952,9058
954,11535
956,27550
957,8622
958,9377
959,27586
960,25531
962,6118
963,14709
964,24339
965,7868
966,10874
967,14484
968,12205
969,13387
970,29362
971,1924
973,32734
974,7061
975,12459
978,5478
979,30042
980,11046
981,5307
982,21627
983,22343
984,6286
985,34508
986,14764
987,9549
988,20483
989,10972
991,2784
993,3519
994,22807
995,50122
996,25746
997,26884
998,340
999,26423
1000,28557
1001,8263
1002,14077
1003,9502
1004,21600
1005,22934
1007,19115
1009,16631
1010,12658
1012,21402
1014,3040
1015,24350
1016,30710
1018,20070
1019,25608
1021,23907
1022,23419
1023,11708
1025,32017
1026,37729
1027,11417
1028,37577
1029,10560
1030,21435
1031,49161
1032,23536
1033,32365
1034,32760
1035,39590
1036,35412
1038,24163
1039,25905
1040,37360
1041,13272
1042,15068
1045,10303
1047,32627
1048,45790
1049,20366
1050,9335
1051,19899
1052,15316
1053,12953
1054,4723
1055,12763
1056,5916
1057,17003
1058,25638
1059,9109
1060,7440
1063,19513
1064,11993
1065,10150
1066,22180
1067,8987
1068,4198
1070,20211
1071,8887
1072,28938
1073,5751
1074,36375
1075,10509
1076,11098
1077,29154
1079,2237
1080,4801
1081,9492
1082,11588
1083,3449
1084,11551
1085,1600
1086,6881
1087,3132
1088,2947
1089,14846
1090,936
1091,8342
1092,8921
1093,14354
1094,5705
1096,6166
1097,15079
1098,5721
1099,9187
1100,23532
1101,16376
1102,7017
1103,24575
1105,12364
1106,37837
1107,6677
1108,4504
1110,5404
1112,34284
1114,17434
1117,11026
1118,10152
1119,15255
1120,17964
1121,30904
1122,26429
1124,38052
1128,35293
1131,37285
1132,25634
1133,17730
1134,21118
1135,13205
1136,7754
1137,11413
1138,29512
1139,11839
1140,35279
1142,8362
1143,11883
1144,11405
1145,3437
1146,22898
1151,7764
1152,4382
1153,17997
1154,9293
1155,5190
1156,49848
1157,10862
1158,16239
1159,10025
1160,9463
1161,12695
1162,9674
1163,16053
1164,10593
1165,9959
1166,15009
1167,13067
1168,4294
1169,4720
1170,9384
1171,7624
1172,16266
1173,11339
1174,29957
1175,25311
1176,8372
1177,12425
1180,11792
1181,13656
1182,7188
1183,9540
1184,40353
1185,20375
1186,15837
1187,13558
1188,12905
1189,19033
1190,9095
1191,47583
1192,11374
