"ANTENNA","CALLS"
-1,96386
1,23275
2,7879
3,17020
4,10015
5,41344
6,20659
7,16992
8,12762
9,57015
10,34412
11,31849
12,24661
13,33720
14,27514
15,16688
16,17746
17,10610
18,9854
19,8238
20,31736
21,9508
22,7222
23,8359
24,7351
25,13576
26,7142
27,46530
28,14458
29,25477
30,42735
31,15066
32,3897
33,19896
34,1454
35,8232
36,13224
37,7373
38,39981
39,34212
40,22450
41,25448
42,43678
43,9286
44,44921
45,8888
46,6972
47,4544
48,8461
49,8848
50,17177
51,36796
52,11670
53,21659
54,18964
55,6510
56,33501
57,23155
58,5100
59,12884
60,13921
61,32896
62,7516
63,20640
64,6533
65,5042
66,4817
67,6100
68,6368
69,8474
70,14320
71,8445
72,17500
73,4149
74,6510
75,18523
76,26460
77,27840
78,7402
79,28969
80,12591
81,34214
82,8851
83,16196
84,9469
85,16028
86,21030
87,48907
88,8993
89,9310
90,16172
91,19960
92,16974
93,7244
94,28489
95,48365
96,27058
97,19317
98,10458
99,47488
100,16617
101,43181
102,30309
103,18281
104,11177
105,39754
106,9141
107,9539
108,8597
109,13009
110,7125
111,14940
112,10839
113,25128
114,19989
115,25368
116,25897
117,11729
118,15451
119,20421
120,4791
121,5983
122,8284
123,17358
124,25660
125,2978
126,21799
127,13029
128,9866
129,15011
130,42999
131,8737
132,17935
133,9946
134,7867
135,22125
136,7376
137,21694
138,21236
139,8486
140,34569
141,21334
142,4635
143,28264
144,19677
145,3200
146,35470
147,15851
148,24143
149,11254
150,13508
151,5722
152,11413
153,13575
154,2233
155,2907
156,7030
157,6164
158,16321
159,25983
160,4911
161,35050
162,5887
163,36708
164,9364
165,16241
166,16285
167,9437
168,19990
169,41933
170,15819
171,30995
172,16944
173,15105
174,8905
175,15520
176,16163
177,6954
178,3850
179,11405
180,13433
181,8139
182,33250
183,19618
184,27886
185,7166
186,32845
187,10998
188,45278
189,21372
190,21197
191,18708
192,21544
193,22706
194,10790
195,7697
196,34130
197,8728
198,33089
199,8150
200,10413
201,10377
202,7949
203,7987
204,6875
205,41657
206,45717
207,43722
208,10001
209,50907
210,11796
211,27298
212,7747
213,13937
214,4299
215,16707
216,24896
217,17508
218,7169
219,35848
220,3931
221,13800
222,9002
223,2320
224,7644
225,32075
226,16982
227,10569
228,13575
229,8650
230,46749
231,7161
232,24296
233,13492
234,10146
235,24122
236,4863
237,23618
238,6621
239,34933
240,28069
241,13914
242,36953
243,23432
244,5155
245,25825
246,3361
247,20366
248,6475
249,7163
250,32315
251,67282
252,7132
253,3934
254,6337
255,13878
256,12085
257,23892
258,22770
259,12223
260,25592
261,14541
262,31168
263,9339
264,15385
265,7830
266,9754
267,24282
268,28968
269,17917
270,24832
271,39783
272,19439
273,12193
274,24144
276,25549
277,6964
278,2873
279,16058
280,36759
281,14017
282,19546
283,9070
284,8899
285,23930
286,29869
287,20316
288,22320
289,38396
290,15420
291,6321
292,20242
293,18184
294,3583
295,18399
296,32769
297,6466
298,34684
299,26233
300,16890
302,9453
303,35037
304,19285
305,38314
306,28195
307,38010
308,35902
309,31173
310,4759
311,26033
312,13495
313,22853
314,32372
315,16632
316,18459
317,19117
318,34318
319,16355
320,9280
321,31115
322,15173
323,40887
324,8717
325,18301
326,6959
327,5501
328,4035
329,12565
330,19340
331,55611
332,14388
333,27965
334,11402
335,44754
336,30344
337,13236
338,41342
339,22210
341,7355
342,11192
343,14486
344,21764
345,24120
346,19293
347,21225
348,14657
349,10182
350,4915
351,8231
352,10265
353,9392
354,8557
355,8675
356,7211
357,12624
358,40370
359,4586
360,21431
361,27148
362,2656
363,22709
364,7022
365,14416
366,11077
367,51174
368,17384
369,3864
370,25424
371,12575
372,1473
373,19993
374,8092
375,8603
376,33749
377,19935
378,13261
379,6748
380,31531
381,51541
382,4261
383,4326
384,20319
385,43004
386,13047
387,12990
388,13535
389,5624
390,14284
391,35192
392,8514
393,19411
394,15868
395,10715
396,20212
397,7759
398,29280
399,11013
400,2997
401,13745
402,6296
403,6763
404,17746
405,11501
406,10071
407,14805
408,50769
409,14816
410,21861
411,21059
412,13127
413,9470
414,30892
415,7035
416,17013
417,3898
418,22676
419,18960
420,50457
421,11850
422,30069
423,55777
424,13698
425,12687
426,10407
427,4296
428,19885
429,34006
430,13862
431,14060
432,9774
433,26218
434,14835
435,37366
436,5003
437,10243
438,18784
439,3057
440,34305
441,14215
442,8326
443,13399
444,7561
445,21517
446,18047
447,12238
448,24428
449,11819
450,14463
451,39069
452,36290
453,20346
454,19845
455,24425
456,9699
457,37568
458,6827
459,18251
460,12160
461,9458
462,15277
463,15138
464,16550
465,7650
466,7884
467,20506
468,7010
469,30371
470,40842
471,48523
472,5074
473,14941
474,14526
475,20457
476,9749
477,13376
478,7596
479,15643
480,21237
481,46113
482,15845
483,9646
484,25717
485,13216
486,12270
487,10950
488,7572
489,23553
490,11276
491,13511
492,9532
493,29834
494,15035
495,31076
496,10590
497,10313
498,6393
499,2617
500,7979
501,6975
502,11454
503,11025
504,18457
505,6607
506,6244
507,4321
508,22726
509,20150
510,15301
511,7259
512,14643
513,30820
514,38634
515,13891
516,23988
517,3744
518,17872
519,8323
520,21527
521,27712
522,25035
523,3046
524,27919
525,10188
526,14890
527,16438
528,13928
529,9715
530,6275
531,34180
532,21951
533,33349
534,14212
535,2550
536,36347
537,27390
538,10827
539,26197
540,3800
541,36077
542,8925
543,17233
544,36512
545,25070
546,26386
547,16288
548,39414
549,14830
550,30983
551,6469
552,4104
553,16457
554,9923
555,42525
556,26403
557,21499
558,12716
559,16248
560,17757
561,25984
562,10035
563,31164
564,28448
565,9554
566,39440
567,7019
568,18193
569,5889
570,21037
571,14396
572,7916
574,22522
575,8523
576,39894
577,16149
578,14067
579,3303
580,8650
581,4841
582,6179
583,32910
584,12193
585,13759
586,7657
587,10825
588,10557
589,7609
590,22760
591,17041
592,21567
593,9439
594,4876
595,7962
596,5549
597,23070
598,6055
599,5849
600,23265
601,27352
602,6279
603,7944
604,15971
605,18253
606,9603
607,21758
608,8356
609,7150
610,15437
611,46439
612,17360
613,7211
614,12768
615,4482
616,16969
617,9376
618,20908
619,9712
620,9689
621,13142
622,11679
623,16911
624,9986
625,11173
626,12718
627,21420
628,22987
629,19560
630,14562
631,8177
632,36483
633,3477
634,11810
635,7007
636,9046
637,6344
638,15432
639,10250
640,6486
641,17644
642,33305
643,11215
644,1342
645,21750
646,33927
647,9681
648,11421
649,17986
650,18770
651,12585
652,12276
653,11554
654,11219
655,7275
656,27544
657,34842
658,9809
659,17964
660,10781
661,45995
662,19572
663,18392
664,14876
665,24296
666,7409
667,25702
668,13993
669,16852
670,42446
671,12683
672,3741
673,13138
674,7184
675,4148
676,9875
677,17747
678,6332
679,14684
680,6711
681,9989
682,44158
683,22101
684,19119
685,29355
686,6043
687,12864
688,6094
689,22802
690,14396
692,5613
693,2167
694,14341
695,39534
696,23103
697,42653
698,11868
699,6498
700,8327
701,16644
702,21060
703,25625
704,2781
705,6948
706,5484
707,19314
708,4343
709,18928
710,38132
711,4800
712,13920
713,16506
714,22337
715,27714
716,26849
717,14921
718,4756
719,24992
720,30536
721,3699
722,10981
723,10912
724,26701
725,13837
726,23258
727,30295
728,39676
729,19891
730,10784
731,215
732,178
733,35
734,12558
735,3546
736,3117
737,137
738,1247
739,1450
740,544
741,756
742,707
743,1641
744,1632
745,6971
746,18461
747,4633
748,16138
750,11003
751,27001
752,6117
753,14021
754,38094
755,27959
756,28932
757,7036
758,8012
759,40899
760,4815
761,11619
762,19529
763,9302
764,20195
765,12642
766,14469
767,23755
768,5555
769,5824
770,38482
771,2179
772,47749
773,21753
774,11809
775,7058
776,54933
778,25011
779,3011
780,33112
781,37395
782,1952
783,6673
784,10672
785,1900
786,47911
787,25837
788,9695
789,11056
790,8508
791,48298
792,13767
793,10957
794,5862
795,7197
796,28120
797,5300
798,9638
799,6568
800,15947
801,9503
802,16600
803,8752
804,18762
805,20261
806,7472
807,5595
808,39956
809,5061
810,12618
812,5210
813,7996
814,19244
815,8337
816,36175
817,23230
818,6210
819,54045
820,8885
821,1845
822,10383
823,23462
824,4752
825,8919
826,13213
827,7574
828,38816
829,45427
830,8184
831,20156
832,44451
833,18896
834,40461
835,15148
836,24614
837,7730
838,5148
839,6332
840,15973
841,20495
842,12246
843,4571
844,7086
845,6827
846,16
847,4384
848,41809
849,10890
850,28832
851,8366
852,30592
853,9449
854,5479
855,19196
856,5941
857,24396
858,25117
859,6280
860,43537
861,23044
862,3229
863,17956
864,15604
865,8909
866,41923
867,14272
868,9696
869,26476
870,14016
871,40914
872,17116
873,30803
874,15622
875,20348
876,7818
877,15984
878,11370
879,52996
880,12991
881,13620
882,23927
883,43070
884,8705
885,15181
886,32080
887,11735
888,5718
889,5139
890,8752
891,14040
892,949
893,4368
894,5855
895,43832
896,20237
897,2402
898,33909
899,8705
900,20222
901,35313
902,9253
903,15212
904,8897
905,13436
906,15565
907,49756
908,33960
909,32009
910,6606
911,8967
912,12781
913,17632
914,47059
915,37478
916,51541
917,13931
918,8302
919,41388
920,22047
921,24318
922,37369
923,15620
924,14083
925,47018
926,31885
927,12373
928,30076
929,19564
930,35328
931,15432
932,6042
933,19994
935,18167
936,16491
937,15634
938,26875
939,20137
940,41207
941,23309
942,2920
943,21275
944,10891
945,8538
946,9075
947,5137
948,10442
949,5399
950,24813
951,12447
952,12306
954,12931
955,4433
956,35729
957,9700
958,10462
959,30245
960,31160
961,8173
962,7613
963,17851
964,28888
965,9850
966,10308
967,16478
968,16851
969,12349
970,32018
971,2006
972,11027
973,41097
974,11676
975,13882
977,38585
978,6276
979,32600
980,14108
981,7535
982,23239
983,24710
984,6863
985,36257
986,6344
987,9605
988,26130
989,12113
990,46902
991,4205
992,22069
993,5200
994,24432
995,54580
996,29523
997,32277
998,263
999,38026
1000,29883
1001,8706
1002,17003
1003,9353
1004,22089
1005,24330
1006,18431
1007,19363
1008,40167
1009,16334
1010,16474
1011,6734
1012,23371
1013,46646
1014,3883
1015,27504
1016,36531
1017,35976
1018,29117
1019,27558
1020,60660
1021,25997
1022,20915
1023,28391
1024,39897
1025,32678
1026,43376
1027,27164
1028,43521
1029,11483
1030,22288
1031,39397
1032,28632
1033,40433
1034,36651
1035,40694
1036,36971
1037,18051
1038,27892
1039,28587
1040,43463
1041,14295
1042,20995
1043,12026
1044,10416
1045,12810
1047,35109
1048,48800
1049,8905
1050,11453
1051,26668
1052,18288
1053,7023
1054,4095
1055,13757
1056,6102
1057,19579
1058,30445
1059,11030
1060,8530
1062,32464
1063,25551
1064,13905
1065,12646
1066,25630
1067,9553
1068,4175
1069,51717
1070,20616
1071,9294
1072,31883
1073,4747
1074,17924
1075,11959
1076,12908
1077,32683
1078,7460
1079,2794
1080,6714
1081,10174
1082,15253
1083,5135
1084,13393
1085,2392
1086,8086
1087,3258
1088,3808
1089,14575
1090,1513
1091,9153
1092,4885
1093,12293
1094,8072
1095,10960
1096,8913
1097,14477
1098,6405
1099,10443
1100,25782
1101,21325
1102,9373
1103,31036
1104,8064
1105,14953
1106,43661
1107,7280
1108,4578
1109,7768
1110,5911
1111,20639
1112,36228
1113,34553
1114,19669
1115,9245
1116,23174
1117,11337
1118,9718
1119,17459
1120,18420
1121,38492
1122,26442
1123,7140
1124,38320
1125,13917
1126,5673
1127,13129
1128,39777
1129,16481
1131,29635
1132,51644
1133,23369
1134,25206
1135,14584
1136,9330
1137,14591
1138,32404
1139,13775
1140,36354
1141,28701
1142,8273
1143,13405
1144,11743
1145,2878
1146,23768
1147,7820
1148,24376
1149,29202
1150,39339
1151,9019
1152,6154
1153,18283
1154,10671
1155,5282
1156,53997
1157,10953
1158,20006
1159,11132
1160,9737
1161,15046
1162,10024
1163,17072
1164,10266
1165,6417
1166,17835
1167,12545
1168,4853
1169,5163
1170,9815
1171,8048
1172,16794
1173,11615
1174,34279
1175,27427
1176,9097
1177,14797
1178,15597
1179,5087
1180,6790
1181,7378
1182,8619
1183,12112
1184,43296
1185,22003
1186,22069
1187,13841
1188,13307
1189,20804
1190,10173
1191,50154
1192,13803
1193,28203
1194,2097
1195,9598
1196,3110
1197,8637
1198,9393
1199,4454
1203,2090
1204,2690
1206,5228
1207,7920
1209,3050
1210,2789
1211,10003
1212,3490
1214,4329
1216,6360
1217,6853
1218,1898
1219,4062
1220,4918
1222,4242
1223,5470
1224,11019
1225,4317
1226,5860
1227,5672
1228,5162
