"ANTENNA","CALLS"
-1,240378
1,23460
2,6984
4,9901
5,39967
6,21505
8,10197
9,56626
10,44024
11,32135
12,20430
13,33393
14,30638
15,29815
16,17935
17,12795
18,13024
19,13029
20,28762
21,10406
22,10699
23,8791
24,6746
25,21735
26,6898
27,49096
28,12649
29,18357
30,38054
35,9351
36,14040
37,12156
38,51190
39,36620
40,23411
41,26382
42,40943
43,8792
44,43825
45,8163
46,6702
47,8600
48,6652
49,12848
50,9791
51,34518
52,9904
53,21177
54,8441
56,33654
57,25150
58,5495
59,9293
60,12002
61,27175
62,10507
63,21048
64,5730
65,6058
67,12518
68,6672
70,14995
71,11047
72,18333
73,5811
74,4436
75,20369
76,11608
77,32835
79,28327
80,12515
82,8869
83,14623
84,7682
85,10684
86,20687
88,11330
89,7723
90,21256
91,13654
92,13470
93,5312
94,28539
95,49466
96,29570
97,13048
99,51203
100,15531
101,42174
102,30215
103,29912
104,12152
105,39390
106,9946
107,7287
108,10947
109,14148
110,7140
111,20205
112,7721
113,25121
115,24758
116,16342
117,9689
118,12534
119,19676
120,5017
121,7947
122,6703
123,13266
124,28907
125,4295
126,31789
127,10719
128,8503
129,13534
130,44707
131,9917
132,16738
133,11326
134,12728
135,21457
136,5776
137,22593
139,6296
140,21340
141,14189
142,10310
143,30241
144,34708
145,2871
146,41677
148,29947
149,8778
150,11056
151,7639
152,8942
153,11645
154,1395
155,2355
156,5485
158,9355
159,18542
160,4655
161,34062
162,2580
163,49881
164,8412
165,22477
166,12196
167,8923
168,9087
169,26131
171,36937
172,18282
173,17013
174,7287
175,12195
176,20240
177,5146
178,3810
179,7394
180,15547
181,8864
182,33987
184,28287
185,4913
186,29776
187,10153
188,50311
189,21268
190,27258
191,17551
192,23175
193,13936
194,13519
195,7999
196,36345
197,6086
198,35048
199,7042
201,7442
202,7046
203,5676
204,16321
205,42834
206,44692
207,40366
208,9095
209,53870
210,8774
211,24020
212,9440
213,10431
214,4500
215,8471
216,22299
217,12700
219,33561
220,7650
221,8714
222,6813
223,1213
224,5645
225,38375
226,17607
227,6587
228,13476
229,6503
230,43626
231,11193
232,22834
234,7595
235,24703
236,6450
238,8825
239,25238
240,33987
241,10303
242,40084
243,22901
244,3302
245,28751
246,1976
247,14903
249,9529
250,33568
251,64807
252,8893
253,4474
254,11353
255,12399
256,12799
258,31575
259,12027
260,24158
261,15186
262,22803
263,7712
264,18957
265,4868
266,16136
267,23697
268,21343
269,13638
270,24700
271,38267
272,20026
273,11180
274,11971
275,18897
276,20741
277,2537
279,17521
280,46426
282,20509
284,9118
285,23160
287,20643
288,12617
289,41917
291,5293
292,28776
293,11664
294,7258
295,17142
296,31275
297,15752
298,35395
299,17988
300,32228
302,14854
303,38809
305,36599
306,29131
307,37006
308,50071
309,31074
310,8123
311,40957
313,25243
314,20404
315,14863
317,23436
318,35095
319,12826
320,7797
321,34208
322,12400
323,49354
324,6616
325,11702
326,5905
327,4390
328,7450
329,8146
330,22636
331,35941
332,13945
333,17904
334,8276
335,38954
336,32936
337,9003
338,39849
339,21547
342,6417
343,6395
344,23700
345,16399
346,20003
347,38630
348,16544
349,10186
350,2825
351,5875
352,4680
353,4183
354,5425
355,13211
357,9429
358,42845
360,28241
361,24609
362,6437
363,29230
364,7476
365,10637
366,9869
367,49020
368,22651
369,5981
370,24930
371,10670
372,884
373,36615
374,5647
375,5971
376,20371
377,15502
378,13233
379,8751
380,22111
381,55128
382,1896
383,7919
384,14736
385,44888
386,9324
387,10320
388,11149
389,3600
390,10597
391,22159
392,8177
393,23055
394,22062
395,15433
396,25594
397,4370
398,16315
399,10398
400,4242
401,15143
402,10218
403,9090
404,21871
405,17572
406,8042
407,14160
408,36418
409,15827
410,33962
411,21620
412,12393
413,8949
414,16527
415,5793
416,17408
419,18209
420,33233
421,10285
422,14082
423,56885
424,11403
425,17018
426,8729
427,2535
429,31268
430,10193
431,8078
432,6849
433,27722
434,13783
435,36349
436,4599
438,21108
439,4118
440,44904
441,10481
443,22954
444,5859
445,16910
446,20230
447,9385
448,17177
449,9252
450,10372
451,27591
452,24626
453,14853
454,14718
455,11204
456,11430
457,38019
458,11912
459,12853
460,8607
461,6213
462,10632
463,11367
464,15455
465,5901
467,13987
468,5289
469,30452
470,38016
472,3245
473,9488
474,10472
475,13463
476,7321
477,11655
478,7242
479,13111
480,16924
481,31882
482,12009
483,7115
484,15659
485,8789
486,7657
487,7324
488,4370
489,22629
490,9055
491,15821
492,7157
493,26721
494,24982
495,37381
496,9293
497,14400
498,5064
499,1267
500,5741
501,4720
502,9705
503,9822
504,12289
505,4681
506,6607
507,3698
508,17848
509,24992
510,11849
511,12882
512,12590
513,31457
515,10777
516,17571
517,3333
518,13902
519,6180
520,17014
521,18583
522,17908
523,3181
524,19183
525,14918
527,12426
528,9021
529,20213
530,11204
531,22820
532,39471
533,23421
534,10139
536,24069
538,8931
539,15470
540,3833
541,40621
542,10464
543,16330
544,47996
546,30779
547,19057
548,39424
550,31382
552,3948
553,21440
554,16250
555,30656
556,19048
557,14428
558,13429
559,19303
561,36574
563,18715
564,17907
565,5984
566,37735
567,5959
568,24641
569,8116
571,10846
572,12522
574,22617
576,36096
577,15820
578,8355
579,2332
581,4562
583,30021
585,13024
586,11068
587,10544
588,8000
589,5053
590,21348
592,16723
593,8886
594,2611
595,6928
596,8116
597,16363
598,8678
599,5168
600,21583
601,26132
602,4936
603,4431
604,28566
605,12764
606,10466
607,25834
608,7427
609,4063
610,12286
611,44119
612,16343
613,4394
614,12163
615,8558
616,14524
617,5192
618,19531
619,15399
620,15526
621,15417
622,9695
623,13302
624,17313
626,16490
627,16096
628,10592
629,18020
630,8968
631,121
632,43835
633,6170
634,8584
635,4248
636,9594
637,11291
638,16533
639,6446
640,9598
641,13988
642,36000
643,9351
645,16093
646,35455
648,15850
649,32638
652,12156
653,8106
654,10008
655,10743
656,34046
657,37794
658,8011
659,17156
660,8142
661,16879
662,12515
663,10293
664,11434
665,22902
666,5481
667,17432
668,9765
669,18860
670,44207
671,10795
672,6746
673,8620
674,9244
675,2710
676,6929
677,13760
678,5871
679,9906
680,4627
682,45988
683,16963
685,29171
686,3117
687,21024
688,8195
689,26913
693,2409
694,9970
695,41816
696,25413
697,26766
698,7285
699,4393
700,5188
701,16979
702,10691
704,2798
705,5517
706,4276
707,8665
708,6087
709,19534
710,39644
711,2887
712,9910
713,12361
715,24573
716,20406
717,323
718,3395
719,17556
720,31675
721,5633
722,9473
723,7428
724,39716
726,23642
727,12448
728,41209
730,7851
731,203
732,208
734,17211
738,1451
739,1480
741,525
743,1718
744,384
745,8910
746,19666
747,4402
750,15255
751,28824
752,3154
753,9192
754,42498
755,28346
756,41314
757,7173
758,10423
759,39174
760,3806
761,8064
762,17982
763,5890
764,13677
765,12779
766,9759
767,21775
768,13594
769,3187
770,40747
771,3663
772,49411
773,16466
774,13789
775,8856
776,56706
778,19579
779,87
780,23111
781,39843
782,1668
784,8563
785,88
786,60106
787,23628
788,8620
789,9125
790,7908
791,28609
792,29464
793,14333
794,4888
795,6673
796,17113
797,11619
798,6956
799,6902
800,13380
801,10276
802,14877
803,5434
804,19469
805,18055
806,19704
807,5072
808,37507
809,3848
810,492
812,5734
813,6978
814,18888
815,13755
816,24289
818,7589
819,53049
820,9505
821,2346
822,9491
823,22394
824,4541
825,18871
826,21514
827,8501
828,39727
832,46192
833,3348
834,41491
835,15733
836,28410
837,14111
838,4150
839,6224
840,14375
841,14941
843,3939
844,10994
845,7833
847,5221
848,46459
849,7422
850,27402
851,8463
852,21320
854,5288
855,23290
856,4429
857,21877
859,8358
860,49204
861,26757
862,2137
863,9584
864,10110
865,6670
866,44129
867,10376
868,9783
869,36983
870,17854
871,42599
872,11300
873,19186
874,11880
876,3845
877,11365
879,57007
880,8004
881,10772
883,50962
884,5924
885,21992
886,33059
887,11506
888,4248
889,3311
890,11587
891,10408
892,1678
894,7709
895,43538
896,20078
898,35127
901,35789
902,9400
903,25826
904,15794
905,8314
906,13976
907,46986
908,35383
909,35959
910,6193
912,11078
913,33002
914,49399
915,38740
916,42568
917,14237
918,9017
919,48722
920,25866
921,25319
922,36254
925,48910
926,35280
928,29793
929,13630
930,36056
931,11294
932,7886
935,12965
936,11867
937,19178
938,25358
939,16199
940,42010
942,2050
943,13058
944,7790
945,9035
946,5771
947,5917
948,9579
949,3706
950,27059
951,13343
952,8873
953,15570
954,8930
955,3899
956,25391
957,8470
958,8402
959,32426
960,33559
962,5729
963,10654
964,28831
965,7715
966,7914
967,11708
968,14977
969,8186
970,31510
971,2041
972,9981
973,31919
974,5694
975,12721
977,48794
978,5921
979,36342
980,8331
981,4104
982,24470
983,26754
984,5819
985,42250
986,12961
987,9383
988,18831
989,7942
990,54318
991,2297
993,2612
994,25091
995,57252
996,42456
997,23378
998,343
999,21574
1000,31598
1001,7708
1002,15963
1003,5828
1004,23225
1005,24499
1007,21659
1009,18028
1010,15989
1011,7104
1012,22215
1013,55944
1014,1684
1015,18950
1016,24528
1017,25496
1018,27861
1019,28741
1020,74225
1021,26553
1022,35268
1023,35484
1024,45285
1025,32484
1026,43846
1027,12570
1028,39602
1029,11197
1030,23023
1031,55297
1032,17994
1033,39099
1034,37025
1035,40812
1036,38637
1037,23899
1038,25393
1039,30861
1040,45317
1041,13652
1042,10277
1045,8102
1047,35945
1048,51738
1049,20521
1050,9366
1051,16024
1052,15408
1053,12063
1054,3949
1055,8456
1056,6274
1057,12702
1058,25058
1059,9167
1060,7360
1062,42877
1063,16147
1064,9798
1065,8965
1066,23909
1067,8060
1068,3107
1069,56354
1070,21304
1071,7469
1072,30409
1073,7267
1074,27834
1075,8685
1076,10267
1077,30923
1078,11089
1079,2383
1080,3687
1081,9632
1082,11536
1083,2264
1084,10367
1085,1354
1086,6948
1087,2347
1088,2821
1089,15882
1090,1504
1091,7070
1092,9076
1093,15496
1094,4308
1096,5076
1097,19237
1098,4446
1099,9628
1100,26789
1101,13674
1102,5592
1103,21943
1104,8365
1105,10345
1106,40438
1107,6394
1108,4615
1109,9169
1110,5610
1112,35163
1113,41086
1114,18749
1116,23839
1117,11597
1118,6998
1119,16214
1120,14080
1121,26207
1122,25385
1124,40573
1127,14391
1128,39949
1129,14869
1131,44404
1132,35550
1133,16980
1134,18561
1135,14343
1136,7650
1137,15950
1138,33935
1139,10826
1140,37323
1142,11258
1143,12255
1144,12441
1145,4253
1146,23438
1147,9933
1148,26788
1149,31932
1151,6632
1152,3847
1153,12919
1154,5179
1155,5897
1156,52992
1157,8609
1158,14770
1159,8608
1160,9877
1161,10217
1162,10989
1163,16268
1164,11218
1165,9489
1166,15898
1167,10503
1168,3535
1169,3858
1170,6395
1171,5773
1172,26265
1173,14450
1174,31404
1175,27880
1176,6317
1177,10540
1178,16212
1180,11520
1181,15470
1182,6031
1183,9243
1184,43671
1185,17645
1186,13970
1187,10251
1188,9093
1189,15386
1190,7504
1191,53286
1192,9562
