"ADMIN1","POPULATION","ANTENNAS","MIN_ANTENNAS","MAX_ANTENNAS","BALANCE","DIFFERENCE"
"Agneby",241221,44,36,59,48,4
"Bafing",29678,9,4,7,6,-3
"Bas-Sassandra",389647,104,58,95,76,-28
"Denguele",71188,11,11,17,14,3
"Dix-Huit Montagnes",250732,34,37,61,49,15
"Fromager",204519,51,31,50,40,-11
"Haut-Sassandra",360376,62,54,88,71,9
"Lacs",269939,58,40,66,53,-5
"Lagunes",4233481,449,632,1031,832,383
"Marahoue",227849,38,34,55,44,6
"Moyen-Cavally",154039,27,23,38,30,3
"Moyen-Comoe",203854,30,30,50,40,10
"Nzi-Comoe",184468,51,28,45,36,-15
"Savanes",399151,47,60,97,78,31
"Sud-Bandama",235132,43,35,57,46,3
"Sud-Comoe",148953,57,22,36,29,-28
"Vallee du Bandama",852465,49,127,208,168,119
"Worodougou",103289,23,15,25,20,-3
"Zanzan",127219,37,19,31,25,-12
