"AREA2","CALLS","LATITUDE","LONGITUDE"
"Agneby",7509,6.10021,-3.876227
"Bafing",21535,8.374651,-7.541998
"Bas-Sassandra",143819,4.953655,-6.088798
"Denguele",14413,9.587551,-7.368807
"Dix-Huit Montagnes",53232,7.417101,-7.708636
"Fromager",50032,6.297443,-5.926289
"Haut-Sassandra",204060,7.129799,-6.647341
"Lacs",23541,6.90211,-5.185271
"Lagunes",273024,5.334337,-4.062678
"Marahoue",54683,6.99996,-5.7701
"Moyen-Cavally",26173,6.547917,-7.508182
"Moyen-Comoe",5050,6.727677,-3.480959
"Nzi-Comoe",9918,7.16166,-4.171053
"Savanes",65586,9.533049,-5.596829
"Sud-Bandama",31746,5.644361,-5.368657
"Sud-Comoe",10617,5.45433,-3.200261
"Vallee du Bandama",96913,8.293731,-4.86153
"Worodougou",314589,8.458087,-6.461454
"Zanzan",4531,8.801398,-3.242001
