"AREA1","AREA2","PERIOD","CALLS"
"Agneby","Agneby","Afternoon",317504
"Agneby","Agneby","Evening",36775
"Agneby","Agneby","Morning",307803
"Agneby","Agneby","Night",271725
"Agneby","Bafing","Afternoon",1085
"Agneby","Bafing","Evening",56
"Agneby","Bafing","Morning",1047
"Agneby","Bafing","Night",867
"Agneby","Bas-Sassandra","Afternoon",31660
"Agneby","Bas-Sassandra","Evening",1191
"Agneby","Bas-Sassandra","Morning",29882
"Agneby","Bas-Sassandra","Night",23146
"Agneby","Denguele","Afternoon",1077
"Agneby","Denguele","Evening",52
"Agneby","Denguele","Morning",1234
"Agneby","Denguele","Night",986
"Agneby","Dix-Huit Montagnes","Afternoon",7967
"Agneby","Dix-Huit Montagnes","Evening",361
"Agneby","Dix-Huit Montagnes","Morning",7733
"Agneby","Dix-Huit Montagnes","Night",5816
"Agneby","Fromager","Afternoon",24760
"Agneby","Fromager","Evening",1010
"Agneby","Fromager","Morning",23906
"Agneby","Fromager","Night",19683
"Agneby","Haut-Sassandra","Afternoon",15008
"Agneby","Haut-Sassandra","Evening",621
"Agneby","Haut-Sassandra","Morning",13782
"Agneby","Haut-Sassandra","Night",10623
"Agneby","Lacs","Afternoon",53890
"Agneby","Lacs","Evening",2177
"Agneby","Lacs","Morning",47110
"Agneby","Lacs","Night",39445
"Agneby","Lagunes","Afternoon",777546
"Agneby","Lagunes","Evening",28586
"Agneby","Lagunes","Morning",709023
"Agneby","Lagunes","Night",576815
"Agneby","Marahoue","Afternoon",18846
"Agneby","Marahoue","Evening",788
"Agneby","Marahoue","Morning",18270
"Agneby","Marahoue","Night",14513
"Agneby","Moyen-Cavally","Afternoon",5652
"Agneby","Moyen-Cavally","Evening",275
"Agneby","Moyen-Cavally","Morning",5480
"Agneby","Moyen-Cavally","Night",4598
"Agneby","Moyen-Comoe","Afternoon",103289
"Agneby","Moyen-Comoe","Evening",4181
"Agneby","Moyen-Comoe","Morning",95741
"Agneby","Moyen-Comoe","Night",83374
"Agneby","NA","Afternoon",7393
"Agneby","NA","Evening",255
"Agneby","NA","Morning",6943
"Agneby","NA","Night",6323
"Agneby","Nzi-Comoe","Afternoon",101821
"Agneby","Nzi-Comoe","Evening",5071
"Agneby","Nzi-Comoe","Morning",98848
"Agneby","Nzi-Comoe","Night",83081
"Agneby","Savanes","Afternoon",19668
"Agneby","Savanes","Evening",724
"Agneby","Savanes","Morning",19226
"Agneby","Savanes","Night",17134
"Agneby","Sud-Bandama","Afternoon",26640
"Agneby","Sud-Bandama","Evening",982
"Agneby","Sud-Bandama","Morning",26677
"Agneby","Sud-Bandama","Night",23161
"Agneby","Sud-Comoe","Afternoon",53795
"Agneby","Sud-Comoe","Evening",1970
"Agneby","Sud-Comoe","Morning",50987
"Agneby","Sud-Comoe","Night",45476
"Agneby","Vallee du Bandama","Afternoon",54140
"Agneby","Vallee du Bandama","Evening",1936
"Agneby","Vallee du Bandama","Morning",50734
"Agneby","Vallee du Bandama","Night",43711
"Agneby","Worodougou","Afternoon",3384
"Agneby","Worodougou","Evening",93
"Agneby","Worodougou","Morning",3227
"Agneby","Worodougou","Night",2417
"Agneby","Zanzan","Afternoon",46940
"Agneby","Zanzan","Evening",1601
"Agneby","Zanzan","Morning",47089
"Agneby","Zanzan","Night",41099
"Bafing","Agneby","Afternoon",890
"Bafing","Agneby","Evening",75
"Bafing","Agneby","Morning",897
"Bafing","Agneby","Night",629
"Bafing","Bafing","Afternoon",27868
"Bafing","Bafing","Evening",5167
"Bafing","Bafing","Morning",29091
"Bafing","Bafing","Night",25826
"Bafing","Bas-Sassandra","Afternoon",24478
"Bafing","Bas-Sassandra","Evening",858
"Bafing","Bas-Sassandra","Morning",29288
"Bafing","Bas-Sassandra","Night",22112
"Bafing","Denguele","Afternoon",4147
"Bafing","Denguele","Evening",176
"Bafing","Denguele","Morning",4763
"Bafing","Denguele","Night",3922
"Bafing","Dix-Huit Montagnes","Afternoon",35729
"Bafing","Dix-Huit Montagnes","Evening",2338
"Bafing","Dix-Huit Montagnes","Morning",39738
"Bafing","Dix-Huit Montagnes","Night",31371
"Bafing","Fromager","Afternoon",7075
"Bafing","Fromager","Evening",333
"Bafing","Fromager","Morning",7403
"Bafing","Fromager","Night",5390
"Bafing","Haut-Sassandra","Afternoon",22775
"Bafing","Haut-Sassandra","Evening",1031
"Bafing","Haut-Sassandra","Morning",23755
"Bafing","Haut-Sassandra","Night",18400
"Bafing","Lacs","Afternoon",2142
"Bafing","Lacs","Evening",119
"Bafing","Lacs","Morning",2054
"Bafing","Lacs","Night",1304
"Bafing","Lagunes","Afternoon",40828
"Bafing","Lagunes","Evening",2196
"Bafing","Lagunes","Morning",41848
"Bafing","Lagunes","Night",29116
"Bafing","Marahoue","Afternoon",4227
"Bafing","Marahoue","Evening",198
"Bafing","Marahoue","Morning",4466
"Bafing","Marahoue","Night",3413
"Bafing","Moyen-Cavally","Afternoon",11878
"Bafing","Moyen-Cavally","Evening",432
"Bafing","Moyen-Cavally","Morning",13694
"Bafing","Moyen-Cavally","Night",10273
"Bafing","Moyen-Comoe","Afternoon",631
"Bafing","Moyen-Comoe","Evening",44
"Bafing","Moyen-Comoe","Morning",630
"Bafing","Moyen-Comoe","Night",470
"Bafing","NA","Afternoon",89
"Bafing","NA","Evening",6
"Bafing","NA","Morning",76
"Bafing","NA","Night",64
"Bafing","Nzi-Comoe","Afternoon",1138
"Bafing","Nzi-Comoe","Evening",93
"Bafing","Nzi-Comoe","Morning",1192
"Bafing","Nzi-Comoe","Night",690
"Bafing","Savanes","Afternoon",2306
"Bafing","Savanes","Evening",126
"Bafing","Savanes","Morning",2348
"Bafing","Savanes","Night",2030
"Bafing","Sud-Bandama","Afternoon",5688
"Bafing","Sud-Bandama","Evening",196
"Bafing","Sud-Bandama","Morning",5886
"Bafing","Sud-Bandama","Night",4086
"Bafing","Sud-Comoe","Afternoon",2156
"Bafing","Sud-Comoe","Evening",186
"Bafing","Sud-Comoe","Morning",2071
"Bafing","Sud-Comoe","Night",1291
"Bafing","Vallee du Bandama","Afternoon",3280
"Bafing","Vallee du Bandama","Evening",160
"Bafing","Vallee du Bandama","Morning",3420
"Bafing","Vallee du Bandama","Night",2462
"Bafing","Worodougou","Afternoon",6456
"Bafing","Worodougou","Evening",179
"Bafing","Worodougou","Morning",7267
"Bafing","Worodougou","Night",5885
"Bafing","Zanzan","Afternoon",442
"Bafing","Zanzan","Evening",44
"Bafing","Zanzan","Morning",403
"Bafing","Zanzan","Night",402
"Bas-Sassandra","Agneby","Afternoon",25793
"Bas-Sassandra","Agneby","Evening",1371
"Bas-Sassandra","Agneby","Morning",25375
"Bas-Sassandra","Agneby","Night",18496
"Bas-Sassandra","Bafing","Afternoon",25980
"Bas-Sassandra","Bafing","Evening",1048
"Bas-Sassandra","Bafing","Morning",32212
"Bas-Sassandra","Bafing","Night",24803
"Bas-Sassandra","Bas-Sassandra","Afternoon",2125998
"Bas-Sassandra","Bas-Sassandra","Evening",194936
"Bas-Sassandra","Bas-Sassandra","Morning",2229303
"Bas-Sassandra","Bas-Sassandra","Night",1773408
"Bas-Sassandra","Denguele","Afternoon",18506
"Bas-Sassandra","Denguele","Evening",724
"Bas-Sassandra","Denguele","Morning",23184
"Bas-Sassandra","Denguele","Night",18268
"Bas-Sassandra","Dix-Huit Montagnes","Afternoon",208704
"Bas-Sassandra","Dix-Huit Montagnes","Evening",10367
"Bas-Sassandra","Dix-Huit Montagnes","Morning",239280
"Bas-Sassandra","Dix-Huit Montagnes","Night",187751
"Bas-Sassandra","Fromager","Afternoon",302690
"Bas-Sassandra","Fromager","Evening",13432
"Bas-Sassandra","Fromager","Morning",317541
"Bas-Sassandra","Fromager","Night",245088
"Bas-Sassandra","Haut-Sassandra","Afternoon",454615
"Bas-Sassandra","Haut-Sassandra","Evening",19104
"Bas-Sassandra","Haut-Sassandra","Morning",488429
"Bas-Sassandra","Haut-Sassandra","Night",380143
"Bas-Sassandra","Lacs","Afternoon",76815
"Bas-Sassandra","Lacs","Evening",4641
"Bas-Sassandra","Lacs","Morning",78357
"Bas-Sassandra","Lacs","Night",58500
"Bas-Sassandra","Lagunes","Afternoon",699134
"Bas-Sassandra","Lagunes","Evening",38166
"Bas-Sassandra","Lagunes","Morning",694496
"Bas-Sassandra","Lagunes","Night",526801
"Bas-Sassandra","Marahoue","Afternoon",91411
"Bas-Sassandra","Marahoue","Evening",3978
"Bas-Sassandra","Marahoue","Morning",102206
"Bas-Sassandra","Marahoue","Night",79384
"Bas-Sassandra","Moyen-Cavally","Afternoon",185101
"Bas-Sassandra","Moyen-Cavally","Evening",6449
"Bas-Sassandra","Moyen-Cavally","Morning",208747
"Bas-Sassandra","Moyen-Cavally","Night",170633
"Bas-Sassandra","Moyen-Comoe","Afternoon",22644
"Bas-Sassandra","Moyen-Comoe","Evening",1102
"Bas-Sassandra","Moyen-Comoe","Morning",23200
"Bas-Sassandra","Moyen-Comoe","Night",17448
"Bas-Sassandra","NA","Afternoon",2698
"Bas-Sassandra","NA","Evening",164
"Bas-Sassandra","NA","Morning",3032
"Bas-Sassandra","NA","Night",2211
"Bas-Sassandra","Nzi-Comoe","Afternoon",65845
"Bas-Sassandra","Nzi-Comoe","Evening",4477
"Bas-Sassandra","Nzi-Comoe","Morning",72220
"Bas-Sassandra","Nzi-Comoe","Night",49494
"Bas-Sassandra","Savanes","Afternoon",23305
"Bas-Sassandra","Savanes","Evening",1009
"Bas-Sassandra","Savanes","Morning",23344
"Bas-Sassandra","Savanes","Night",18932
"Bas-Sassandra","Sud-Bandama","Afternoon",231583
"Bas-Sassandra","Sud-Bandama","Evening",9402
"Bas-Sassandra","Sud-Bandama","Morning",253673
"Bas-Sassandra","Sud-Bandama","Night",200552
"Bas-Sassandra","Sud-Comoe","Afternoon",47643
"Bas-Sassandra","Sud-Comoe","Evening",3097
"Bas-Sassandra","Sud-Comoe","Morning",50744
"Bas-Sassandra","Sud-Comoe","Night",36383
"Bas-Sassandra","Vallee du Bandama","Afternoon",90972
"Bas-Sassandra","Vallee du Bandama","Evening",5745
"Bas-Sassandra","Vallee du Bandama","Morning",100340
"Bas-Sassandra","Vallee du Bandama","Night",72755
"Bas-Sassandra","Worodougou","Afternoon",50761
"Bas-Sassandra","Worodougou","Evening",1942
"Bas-Sassandra","Worodougou","Morning",61312
"Bas-Sassandra","Worodougou","Night",47107
"Bas-Sassandra","Zanzan","Afternoon",24324
"Bas-Sassandra","Zanzan","Evening",1108
"Bas-Sassandra","Zanzan","Morning",25104
"Bas-Sassandra","Zanzan","Night",19313
"Denguele","Agneby","Afternoon",918
"Denguele","Agneby","Evening",44
"Denguele","Agneby","Morning",903
"Denguele","Agneby","Night",674
"Denguele","Bafing","Afternoon",4109
"Denguele","Bafing","Evening",159
"Denguele","Bafing","Morning",4223
"Denguele","Bafing","Night",3836
"Denguele","Bas-Sassandra","Afternoon",14850
"Denguele","Bas-Sassandra","Evening",658
"Denguele","Bas-Sassandra","Morning",18022
"Denguele","Bas-Sassandra","Night",14373
"Denguele","Denguele","Afternoon",24571
"Denguele","Denguele","Evening",2738
"Denguele","Denguele","Morning",25864
"Denguele","Denguele","Night",22383
"Denguele","Dix-Huit Montagnes","Afternoon",10068
"Denguele","Dix-Huit Montagnes","Evening",516
"Denguele","Dix-Huit Montagnes","Morning",11264
"Denguele","Dix-Huit Montagnes","Night",9293
"Denguele","Fromager","Afternoon",4546
"Denguele","Fromager","Evening",171
"Denguele","Fromager","Morning",4992
"Denguele","Fromager","Night",3724
"Denguele","Haut-Sassandra","Afternoon",13318
"Denguele","Haut-Sassandra","Evening",516
"Denguele","Haut-Sassandra","Morning",15032
"Denguele","Haut-Sassandra","Night",11644
"Denguele","Lacs","Afternoon",1745
"Denguele","Lacs","Evening",84
"Denguele","Lacs","Morning",1664
"Denguele","Lacs","Night",1250
"Denguele","Lagunes","Afternoon",29012
"Denguele","Lagunes","Evening",1398
"Denguele","Lagunes","Morning",28979
"Denguele","Lagunes","Night",23124
"Denguele","Marahoue","Afternoon",2431
"Denguele","Marahoue","Evening",100
"Denguele","Marahoue","Morning",2961
"Denguele","Marahoue","Night",2158
"Denguele","Moyen-Cavally","Afternoon",5036
"Denguele","Moyen-Cavally","Evening",143
"Denguele","Moyen-Cavally","Morning",5108
"Denguele","Moyen-Cavally","Night",4051
"Denguele","Moyen-Comoe","Afternoon",554
"Denguele","Moyen-Comoe","Evening",15
"Denguele","Moyen-Comoe","Morning",517
"Denguele","Moyen-Comoe","Night",442
"Denguele","NA","Afternoon",69
"Denguele","NA","Evening",10
"Denguele","NA","Morning",61
"Denguele","NA","Night",51
"Denguele","Nzi-Comoe","Afternoon",873
"Denguele","Nzi-Comoe","Evening",35
"Denguele","Nzi-Comoe","Morning",740
"Denguele","Nzi-Comoe","Night",602
"Denguele","Savanes","Afternoon",4442
"Denguele","Savanes","Evening",155
"Denguele","Savanes","Morning",4388
"Denguele","Savanes","Night",3823
"Denguele","Sud-Bandama","Afternoon",3807
"Denguele","Sud-Bandama","Evening",177
"Denguele","Sud-Bandama","Morning",4469
"Denguele","Sud-Bandama","Night",3800
"Denguele","Sud-Comoe","Afternoon",1684
"Denguele","Sud-Comoe","Evening",117
"Denguele","Sud-Comoe","Morning",1668
"Denguele","Sud-Comoe","Night",1239
"Denguele","Vallee du Bandama","Afternoon",2516
"Denguele","Vallee du Bandama","Evening",126
"Denguele","Vallee du Bandama","Morning",2433
"Denguele","Vallee du Bandama","Night",1839
"Denguele","Worodougou","Afternoon",4232
"Denguele","Worodougou","Evening",121
"Denguele","Worodougou","Morning",4829
"Denguele","Worodougou","Night",4199
"Denguele","Zanzan","Afternoon",531
"Denguele","Zanzan","Evening",22
"Denguele","Zanzan","Morning",474
"Denguele","Zanzan","Night",359
"Dix-Huit Montagnes","Agneby","Afternoon",5013
"Dix-Huit Montagnes","Agneby","Evening",287
"Dix-Huit Montagnes","Agneby","Morning",5211
"Dix-Huit Montagnes","Agneby","Night",3806
"Dix-Huit Montagnes","Bafing","Afternoon",33500
"Dix-Huit Montagnes","Bafing","Evening",2224
"Dix-Huit Montagnes","Bafing","Morning",37724
"Dix-Huit Montagnes","Bafing","Night",31034
"Dix-Huit Montagnes","Bas-Sassandra","Afternoon",177416
"Dix-Huit Montagnes","Bas-Sassandra","Evening",7316
"Dix-Huit Montagnes","Bas-Sassandra","Morning",204369
"Dix-Huit Montagnes","Bas-Sassandra","Night",166981
"Dix-Huit Montagnes","Denguele","Afternoon",10101
"Dix-Huit Montagnes","Denguele","Evening",500
"Dix-Huit Montagnes","Denguele","Morning",10994
"Dix-Huit Montagnes","Denguele","Night",9684
"Dix-Huit Montagnes","Dix-Huit Montagnes","Afternoon",259096
"Dix-Huit Montagnes","Dix-Huit Montagnes","Evening",38285
"Dix-Huit Montagnes","Dix-Huit Montagnes","Morning",269731
"Dix-Huit Montagnes","Dix-Huit Montagnes","Night",233136
"Dix-Huit Montagnes","Fromager","Afternoon",33896
"Dix-Huit Montagnes","Fromager","Evening",1404
"Dix-Huit Montagnes","Fromager","Morning",34420
"Dix-Huit Montagnes","Fromager","Night",27034
"Dix-Huit Montagnes","Haut-Sassandra","Afternoon",125571
"Dix-Huit Montagnes","Haut-Sassandra","Evening",5345
"Dix-Huit Montagnes","Haut-Sassandra","Morning",130430
"Dix-Huit Montagnes","Haut-Sassandra","Night",104714
"Dix-Huit Montagnes","Lacs","Afternoon",12227
"Dix-Huit Montagnes","Lacs","Evening",681
"Dix-Huit Montagnes","Lacs","Morning",11972
"Dix-Huit Montagnes","Lacs","Night",8993
"Dix-Huit Montagnes","Lagunes","Afternoon",187390
"Dix-Huit Montagnes","Lagunes","Evening",11954
"Dix-Huit Montagnes","Lagunes","Morning",195592
"Dix-Huit Montagnes","Lagunes","Night",148816
"Dix-Huit Montagnes","Marahoue","Afternoon",21082
"Dix-Huit Montagnes","Marahoue","Evening",817
"Dix-Huit Montagnes","Marahoue","Morning",22788
"Dix-Huit Montagnes","Marahoue","Night",18445
"Dix-Huit Montagnes","Moyen-Cavally","Afternoon",98761
"Dix-Huit Montagnes","Moyen-Cavally","Evening",5017
"Dix-Huit Montagnes","Moyen-Cavally","Morning",105951
"Dix-Huit Montagnes","Moyen-Cavally","Night",87431
"Dix-Huit Montagnes","Moyen-Comoe","Afternoon",3592
"Dix-Huit Montagnes","Moyen-Comoe","Evening",206
"Dix-Huit Montagnes","Moyen-Comoe","Morning",3542
"Dix-Huit Montagnes","Moyen-Comoe","Night",2618
"Dix-Huit Montagnes","NA","Afternoon",438
"Dix-Huit Montagnes","NA","Evening",22
"Dix-Huit Montagnes","NA","Morning",478
"Dix-Huit Montagnes","NA","Night",323
"Dix-Huit Montagnes","Nzi-Comoe","Afternoon",6943
"Dix-Huit Montagnes","Nzi-Comoe","Evening",480
"Dix-Huit Montagnes","Nzi-Comoe","Morning",7362
"Dix-Huit Montagnes","Nzi-Comoe","Night",5278
"Dix-Huit Montagnes","Savanes","Afternoon",7697
"Dix-Huit Montagnes","Savanes","Evening",360
"Dix-Huit Montagnes","Savanes","Morning",7905
"Dix-Huit Montagnes","Savanes","Night",6668
"Dix-Huit Montagnes","Sud-Bandama","Afternoon",31068
"Dix-Huit Montagnes","Sud-Bandama","Evening",1114
"Dix-Huit Montagnes","Sud-Bandama","Morning",31959
"Dix-Huit Montagnes","Sud-Bandama","Night",26254
"Dix-Huit Montagnes","Sud-Comoe","Afternoon",10063
"Dix-Huit Montagnes","Sud-Comoe","Evening",666
"Dix-Huit Montagnes","Sud-Comoe","Morning",10865
"Dix-Huit Montagnes","Sud-Comoe","Night",7585
"Dix-Huit Montagnes","Vallee du Bandama","Afternoon",13318
"Dix-Huit Montagnes","Vallee du Bandama","Evening",844
"Dix-Huit Montagnes","Vallee du Bandama","Morning",13667
"Dix-Huit Montagnes","Vallee du Bandama","Night",10671
"Dix-Huit Montagnes","Worodougou","Afternoon",17277
"Dix-Huit Montagnes","Worodougou","Evening",575
"Dix-Huit Montagnes","Worodougou","Morning",19459
"Dix-Huit Montagnes","Worodougou","Night",16474
"Dix-Huit Montagnes","Zanzan","Afternoon",3347
"Dix-Huit Montagnes","Zanzan","Evening",116
"Dix-Huit Montagnes","Zanzan","Morning",3271
"Dix-Huit Montagnes","Zanzan","Night",2593
"Fromager","Agneby","Afternoon",24499
"Fromager","Agneby","Evening",1047
"Fromager","Agneby","Morning",24700
"Fromager","Agneby","Night",19705
"Fromager","Bafing","Afternoon",7078
"Fromager","Bafing","Evening",306
"Fromager","Bafing","Morning",7803
"Fromager","Bafing","Night",5463
"Fromager","Bas-Sassandra","Afternoon",284138
"Fromager","Bas-Sassandra","Evening",11730
"Fromager","Bas-Sassandra","Morning",298029
"Fromager","Bas-Sassandra","Night",221235
"Fromager","Denguele","Afternoon",5048
"Fromager","Denguele","Evening",302
"Fromager","Denguele","Morning",5957
"Fromager","Denguele","Night",4252
"Fromager","Dix-Huit Montagnes","Afternoon",35270
"Fromager","Dix-Huit Montagnes","Evening",1386
"Fromager","Dix-Huit Montagnes","Morning",37518
"Fromager","Dix-Huit Montagnes","Night",26901
"Fromager","Fromager","Afternoon",412638
"Fromager","Fromager","Evening",50696
"Fromager","Fromager","Morning",423127
"Fromager","Fromager","Night",347705
"Fromager","Haut-Sassandra","Afternoon",126764
"Fromager","Haut-Sassandra","Evening",5633
"Fromager","Haut-Sassandra","Morning",131130
"Fromager","Haut-Sassandra","Night",98915
"Fromager","Lacs","Afternoon",143216
"Fromager","Lacs","Evening",6469
"Fromager","Lacs","Morning",142426
"Fromager","Lacs","Night",119762
"Fromager","Lagunes","Afternoon",578594
"Fromager","Lagunes","Evening",24929
"Fromager","Lagunes","Morning",565472
"Fromager","Lagunes","Night",428031
"Fromager","Marahoue","Afternoon",76187
"Fromager","Marahoue","Evening",3519
"Fromager","Marahoue","Morning",80485
"Fromager","Marahoue","Night",63741
"Fromager","Moyen-Cavally","Afternoon",31592
"Fromager","Moyen-Cavally","Evening",1006
"Fromager","Moyen-Cavally","Morning",32984
"Fromager","Moyen-Cavally","Night",25262
"Fromager","Moyen-Comoe","Afternoon",15788
"Fromager","Moyen-Comoe","Evening",641
"Fromager","Moyen-Comoe","Morning",15727
"Fromager","Moyen-Comoe","Night",12605
"Fromager","NA","Afternoon",1954
"Fromager","NA","Evening",82
"Fromager","NA","Morning",2000
"Fromager","NA","Night",1609
"Fromager","Nzi-Comoe","Afternoon",42305
"Fromager","Nzi-Comoe","Evening",1821
"Fromager","Nzi-Comoe","Morning",45098
"Fromager","Nzi-Comoe","Night",34698
"Fromager","Savanes","Afternoon",22131
"Fromager","Savanes","Evening",696
"Fromager","Savanes","Morning",24647
"Fromager","Savanes","Night",21400
"Fromager","Sud-Bandama","Afternoon",125340
"Fromager","Sud-Bandama","Evening",6021
"Fromager","Sud-Bandama","Morning",130609
"Fromager","Sud-Bandama","Night",105525
"Fromager","Sud-Comoe","Afternoon",30169
"Fromager","Sud-Comoe","Evening",1574
"Fromager","Sud-Comoe","Morning",30768
"Fromager","Sud-Comoe","Night",23189
"Fromager","Vallee du Bandama","Afternoon",89649
"Fromager","Vallee du Bandama","Evening",3824
"Fromager","Vallee du Bandama","Morning",98342
"Fromager","Vallee du Bandama","Night",79444
"Fromager","Worodougou","Afternoon",17662
"Fromager","Worodougou","Evening",822
"Fromager","Worodougou","Morning",21162
"Fromager","Worodougou","Night",15883
"Fromager","Zanzan","Afternoon",12465
"Fromager","Zanzan","Evening",437
"Fromager","Zanzan","Morning",12736
"Fromager","Zanzan","Night",9625
"Haut-Sassandra","Agneby","Afternoon",10103
"Haut-Sassandra","Agneby","Evening",504
"Haut-Sassandra","Agneby","Morning",9091
"Haut-Sassandra","Agneby","Night",6699
"Haut-Sassandra","Bafing","Afternoon",21496
"Haut-Sassandra","Bafing","Evening",1066
"Haut-Sassandra","Bafing","Morning",23585
"Haut-Sassandra","Bafing","Night",17667
"Haut-Sassandra","Bas-Sassandra","Afternoon",390881
"Haut-Sassandra","Bas-Sassandra","Evening",15592
"Haut-Sassandra","Bas-Sassandra","Morning",411684
"Haut-Sassandra","Bas-Sassandra","Night",322060
"Haut-Sassandra","Denguele","Afternoon",13478
"Haut-Sassandra","Denguele","Evening",652
"Haut-Sassandra","Denguele","Morning",16437
"Haut-Sassandra","Denguele","Night",12681
"Haut-Sassandra","Dix-Huit Montagnes","Afternoon",120590
"Haut-Sassandra","Dix-Huit Montagnes","Evening",5739
"Haut-Sassandra","Dix-Huit Montagnes","Morning",126448
"Haut-Sassandra","Dix-Huit Montagnes","Night",98221
"Haut-Sassandra","Fromager","Afternoon",117012
"Haut-Sassandra","Fromager","Evening",5049
"Haut-Sassandra","Fromager","Morning",119900
"Haut-Sassandra","Fromager","Night",91576
"Haut-Sassandra","Haut-Sassandra","Afternoon",752469
"Haut-Sassandra","Haut-Sassandra","Evening",75384
"Haut-Sassandra","Haut-Sassandra","Morning",771516
"Haut-Sassandra","Haut-Sassandra","Night",624423
"Haut-Sassandra","Lacs","Afternoon",39001
"Haut-Sassandra","Lacs","Evening",2242
"Haut-Sassandra","Lacs","Morning",35334
"Haut-Sassandra","Lacs","Night",26385
"Haut-Sassandra","Lagunes","Afternoon",341824
"Haut-Sassandra","Lagunes","Evening",18170
"Haut-Sassandra","Lagunes","Morning",328296
"Haut-Sassandra","Lagunes","Night",248659
"Haut-Sassandra","Marahoue","Afternoon",124512
"Haut-Sassandra","Marahoue","Evening",5571
"Haut-Sassandra","Marahoue","Morning",128841
"Haut-Sassandra","Marahoue","Night",100625
"Haut-Sassandra","Moyen-Cavally","Afternoon",122080
"Haut-Sassandra","Moyen-Cavally","Evening",4791
"Haut-Sassandra","Moyen-Cavally","Morning",127542
"Haut-Sassandra","Moyen-Cavally","Night",101928
"Haut-Sassandra","Moyen-Comoe","Afternoon",7944
"Haut-Sassandra","Moyen-Comoe","Evening",498
"Haut-Sassandra","Moyen-Comoe","Morning",7731
"Haut-Sassandra","Moyen-Comoe","Night",5901
"Haut-Sassandra","NA","Afternoon",829
"Haut-Sassandra","NA","Evening",74
"Haut-Sassandra","NA","Morning",850
"Haut-Sassandra","NA","Night",721
"Haut-Sassandra","Nzi-Comoe","Afternoon",16398
"Haut-Sassandra","Nzi-Comoe","Evening",1054
"Haut-Sassandra","Nzi-Comoe","Morning",16207
"Haut-Sassandra","Nzi-Comoe","Night",11278
"Haut-Sassandra","Savanes","Afternoon",14645
"Haut-Sassandra","Savanes","Evening",635
"Haut-Sassandra","Savanes","Morning",15078
"Haut-Sassandra","Savanes","Night",13162
"Haut-Sassandra","Sud-Bandama","Afternoon",59688
"Haut-Sassandra","Sud-Bandama","Evening",2505
"Haut-Sassandra","Sud-Bandama","Morning",61687
"Haut-Sassandra","Sud-Bandama","Night",47975
"Haut-Sassandra","Sud-Comoe","Afternoon",18938
"Haut-Sassandra","Sud-Comoe","Evening",1281
"Haut-Sassandra","Sud-Comoe","Morning",18526
"Haut-Sassandra","Sud-Comoe","Night",13287
"Haut-Sassandra","Vallee du Bandama","Afternoon",36991
"Haut-Sassandra","Vallee du Bandama","Evening",2296
"Haut-Sassandra","Vallee du Bandama","Morning",38974
"Haut-Sassandra","Vallee du Bandama","Night",29096
"Haut-Sassandra","Worodougou","Afternoon",64259
"Haut-Sassandra","Worodougou","Evening",2565
"Haut-Sassandra","Worodougou","Morning",70543
"Haut-Sassandra","Worodougou","Night",56261
"Haut-Sassandra","Zanzan","Afternoon",5606
"Haut-Sassandra","Zanzan","Evening",273
"Haut-Sassandra","Zanzan","Morning",5167
"Haut-Sassandra","Zanzan","Night",4102
"Lacs","Agneby","Afternoon",56461
"Lacs","Agneby","Evening",2387
"Lacs","Agneby","Morning",49122
"Lacs","Agneby","Night",40623
"Lacs","Bafing","Afternoon",2832
"Lacs","Bafing","Evening",128
"Lacs","Bafing","Morning",2476
"Lacs","Bafing","Night",1899
"Lacs","Bas-Sassandra","Afternoon",89400
"Lacs","Bas-Sassandra","Evening",3958
"Lacs","Bas-Sassandra","Morning",85465
"Lacs","Bas-Sassandra","Night",63377
"Lacs","Denguele","Afternoon",2276
"Lacs","Denguele","Evening",116
"Lacs","Denguele","Morning",2190
"Lacs","Denguele","Night",1688
"Lacs","Dix-Huit Montagnes","Afternoon",18169
"Lacs","Dix-Huit Montagnes","Evening",1012
"Lacs","Dix-Huit Montagnes","Morning",16383
"Lacs","Dix-Huit Montagnes","Night",12442
"Lacs","Fromager","Afternoon",138262
"Lacs","Fromager","Evening",5614
"Lacs","Fromager","Morning",133410
"Lacs","Fromager","Night",109583
"Lacs","Haut-Sassandra","Afternoon",55745
"Lacs","Haut-Sassandra","Evening",2562
"Lacs","Haut-Sassandra","Morning",49319
"Lacs","Haut-Sassandra","Night",36891
"Lacs","Lacs","Afternoon",904312
"Lacs","Lacs","Evening",107126
"Lacs","Lacs","Morning",854004
"Lacs","Lacs","Night",771668
"Lacs","Lagunes","Afternoon",1196931
"Lacs","Lagunes","Evening",50672
"Lacs","Lagunes","Morning",1024059
"Lacs","Lagunes","Night",860591
"Lacs","Marahoue","Afternoon",151986
"Lacs","Marahoue","Evening",6879
"Lacs","Marahoue","Morning",141207
"Lacs","Marahoue","Night",118035
"Lacs","Moyen-Cavally","Afternoon",15872
"Lacs","Moyen-Cavally","Evening",644
"Lacs","Moyen-Cavally","Morning",14998
"Lacs","Moyen-Cavally","Night",11935
"Lacs","Moyen-Comoe","Afternoon",43079
"Lacs","Moyen-Comoe","Evening",1947
"Lacs","Moyen-Comoe","Morning",37601
"Lacs","Moyen-Comoe","Night",31936
"Lacs","NA","Afternoon",4102
"Lacs","NA","Evening",178
"Lacs","NA","Morning",3878
"Lacs","NA","Night",3106
"Lacs","Nzi-Comoe","Afternoon",136342
"Lacs","Nzi-Comoe","Evening",6466
"Lacs","Nzi-Comoe","Morning",125170
"Lacs","Nzi-Comoe","Night",103947
"Lacs","Savanes","Afternoon",54838
"Lacs","Savanes","Evening",1994
"Lacs","Savanes","Morning",47983
"Lacs","Savanes","Night",43188
"Lacs","Sud-Bandama","Afternoon",58235
"Lacs","Sud-Bandama","Evening",2100
"Lacs","Sud-Bandama","Morning",58043
"Lacs","Sud-Bandama","Night",48413
"Lacs","Sud-Comoe","Afternoon",54954
"Lacs","Sud-Comoe","Evening",2535
"Lacs","Sud-Comoe","Morning",47342
"Lacs","Sud-Comoe","Night",42063
"Lacs","Vallee du Bandama","Afternoon",287329
"Lacs","Vallee du Bandama","Evening",11722
"Lacs","Vallee du Bandama","Morning",256237
"Lacs","Vallee du Bandama","Night",219243
"Lacs","Worodougou","Afternoon",10859
"Lacs","Worodougou","Evening",465
"Lacs","Worodougou","Morning",10946
"Lacs","Worodougou","Night",7981
"Lacs","Zanzan","Afternoon",27586
"Lacs","Zanzan","Evening",981
"Lacs","Zanzan","Morning",24539
"Lacs","Zanzan","Night",21211
"Lagunes","Agneby","Afternoon",854411
"Lagunes","Agneby","Evening",29716
"Lagunes","Agneby","Morning",761354
"Lagunes","Agneby","Night",591884
"Lagunes","Bafing","Afternoon",47759
"Lagunes","Bafing","Evening",2203
"Lagunes","Bafing","Morning",49786
"Lagunes","Bafing","Night",34782
"Lagunes","Bas-Sassandra","Afternoon",655841
"Lagunes","Bas-Sassandra","Evening",27164
"Lagunes","Bas-Sassandra","Morning",600061
"Lagunes","Bas-Sassandra","Night",444462
"Lagunes","Denguele","Afternoon",40024
"Lagunes","Denguele","Evening",1514
"Lagunes","Denguele","Morning",40881
"Lagunes","Denguele","Night",30689
"Lagunes","Dix-Huit Montagnes","Afternoon",239345
"Lagunes","Dix-Huit Montagnes","Evening",12041
"Lagunes","Dix-Huit Montagnes","Morning",238653
"Lagunes","Dix-Huit Montagnes","Night",168257
"Lagunes","Fromager","Afternoon",593503
"Lagunes","Fromager","Evening",23243
"Lagunes","Fromager","Morning",550780
"Lagunes","Fromager","Night",405343
"Lagunes","Haut-Sassandra","Afternoon",402293
"Lagunes","Haut-Sassandra","Evening",17201
"Lagunes","Haut-Sassandra","Morning",363271
"Lagunes","Haut-Sassandra","Night",266429
"Lagunes","Lacs","Afternoon",1253670
"Lagunes","Lacs","Evening",52297
"Lagunes","Lacs","Morning",1053410
"Lagunes","Lacs","Night",854469
"Lagunes","Lagunes","Afternoon",21550401
"Lagunes","Lagunes","Evening",1269008
"Lagunes","Lagunes","Morning",18764893
"Lagunes","Lagunes","Night",14725690
"Lagunes","Marahoue","Afternoon",474783
"Lagunes","Marahoue","Evening",18638
"Lagunes","Marahoue","Morning",432862
"Lagunes","Marahoue","Night",322295
"Lagunes","Moyen-Cavally","Afternoon",136624
"Lagunes","Moyen-Cavally","Evening",6376
"Lagunes","Moyen-Cavally","Morning",129070
"Lagunes","Moyen-Cavally","Night",97261
"Lagunes","Moyen-Comoe","Afternoon",601997
"Lagunes","Moyen-Comoe","Evening",21336
"Lagunes","Moyen-Comoe","Morning",532979
"Lagunes","Moyen-Comoe","Night",419619
"Lagunes","NA","Afternoon",64028
"Lagunes","NA","Evening",2381
"Lagunes","NA","Morning",58606
"Lagunes","NA","Night",45455
"Lagunes","Nzi-Comoe","Afternoon",978789
"Lagunes","Nzi-Comoe","Evening",40061
"Lagunes","Nzi-Comoe","Morning",914688
"Lagunes","Nzi-Comoe","Night",680939
"Lagunes","Savanes","Afternoon",444651
"Lagunes","Savanes","Evening",16091
"Lagunes","Savanes","Morning",415316
"Lagunes","Savanes","Night",348853
"Lagunes","Sud-Bandama","Afternoon",535448
"Lagunes","Sud-Bandama","Evening",19756
"Lagunes","Sud-Bandama","Morning",501380
"Lagunes","Sud-Bandama","Night",389989
"Lagunes","Sud-Comoe","Afternoon",1008078
"Lagunes","Sud-Comoe","Evening",38539
"Lagunes","Sud-Comoe","Morning",896622
"Lagunes","Sud-Comoe","Night",702994
"Lagunes","Vallee du Bandama","Afternoon",1139619
"Lagunes","Vallee du Bandama","Evening",44498
"Lagunes","Vallee du Bandama","Morning",1016617
"Lagunes","Vallee du Bandama","Night",821106
"Lagunes","Worodougou","Afternoon",125013
"Lagunes","Worodougou","Evening",4294
"Lagunes","Worodougou","Morning",134112
"Lagunes","Worodougou","Night",87401
"Lagunes","Zanzan","Afternoon",433531
"Lagunes","Zanzan","Evening",15155
"Lagunes","Zanzan","Morning",403427
"Lagunes","Zanzan","Night",316145
"Marahoue","Agneby","Afternoon",17906
"Marahoue","Agneby","Evening",700
"Marahoue","Agneby","Morning",17288
"Marahoue","Agneby","Night",13602
"Marahoue","Bafing","Afternoon",4128
"Marahoue","Bafing","Evening",214
"Marahoue","Bafing","Morning",4459
"Marahoue","Bafing","Night",3512
"Marahoue","Bas-Sassandra","Afternoon",88718
"Marahoue","Bas-Sassandra","Evening",3499
"Marahoue","Bas-Sassandra","Morning",99118
"Marahoue","Bas-Sassandra","Night",77820
"Marahoue","Denguele","Afternoon",2694
"Marahoue","Denguele","Evening",125
"Marahoue","Denguele","Morning",3406
"Marahoue","Denguele","Night",2705
"Marahoue","Dix-Huit Montagnes","Afternoon",22931
"Marahoue","Dix-Huit Montagnes","Evening",947
"Marahoue","Dix-Huit Montagnes","Morning",24342
"Marahoue","Dix-Huit Montagnes","Night",19385
"Marahoue","Fromager","Afternoon",74236
"Marahoue","Fromager","Evening",3398
"Marahoue","Fromager","Morning",78301
"Marahoue","Fromager","Night",63586
"Marahoue","Haut-Sassandra","Afternoon",137544
"Marahoue","Haut-Sassandra","Evening",6205
"Marahoue","Haut-Sassandra","Morning",143442
"Marahoue","Haut-Sassandra","Night",114031
"Marahoue","Lacs","Afternoon",150677
"Marahoue","Lacs","Evening",6694
"Marahoue","Lacs","Morning",141481
"Marahoue","Lacs","Night",119982
"Marahoue","Lagunes","Afternoon",439141
"Marahoue","Lagunes","Evening",17862
"Marahoue","Lagunes","Morning",412671
"Marahoue","Lagunes","Night",319009
"Marahoue","Marahoue","Afternoon",216703
"Marahoue","Marahoue","Evening",32607
"Marahoue","Marahoue","Morning",217823
"Marahoue","Marahoue","Night",188902
"Marahoue","Moyen-Cavally","Afternoon",23263
"Marahoue","Moyen-Cavally","Evening",804
"Marahoue","Moyen-Cavally","Morning",25361
"Marahoue","Moyen-Cavally","Night",21267
"Marahoue","Moyen-Comoe","Afternoon",13832
"Marahoue","Moyen-Comoe","Evening",543
"Marahoue","Moyen-Comoe","Morning",13460
"Marahoue","Moyen-Comoe","Night",10746
"Marahoue","NA","Afternoon",1521
"Marahoue","NA","Evening",49
"Marahoue","NA","Morning",1508
"Marahoue","NA","Night",1320
"Marahoue","Nzi-Comoe","Afternoon",33504
"Marahoue","Nzi-Comoe","Evening",1525
"Marahoue","Nzi-Comoe","Morning",33927
"Marahoue","Nzi-Comoe","Night",27611
"Marahoue","Savanes","Afternoon",22628
"Marahoue","Savanes","Evening",752
"Marahoue","Savanes","Morning",24223
"Marahoue","Savanes","Night",21168
"Marahoue","Sud-Bandama","Afternoon",30443
"Marahoue","Sud-Bandama","Evening",1158
"Marahoue","Sud-Bandama","Morning",32918
"Marahoue","Sud-Bandama","Night",27475
"Marahoue","Sud-Comoe","Afternoon",20457
"Marahoue","Sud-Comoe","Evening",1109
"Marahoue","Sud-Comoe","Morning",19740
"Marahoue","Sud-Comoe","Night",16411
"Marahoue","Vallee du Bandama","Afternoon",97719
"Marahoue","Vallee du Bandama","Evening",4389
"Marahoue","Vallee du Bandama","Morning",99354
"Marahoue","Vallee du Bandama","Night",82535
"Marahoue","Worodougou","Afternoon",20039
"Marahoue","Worodougou","Evening",695
"Marahoue","Worodougou","Morning",22734
"Marahoue","Worodougou","Night",18299
"Marahoue","Zanzan","Afternoon",9711
"Marahoue","Zanzan","Evening",341
"Marahoue","Zanzan","Morning",9293
"Marahoue","Zanzan","Night",7536
"Moyen-Cavally","Agneby","Afternoon",4745
"Moyen-Cavally","Agneby","Evening",246
"Moyen-Cavally","Agneby","Morning",4613
"Moyen-Cavally","Agneby","Night",3706
"Moyen-Cavally","Bafing","Afternoon",12257
"Moyen-Cavally","Bafing","Evening",531
"Moyen-Cavally","Bafing","Morning",14009
"Moyen-Cavally","Bafing","Night",11303
"Moyen-Cavally","Bas-Sassandra","Afternoon",188584
"Moyen-Cavally","Bas-Sassandra","Evening",6238
"Moyen-Cavally","Bas-Sassandra","Morning",210283
"Moyen-Cavally","Bas-Sassandra","Night",176325
"Moyen-Cavally","Denguele","Afternoon",4949
"Moyen-Cavally","Denguele","Evening",133
"Moyen-Cavally","Denguele","Morning",5275
"Moyen-Cavally","Denguele","Night",4419
"Moyen-Cavally","Dix-Huit Montagnes","Afternoon",106115
"Moyen-Cavally","Dix-Huit Montagnes","Evening",6330
"Moyen-Cavally","Dix-Huit Montagnes","Morning",115393
"Moyen-Cavally","Dix-Huit Montagnes","Night",97179
"Moyen-Cavally","Fromager","Afternoon",35148
"Moyen-Cavally","Fromager","Evening",1124
"Moyen-Cavally","Fromager","Morning",34988
"Moyen-Cavally","Fromager","Night",29237
"Moyen-Cavally","Haut-Sassandra","Afternoon",140383
"Moyen-Cavally","Haut-Sassandra","Evening",5748
"Moyen-Cavally","Haut-Sassandra","Morning",148970
"Moyen-Cavally","Haut-Sassandra","Night",122629
"Moyen-Cavally","Lacs","Afternoon",13413
"Moyen-Cavally","Lacs","Evening",742
"Moyen-Cavally","Lacs","Morning",13417
"Moyen-Cavally","Lacs","Night",11165
"Moyen-Cavally","Lagunes","Afternoon",135090
"Moyen-Cavally","Lagunes","Evening",6988
"Moyen-Cavally","Lagunes","Morning",135308
"Moyen-Cavally","Lagunes","Night",108979
"Moyen-Cavally","Marahoue","Afternoon",24528
"Moyen-Cavally","Marahoue","Evening",837
"Moyen-Cavally","Marahoue","Morning",26653
"Moyen-Cavally","Marahoue","Night",21994
"Moyen-Cavally","Moyen-Cavally","Afternoon",181044
"Moyen-Cavally","Moyen-Cavally","Evening",22351
"Moyen-Cavally","Moyen-Cavally","Morning",184875
"Moyen-Cavally","Moyen-Cavally","Night",160924
"Moyen-Cavally","Moyen-Comoe","Afternoon",3791
"Moyen-Cavally","Moyen-Comoe","Evening",169
"Moyen-Cavally","Moyen-Comoe","Morning",3821
"Moyen-Cavally","Moyen-Comoe","Night",3143
"Moyen-Cavally","NA","Afternoon",424
"Moyen-Cavally","NA","Evening",20
"Moyen-Cavally","NA","Morning",435
"Moyen-Cavally","NA","Night",380
"Moyen-Cavally","Nzi-Comoe","Afternoon",8698
"Moyen-Cavally","Nzi-Comoe","Evening",581
"Moyen-Cavally","Nzi-Comoe","Morning",9921
"Moyen-Cavally","Nzi-Comoe","Night",7926
"Moyen-Cavally","Savanes","Afternoon",5075
"Moyen-Cavally","Savanes","Evening",192
"Moyen-Cavally","Savanes","Morning",5275
"Moyen-Cavally","Savanes","Night",4728
"Moyen-Cavally","Sud-Bandama","Afternoon",28081
"Moyen-Cavally","Sud-Bandama","Evening",975
"Moyen-Cavally","Sud-Bandama","Morning",28711
"Moyen-Cavally","Sud-Bandama","Night",25250
"Moyen-Cavally","Sud-Comoe","Afternoon",7677
"Moyen-Cavally","Sud-Comoe","Evening",529
"Moyen-Cavally","Sud-Comoe","Morning",8018
"Moyen-Cavally","Sud-Comoe","Night",6368
"Moyen-Cavally","Vallee du Bandama","Afternoon",13698
"Moyen-Cavally","Vallee du Bandama","Evening",897
"Moyen-Cavally","Vallee du Bandama","Morning",15809
"Moyen-Cavally","Vallee du Bandama","Night",13534
"Moyen-Cavally","Worodougou","Afternoon",9354
"Moyen-Cavally","Worodougou","Evening",351
"Moyen-Cavally","Worodougou","Morning",10853
"Moyen-Cavally","Worodougou","Night",9265
"Moyen-Cavally","Zanzan","Afternoon",2966
"Moyen-Cavally","Zanzan","Evening",126
"Moyen-Cavally","Zanzan","Morning",3066
"Moyen-Cavally","Zanzan","Night",2434
"Moyen-Comoe","Agneby","Afternoon",110128
"Moyen-Comoe","Agneby","Evening",4312
"Moyen-Comoe","Agneby","Morning",99800
"Moyen-Comoe","Agneby","Night",84509
"Moyen-Comoe","Bafing","Afternoon",937
"Moyen-Comoe","Bafing","Evening",32
"Moyen-Comoe","Bafing","Morning",910
"Moyen-Comoe","Bafing","Night",654
"Moyen-Comoe","Bas-Sassandra","Afternoon",28662
"Moyen-Comoe","Bas-Sassandra","Evening",1077
"Moyen-Comoe","Bas-Sassandra","Morning",27220
"Moyen-Comoe","Bas-Sassandra","Night",21750
"Moyen-Comoe","Denguele","Afternoon",915
"Moyen-Comoe","Denguele","Evening",17
"Moyen-Comoe","Denguele","Morning",766
"Moyen-Comoe","Denguele","Night",728
"Moyen-Comoe","Dix-Huit Montagnes","Afternoon",5397
"Moyen-Comoe","Dix-Huit Montagnes","Evening",280
"Moyen-Comoe","Dix-Huit Montagnes","Morning",5372
"Moyen-Comoe","Dix-Huit Montagnes","Night",4038
"Moyen-Comoe","Fromager","Afternoon",17642
"Moyen-Comoe","Fromager","Evening",768
"Moyen-Comoe","Fromager","Morning",16940
"Moyen-Comoe","Fromager","Night",13559
"Moyen-Comoe","Haut-Sassandra","Afternoon",13583
"Moyen-Comoe","Haut-Sassandra","Evening",511
"Moyen-Comoe","Haut-Sassandra","Morning",12016
"Moyen-Comoe","Haut-Sassandra","Night",9475
"Moyen-Comoe","Lacs","Afternoon",43435
"Moyen-Comoe","Lacs","Evening",1920
"Moyen-Comoe","Lacs","Morning",37909
"Moyen-Comoe","Lacs","Night",32310
"Moyen-Comoe","Lagunes","Afternoon",570059
"Moyen-Comoe","Lagunes","Evening",21244
"Moyen-Comoe","Lagunes","Morning",513733
"Moyen-Comoe","Lagunes","Night",429096
"Moyen-Comoe","Marahoue","Afternoon",15024
"Moyen-Comoe","Marahoue","Evening",614
"Moyen-Comoe","Marahoue","Morning",14025
"Moyen-Comoe","Marahoue","Night",11626
"Moyen-Comoe","Moyen-Cavally","Afternoon",4968
"Moyen-Comoe","Moyen-Cavally","Evening",170
"Moyen-Comoe","Moyen-Cavally","Morning",5106
"Moyen-Comoe","Moyen-Cavally","Night",3928
"Moyen-Comoe","Moyen-Comoe","Afternoon",397419
"Moyen-Comoe","Moyen-Comoe","Evening",49634
"Moyen-Comoe","Moyen-Comoe","Morning",382230
"Moyen-Comoe","Moyen-Comoe","Night",342213
"Moyen-Comoe","NA","Afternoon",31454
"Moyen-Comoe","NA","Evening",1893
"Moyen-Comoe","NA","Morning",30201
"Moyen-Comoe","NA","Night",25974
"Moyen-Comoe","Nzi-Comoe","Afternoon",97303
"Moyen-Comoe","Nzi-Comoe","Evening",3813
"Moyen-Comoe","Nzi-Comoe","Morning",96210
"Moyen-Comoe","Nzi-Comoe","Night",81209
"Moyen-Comoe","Savanes","Afternoon",15107
"Moyen-Comoe","Savanes","Evening",550
"Moyen-Comoe","Savanes","Morning",14130
"Moyen-Comoe","Savanes","Night",12769
"Moyen-Comoe","Sud-Bandama","Afternoon",16594
"Moyen-Comoe","Sud-Bandama","Evening",629
"Moyen-Comoe","Sud-Bandama","Morning",16916
"Moyen-Comoe","Sud-Bandama","Night",14767
"Moyen-Comoe","Sud-Comoe","Afternoon",65743
"Moyen-Comoe","Sud-Comoe","Evening",2675
"Moyen-Comoe","Sud-Comoe","Morning",63303
"Moyen-Comoe","Sud-Comoe","Night",54786
"Moyen-Comoe","Vallee du Bandama","Afternoon",46636
"Moyen-Comoe","Vallee du Bandama","Evening",1679
"Moyen-Comoe","Vallee du Bandama","Morning",45067
"Moyen-Comoe","Vallee du Bandama","Night",37697
"Moyen-Comoe","Worodougou","Afternoon",2066
"Moyen-Comoe","Worodougou","Evening",82
"Moyen-Comoe","Worodougou","Morning",2237
"Moyen-Comoe","Worodougou","Night",1943
"Moyen-Comoe","Zanzan","Afternoon",119413
"Moyen-Comoe","Zanzan","Evening",5126
"Moyen-Comoe","Zanzan","Morning",115826
"Moyen-Comoe","Zanzan","Night",101706
"NA","Agneby","Afternoon",8302
"NA","Agneby","Evening",288
"NA","Agneby","Morning",7686
"NA","Agneby","Night",7028
"NA","Bafing","Afternoon",97
"NA","Bafing","Evening",2
"NA","Bafing","Morning",96
"NA","Bafing","Night",101
"NA","Bas-Sassandra","Afternoon",3141
"NA","Bas-Sassandra","Evening",126
"NA","Bas-Sassandra","Morning",3126
"NA","Bas-Sassandra","Night",2679
"NA","Denguele","Afternoon",81
"NA","Denguele","Evening",6
"NA","Denguele","Morning",75
"NA","Denguele","Night",65
"NA","Dix-Huit Montagnes","Afternoon",605
"NA","Dix-Huit Montagnes","Evening",18
"NA","Dix-Huit Montagnes","Morning",577
"NA","Dix-Huit Montagnes","Night",503
"NA","Fromager","Afternoon",2288
"NA","Fromager","Evening",60
"NA","Fromager","Morning",2101
"NA","Fromager","Night",1809
"NA","Haut-Sassandra","Afternoon",1285
"NA","Haut-Sassandra","Evening",46
"NA","Haut-Sassandra","Morning",1272
"NA","Haut-Sassandra","Night",1072
"NA","Lacs","Afternoon",4388
"NA","Lacs","Evening",201
"NA","Lacs","Morning",4125
"NA","Lacs","Night",3565
"NA","Lagunes","Afternoon",64971
"NA","Lagunes","Evening",2671
"NA","Lagunes","Morning",60146
"NA","Lagunes","Night",51294
"NA","Marahoue","Afternoon",1785
"NA","Marahoue","Evening",53
"NA","Marahoue","Morning",1748
"NA","Marahoue","Night",1442
"NA","Moyen-Cavally","Afternoon",453
"NA","Moyen-Cavally","Evening",30
"NA","Moyen-Cavally","Morning",492
"NA","Moyen-Cavally","Night",437
"NA","Moyen-Comoe","Afternoon",33211
"NA","Moyen-Comoe","Evening",2249
"NA","Moyen-Comoe","Morning",31707
"NA","Moyen-Comoe","Night",28199
"NA","NA","Afternoon",7204
"NA","NA","Evening",3091
"NA","NA","Morning",7008
"NA","NA","Night",6476
"NA","Nzi-Comoe","Afternoon",6322
"NA","Nzi-Comoe","Evening",277
"NA","Nzi-Comoe","Morning",6696
"NA","Nzi-Comoe","Night",5810
"NA","Savanes","Afternoon",8666
"NA","Savanes","Evening",401
"NA","Savanes","Morning",8147
"NA","Savanes","Night",7295
"NA","Sud-Bandama","Afternoon",2224
"NA","Sud-Bandama","Evening",78
"NA","Sud-Bandama","Morning",2205
"NA","Sud-Bandama","Night",1940
"NA","Sud-Comoe","Afternoon",25465
"NA","Sud-Comoe","Evening",2023
"NA","Sud-Comoe","Morning",26741
"NA","Sud-Comoe","Night",21630
"NA","Vallee du Bandama","Afternoon",5353
"NA","Vallee du Bandama","Evening",196
"NA","Vallee du Bandama","Morning",5372
"NA","Vallee du Bandama","Night",4628
"NA","Worodougou","Afternoon",527
"NA","Worodougou","Evening",19
"NA","Worodougou","Morning",563
"NA","Worodougou","Night",404
"NA","Zanzan","Afternoon",5490
"NA","Zanzan","Evening",150
"NA","Zanzan","Morning",5589
"NA","Zanzan","Night",5437
"Nzi-Comoe","Agneby","Afternoon",102647
"Nzi-Comoe","Agneby","Evening",5013
"Nzi-Comoe","Agneby","Morning",99090
"Nzi-Comoe","Agneby","Night",79754
"Nzi-Comoe","Bafing","Afternoon",1484
"Nzi-Comoe","Bafing","Evening",58
"Nzi-Comoe","Bafing","Morning",1323
"Nzi-Comoe","Bafing","Night",812
"Nzi-Comoe","Bas-Sassandra","Afternoon",80136
"Nzi-Comoe","Bas-Sassandra","Evening",3198
"Nzi-Comoe","Bas-Sassandra","Morning",85501
"Nzi-Comoe","Bas-Sassandra","Night",56517
"Nzi-Comoe","Denguele","Afternoon",1115
"Nzi-Comoe","Denguele","Evening",67
"Nzi-Comoe","Denguele","Morning",1121
"Nzi-Comoe","Denguele","Night",857
"Nzi-Comoe","Dix-Huit Montagnes","Afternoon",9648
"Nzi-Comoe","Dix-Huit Montagnes","Evening",464
"Nzi-Comoe","Dix-Huit Montagnes","Morning",10019
"Nzi-Comoe","Dix-Huit Montagnes","Night",6655
"Nzi-Comoe","Fromager","Afternoon",40250
"Nzi-Comoe","Fromager","Evening",1705
"Nzi-Comoe","Fromager","Morning",40568
"Nzi-Comoe","Fromager","Night",32870
"Nzi-Comoe","Haut-Sassandra","Afternoon",23026
"Nzi-Comoe","Haut-Sassandra","Evening",944
"Nzi-Comoe","Haut-Sassandra","Morning",22097
"Nzi-Comoe","Haut-Sassandra","Night",15214
"Nzi-Comoe","Lacs","Afternoon",128145
"Nzi-Comoe","Lacs","Evening",5969
"Nzi-Comoe","Lacs","Morning",118753
"Nzi-Comoe","Lacs","Night",99162
"Nzi-Comoe","Lagunes","Afternoon",879541
"Nzi-Comoe","Lagunes","Evening",36415
"Nzi-Comoe","Lagunes","Morning",845891
"Nzi-Comoe","Lagunes","Night",652842
"Nzi-Comoe","Marahoue","Afternoon",34518
"Nzi-Comoe","Marahoue","Evening",1362
"Nzi-Comoe","Marahoue","Morning",33873
"Nzi-Comoe","Marahoue","Night",27642
"Nzi-Comoe","Moyen-Cavally","Afternoon",10680
"Nzi-Comoe","Moyen-Cavally","Evening",460
"Nzi-Comoe","Moyen-Cavally","Morning",11631
"Nzi-Comoe","Moyen-Cavally","Night",8540
"Nzi-Comoe","Moyen-Comoe","Afternoon",93861
"Nzi-Comoe","Moyen-Comoe","Evening",3809
"Nzi-Comoe","Moyen-Comoe","Morning",94971
"Nzi-Comoe","Moyen-Comoe","Night",76217
"Nzi-Comoe","NA","Afternoon",5950
"Nzi-Comoe","NA","Evening",283
"Nzi-Comoe","NA","Morning",6388
"Nzi-Comoe","NA","Night",5038
"Nzi-Comoe","Nzi-Comoe","Afternoon",429990
"Nzi-Comoe","Nzi-Comoe","Evening",53218
"Nzi-Comoe","Nzi-Comoe","Morning",432595
"Nzi-Comoe","Nzi-Comoe","Night",372899
"Nzi-Comoe","Savanes","Afternoon",21842
"Nzi-Comoe","Savanes","Evening",828
"Nzi-Comoe","Savanes","Morning",21294
"Nzi-Comoe","Savanes","Night",17228
"Nzi-Comoe","Sud-Bandama","Afternoon",32286
"Nzi-Comoe","Sud-Bandama","Evening",1143
"Nzi-Comoe","Sud-Bandama","Morning",34246
"Nzi-Comoe","Sud-Bandama","Night",27653
"Nzi-Comoe","Sud-Comoe","Afternoon",44320
"Nzi-Comoe","Sud-Comoe","Evening",1905
"Nzi-Comoe","Sud-Comoe","Morning",43365
"Nzi-Comoe","Sud-Comoe","Night",35970
"Nzi-Comoe","Vallee du Bandama","Afternoon",139239
"Nzi-Comoe","Vallee du Bandama","Evening",5541
"Nzi-Comoe","Vallee du Bandama","Morning",137378
"Nzi-Comoe","Vallee du Bandama","Night",109207
"Nzi-Comoe","Worodougou","Afternoon",4215
"Nzi-Comoe","Worodougou","Evening",175
"Nzi-Comoe","Worodougou","Morning",4078
"Nzi-Comoe","Worodougou","Night",3171
"Nzi-Comoe","Zanzan","Afternoon",35960
"Nzi-Comoe","Zanzan","Evening",1313
"Nzi-Comoe","Zanzan","Morning",36461
"Nzi-Comoe","Zanzan","Night",30795
"Savanes","Agneby","Afternoon",21898
"Savanes","Agneby","Evening",750
"Savanes","Agneby","Morning",20806
"Savanes","Agneby","Night",17706
"Savanes","Bafing","Afternoon",2565
"Savanes","Bafing","Evening",84
"Savanes","Bafing","Morning",2614
"Savanes","Bafing","Night",2182
"Savanes","Bas-Sassandra","Afternoon",23260
"Savanes","Bas-Sassandra","Evening",880
"Savanes","Bas-Sassandra","Morning",22615
"Savanes","Bas-Sassandra","Night",19587
"Savanes","Denguele","Afternoon",5168
"Savanes","Denguele","Evening",150
"Savanes","Denguele","Morning",5412
"Savanes","Denguele","Night",4886
"Savanes","Dix-Huit Montagnes","Afternoon",10452
"Savanes","Dix-Huit Montagnes","Evening",435
"Savanes","Dix-Huit Montagnes","Morning",10562
"Savanes","Dix-Huit Montagnes","Night",8647
"Savanes","Fromager","Afternoon",22410
"Savanes","Fromager","Evening",903
"Savanes","Fromager","Morning",23759
"Savanes","Fromager","Night",21153
"Savanes","Haut-Sassandra","Afternoon",18081
"Savanes","Haut-Sassandra","Evening",794
"Savanes","Haut-Sassandra","Morning",17793
"Savanes","Haut-Sassandra","Night",15656
"Savanes","Lacs","Afternoon",61681
"Savanes","Lacs","Evening",2268
"Savanes","Lacs","Morning",52656
"Savanes","Lacs","Night",46390
"Savanes","Lagunes","Afternoon",442851
"Savanes","Lagunes","Evening",16541
"Savanes","Lagunes","Morning",410930
"Savanes","Lagunes","Night",354615
"Savanes","Marahoue","Afternoon",23883
"Savanes","Marahoue","Evening",983
"Savanes","Marahoue","Morning",24190
"Savanes","Marahoue","Night",22054
"Savanes","Moyen-Cavally","Afternoon",5175
"Savanes","Moyen-Cavally","Evening",185
"Savanes","Moyen-Cavally","Morning",4976
"Savanes","Moyen-Cavally","Night",4730
"Savanes","Moyen-Comoe","Afternoon",16625
"Savanes","Moyen-Comoe","Evening",578
"Savanes","Moyen-Comoe","Morning",14956
"Savanes","Moyen-Comoe","Night",12574
"Savanes","NA","Afternoon",8057
"Savanes","NA","Evening",360
"Savanes","NA","Morning",7648
"Savanes","NA","Night",6993
"Savanes","Nzi-Comoe","Afternoon",25193
"Savanes","Nzi-Comoe","Evening",982
"Savanes","Nzi-Comoe","Morning",23373
"Savanes","Nzi-Comoe","Night",19699
"Savanes","Savanes","Afternoon",295867
"Savanes","Savanes","Evening",32140
"Savanes","Savanes","Morning",283400
"Savanes","Savanes","Night",264471
"Savanes","Sud-Bandama","Afternoon",16614
"Savanes","Sud-Bandama","Evening",563
"Savanes","Sud-Bandama","Morning",17378
"Savanes","Sud-Bandama","Night",15896
"Savanes","Sud-Comoe","Afternoon",18455
"Savanes","Sud-Comoe","Evening",790
"Savanes","Sud-Comoe","Morning",17498
"Savanes","Sud-Comoe","Night",16534
"Savanes","Vallee du Bandama","Afternoon",146075
"Savanes","Vallee du Bandama","Evening",5538
"Savanes","Vallee du Bandama","Morning",133250
"Savanes","Vallee du Bandama","Night",123062
"Savanes","Worodougou","Afternoon",22805
"Savanes","Worodougou","Evening",764
"Savanes","Worodougou","Morning",23589
"Savanes","Worodougou","Night",23828
"Savanes","Zanzan","Afternoon",13550
"Savanes","Zanzan","Evening",431
"Savanes","Zanzan","Morning",12412
"Savanes","Zanzan","Night",11034
"Sud-Bandama","Agneby","Afternoon",29321
"Sud-Bandama","Agneby","Evening",1112
"Sud-Bandama","Agneby","Morning",30040
"Sud-Bandama","Agneby","Night",24810
"Sud-Bandama","Bafing","Afternoon",4051
"Sud-Bandama","Bafing","Evening",157
"Sud-Bandama","Bafing","Morning",4262
"Sud-Bandama","Bafing","Night",3233
"Sud-Bandama","Bas-Sassandra","Afternoon",156252
"Sud-Bandama","Bas-Sassandra","Evening",5793
"Sud-Bandama","Bas-Sassandra","Morning",172113
"Sud-Bandama","Bas-Sassandra","Night",137844
"Sud-Bandama","Denguele","Afternoon",3834
"Sud-Bandama","Denguele","Evening",118
"Sud-Bandama","Denguele","Morning",4642
"Sud-Bandama","Denguele","Night",3213
"Sud-Bandama","Dix-Huit Montagnes","Afternoon",22762
"Sud-Bandama","Dix-Huit Montagnes","Evening",885
"Sud-Bandama","Dix-Huit Montagnes","Morning",24814
"Sud-Bandama","Dix-Huit Montagnes","Night",18876
"Sud-Bandama","Fromager","Afternoon",104219
"Sud-Bandama","Fromager","Evening",4913
"Sud-Bandama","Fromager","Morning",109716
"Sud-Bandama","Fromager","Night",88074
"Sud-Bandama","Haut-Sassandra","Afternoon",44309
"Sud-Bandama","Haut-Sassandra","Evening",1611
"Sud-Bandama","Haut-Sassandra","Morning",47359
"Sud-Bandama","Haut-Sassandra","Night",37149
"Sud-Bandama","Lacs","Afternoon",62268
"Sud-Bandama","Lacs","Evening",2775
"Sud-Bandama","Lacs","Morning",64359
"Sud-Bandama","Lacs","Night",52815
"Sud-Bandama","Lagunes","Afternoon",529384
"Sud-Bandama","Lagunes","Evening",21476
"Sud-Bandama","Lagunes","Morning",528383
"Sud-Bandama","Lagunes","Night",413488
"Sud-Bandama","Marahoue","Afternoon",28177
"Sud-Bandama","Marahoue","Evening",1193
"Sud-Bandama","Marahoue","Morning",30728
"Sud-Bandama","Marahoue","Night",25300
"Sud-Bandama","Moyen-Cavally","Afternoon",18043
"Sud-Bandama","Moyen-Cavally","Evening",565
"Sud-Bandama","Moyen-Cavally","Morning",19339
"Sud-Bandama","Moyen-Cavally","Night",16377
"Sud-Bandama","Moyen-Comoe","Afternoon",18900
"Sud-Bandama","Moyen-Comoe","Evening",661
"Sud-Bandama","Moyen-Comoe","Morning",19622
"Sud-Bandama","Moyen-Comoe","Night",15767
"Sud-Bandama","NA","Afternoon",1866
"Sud-Bandama","NA","Evening",61
"Sud-Bandama","NA","Morning",2047
"Sud-Bandama","NA","Night",1761
"Sud-Bandama","Nzi-Comoe","Afternoon",35339
"Sud-Bandama","Nzi-Comoe","Evening",1648
"Sud-Bandama","Nzi-Comoe","Morning",39776
"Sud-Bandama","Nzi-Comoe","Night",32428
"Sud-Bandama","Savanes","Afternoon",17137
"Sud-Bandama","Savanes","Evening",606
"Sud-Bandama","Savanes","Morning",18331
"Sud-Bandama","Savanes","Night",16514
"Sud-Bandama","Sud-Bandama","Afternoon",319960
"Sud-Bandama","Sud-Bandama","Evening",34309
"Sud-Bandama","Sud-Bandama","Morning",339782
"Sud-Bandama","Sud-Bandama","Night",285311
"Sud-Bandama","Sud-Comoe","Afternoon",36068
"Sud-Bandama","Sud-Comoe","Evening",1620
"Sud-Bandama","Sud-Comoe","Morning",37956
"Sud-Bandama","Sud-Comoe","Night",31037
"Sud-Bandama","Vallee du Bandama","Afternoon",65294
"Sud-Bandama","Vallee du Bandama","Evening",2901
"Sud-Bandama","Vallee du Bandama","Morning",74278
"Sud-Bandama","Vallee du Bandama","Night",60757
"Sud-Bandama","Worodougou","Afternoon",8574
"Sud-Bandama","Worodougou","Evening",358
"Sud-Bandama","Worodougou","Morning",10311
"Sud-Bandama","Worodougou","Night",7677
"Sud-Bandama","Zanzan","Afternoon",19661
"Sud-Bandama","Zanzan","Evening",822
"Sud-Bandama","Zanzan","Morning",21429
"Sud-Bandama","Zanzan","Night",17836
"Sud-Comoe","Agneby","Afternoon",58440
"Sud-Comoe","Agneby","Evening",2264
"Sud-Comoe","Agneby","Morning",54652
"Sud-Comoe","Agneby","Night",46131
"Sud-Comoe","Bafing","Afternoon",1720
"Sud-Comoe","Bafing","Evening",107
"Sud-Comoe","Bafing","Morning",1980
"Sud-Comoe","Bafing","Night",1450
"Sud-Comoe","Bas-Sassandra","Afternoon",44026
"Sud-Comoe","Bas-Sassandra","Evening",2081
"Sud-Comoe","Bas-Sassandra","Morning",44085
"Sud-Comoe","Bas-Sassandra","Night",34205
"Sud-Comoe","Denguele","Afternoon",1632
"Sud-Comoe","Denguele","Evening",55
"Sud-Comoe","Denguele","Morning",1814
"Sud-Comoe","Denguele","Night",1540
"Sud-Comoe","Dix-Huit Montagnes","Afternoon",11820
"Sud-Comoe","Dix-Huit Montagnes","Evening",714
"Sud-Comoe","Dix-Huit Montagnes","Morning",12435
"Sud-Comoe","Dix-Huit Montagnes","Night",8933
"Sud-Comoe","Fromager","Afternoon",29741
"Sud-Comoe","Fromager","Evening",1412
"Sud-Comoe","Fromager","Morning",29772
"Sud-Comoe","Fromager","Night",23716
"Sud-Comoe","Haut-Sassandra","Afternoon",21033
"Sud-Comoe","Haut-Sassandra","Evening",1223
"Sud-Comoe","Haut-Sassandra","Morning",20649
"Sud-Comoe","Haut-Sassandra","Night",15977
"Sud-Comoe","Lacs","Afternoon",57976
"Sud-Comoe","Lacs","Evening",2582
"Sud-Comoe","Lacs","Morning",49874
"Sud-Comoe","Lacs","Night",43427
"Sud-Comoe","Lagunes","Afternoon",983225
"Sud-Comoe","Lagunes","Evening",38333
"Sud-Comoe","Lagunes","Morning",881588
"Sud-Comoe","Lagunes","Night",715149
"Sud-Comoe","Marahoue","Afternoon",21825
"Sud-Comoe","Marahoue","Evening",1028
"Sud-Comoe","Marahoue","Morning",20426
"Sud-Comoe","Marahoue","Night",16599
"Sud-Comoe","Moyen-Cavally","Afternoon",8283
"Sud-Comoe","Moyen-Cavally","Evening",394
"Sud-Comoe","Moyen-Cavally","Morning",8144
"Sud-Comoe","Moyen-Cavally","Night",6502
"Sud-Comoe","Moyen-Comoe","Afternoon",68235
"Sud-Comoe","Moyen-Comoe","Evening",3221
"Sud-Comoe","Moyen-Comoe","Morning",65645
"Sud-Comoe","Moyen-Comoe","Night",56991
"Sud-Comoe","NA","Afternoon",25014
"Sud-Comoe","NA","Evening",1824
"Sud-Comoe","NA","Morning",25973
"Sud-Comoe","NA","Night",20337
"Sud-Comoe","Nzi-Comoe","Afternoon",49127
"Sud-Comoe","Nzi-Comoe","Evening",2467
"Sud-Comoe","Nzi-Comoe","Morning",48133
"Sud-Comoe","Nzi-Comoe","Night",38930
"Sud-Comoe","Savanes","Afternoon",19474
"Sud-Comoe","Savanes","Evening",759
"Sud-Comoe","Savanes","Morning",18417
"Sud-Comoe","Savanes","Night",16479
"Sud-Comoe","Sud-Bandama","Afternoon",34990
"Sud-Comoe","Sud-Bandama","Evening",1379
"Sud-Comoe","Sud-Bandama","Morning",36362
"Sud-Comoe","Sud-Bandama","Night",29627
"Sud-Comoe","Sud-Comoe","Afternoon",656179
"Sud-Comoe","Sud-Comoe","Evening",77917
"Sud-Comoe","Sud-Comoe","Morning",656902
"Sud-Comoe","Sud-Comoe","Night",545377
"Sud-Comoe","Vallee du Bandama","Afternoon",51798
"Sud-Comoe","Vallee du Bandama","Evening",2196
"Sud-Comoe","Vallee du Bandama","Morning",48841
"Sud-Comoe","Vallee du Bandama","Night",41760
"Sud-Comoe","Worodougou","Afternoon",3850
"Sud-Comoe","Worodougou","Evening",176
"Sud-Comoe","Worodougou","Morning",4028
"Sud-Comoe","Worodougou","Night",3427
"Sud-Comoe","Zanzan","Afternoon",35005
"Sud-Comoe","Zanzan","Evening",1192
"Sud-Comoe","Zanzan","Morning",34169
"Sud-Comoe","Zanzan","Night",29553
"Vallee du Bandama","Agneby","Afternoon",52955
"Vallee du Bandama","Agneby","Evening",1955
"Vallee du Bandama","Agneby","Morning",47058
"Vallee du Bandama","Agneby","Night",40577
"Vallee du Bandama","Bafing","Afternoon",5346
"Vallee du Bandama","Bafing","Evening",207
"Vallee du Bandama","Bafing","Morning",5365
"Vallee du Bandama","Bafing","Night",3830
"Vallee du Bandama","Bas-Sassandra","Afternoon",104763
"Vallee du Bandama","Bas-Sassandra","Evening",4580
"Vallee du Bandama","Bas-Sassandra","Morning",109035
"Vallee du Bandama","Bas-Sassandra","Night",81862
"Vallee du Bandama","Denguele","Afternoon",3673
"Vallee du Bandama","Denguele","Evening",145
"Vallee du Bandama","Denguele","Morning",3869
"Vallee du Bandama","Denguele","Night",3216
"Vallee du Bandama","Dix-Huit Montagnes","Afternoon",18685
"Vallee du Bandama","Dix-Huit Montagnes","Evening",933
"Vallee du Bandama","Dix-Huit Montagnes","Morning",19331
"Vallee du Bandama","Dix-Huit Montagnes","Night",14723
"Vallee du Bandama","Fromager","Afternoon",82285
"Vallee du Bandama","Fromager","Evening",3343
"Vallee du Bandama","Fromager","Morning",83363
"Vallee du Bandama","Fromager","Night",69460
"Vallee du Bandama","Haut-Sassandra","Afternoon",49356
"Vallee du Bandama","Haut-Sassandra","Evening",2484
"Vallee du Bandama","Haut-Sassandra","Morning",48935
"Vallee du Bandama","Haut-Sassandra","Night",39435
"Vallee du Bandama","Lacs","Afternoon",269637
"Vallee du Bandama","Lacs","Evening",10813
"Vallee du Bandama","Lacs","Morning",234120
"Vallee du Bandama","Lacs","Night",204141
"Vallee du Bandama","Lagunes","Afternoon",1017483
"Vallee du Bandama","Lagunes","Evening",39111
"Vallee du Bandama","Lagunes","Morning",898204
"Vallee du Bandama","Lagunes","Night",772331
"Vallee du Bandama","Marahoue","Afternoon",91550
"Vallee du Bandama","Marahoue","Evening",3991
"Vallee du Bandama","Marahoue","Morning",89071
"Vallee du Bandama","Marahoue","Night",76667
"Vallee du Bandama","Moyen-Cavally","Afternoon",16091
"Vallee du Bandama","Moyen-Cavally","Evening",673
"Vallee du Bandama","Moyen-Cavally","Morning",16885
"Vallee du Bandama","Moyen-Cavally","Night",14641
"Vallee du Bandama","Moyen-Comoe","Afternoon",43870
"Vallee du Bandama","Moyen-Comoe","Evening",1688
"Vallee du Bandama","Moyen-Comoe","Morning",40683
"Vallee du Bandama","Moyen-Comoe","Night",34552
"Vallee du Bandama","NA","Afternoon",4719
"Vallee du Bandama","NA","Evening",202
"Vallee du Bandama","NA","Morning",4466
"Vallee du Bandama","NA","Night",4124
"Vallee du Bandama","Nzi-Comoe","Afternoon",134075
"Vallee du Bandama","Nzi-Comoe","Evening",5055
"Vallee du Bandama","Nzi-Comoe","Morning",125077
"Vallee du Bandama","Nzi-Comoe","Night",102758
"Vallee du Bandama","Savanes","Afternoon",142576
"Vallee du Bandama","Savanes","Evening",4855
"Vallee du Bandama","Savanes","Morning",128078
"Vallee du Bandama","Savanes","Night",117885
"Vallee du Bandama","Sud-Bandama","Afternoon",55160
"Vallee du Bandama","Sud-Bandama","Evening",1956
"Vallee du Bandama","Sud-Bandama","Morning",58206
"Vallee du Bandama","Sud-Bandama","Night",50646
"Vallee du Bandama","Sud-Comoe","Afternoon",49590
"Vallee du Bandama","Sud-Comoe","Evening",1907
"Vallee du Bandama","Sud-Comoe","Morning",45502
"Vallee du Bandama","Sud-Comoe","Night",38702
"Vallee du Bandama","Vallee du Bandama","Afternoon",688474
"Vallee du Bandama","Vallee du Bandama","Evening",71690
"Vallee du Bandama","Vallee du Bandama","Morning",651988
"Vallee du Bandama","Vallee du Bandama","Night",576501
"Vallee du Bandama","Worodougou","Afternoon",36434
"Vallee du Bandama","Worodougou","Evening",1063
"Vallee du Bandama","Worodougou","Morning",37272
"Vallee du Bandama","Worodougou","Night",32236
"Vallee du Bandama","Zanzan","Afternoon",28532
"Vallee du Bandama","Zanzan","Evening",881
"Vallee du Bandama","Zanzan","Morning",26383
"Vallee du Bandama","Zanzan","Night",22912
"Worodougou","Agneby","Afternoon",2721
"Worodougou","Agneby","Evening",87
"Worodougou","Agneby","Morning",2743
"Worodougou","Agneby","Night",1958
"Worodougou","Bafing","Afternoon",6955
"Worodougou","Bafing","Evening",242
"Worodougou","Bafing","Morning",7659
"Worodougou","Bafing","Night",6679
"Worodougou","Bas-Sassandra","Afternoon",45708
"Worodougou","Bas-Sassandra","Evening",1600
"Worodougou","Bas-Sassandra","Morning",53883
"Worodougou","Bas-Sassandra","Night",42628
"Worodougou","Denguele","Afternoon",4598
"Worodougou","Denguele","Evening",158
"Worodougou","Denguele","Morning",5188
"Worodougou","Denguele","Night",4469
"Worodougou","Dix-Huit Montagnes","Afternoon",17219
"Worodougou","Dix-Huit Montagnes","Evening",612
"Worodougou","Dix-Huit Montagnes","Morning",19155
"Worodougou","Dix-Huit Montagnes","Night",16246
"Worodougou","Fromager","Afternoon",16467
"Worodougou","Fromager","Evening",652
"Worodougou","Fromager","Morning",18799
"Worodougou","Fromager","Night",14114
"Worodougou","Haut-Sassandra","Afternoon",68222
"Worodougou","Haut-Sassandra","Evening",2523
"Worodougou","Haut-Sassandra","Morning",74435
"Worodougou","Haut-Sassandra","Night",58880
"Worodougou","Lacs","Afternoon",8584
"Worodougou","Lacs","Evening",378
"Worodougou","Lacs","Morning",8156
"Worodougou","Lacs","Night",6423
"Worodougou","Lagunes","Afternoon",94773
"Worodougou","Lagunes","Evening",4159
"Worodougou","Lagunes","Morning",99690
"Worodougou","Lagunes","Night",74402
"Worodougou","Marahoue","Afternoon",17942
"Worodougou","Marahoue","Evening",739
"Worodougou","Marahoue","Morning",19675
"Worodougou","Marahoue","Night",16327
"Worodougou","Moyen-Cavally","Afternoon",8235
"Worodougou","Moyen-Cavally","Evening",274
"Worodougou","Moyen-Cavally","Morning",9513
"Worodougou","Moyen-Cavally","Night",8151
"Worodougou","Moyen-Comoe","Afternoon",1799
"Worodougou","Moyen-Comoe","Evening",75
"Worodougou","Moyen-Comoe","Morning",1818
"Worodougou","Moyen-Comoe","Night",1358
"Worodougou","NA","Afternoon",371
"Worodougou","NA","Evening",2
"Worodougou","NA","Morning",340
"Worodougou","NA","Night",246
"Worodougou","Nzi-Comoe","Afternoon",3561
"Worodougou","Nzi-Comoe","Evening",185
"Worodougou","Nzi-Comoe","Morning",3470
"Worodougou","Nzi-Comoe","Night",2702
"Worodougou","Savanes","Afternoon",21403
"Worodougou","Savanes","Evening",740
"Worodougou","Savanes","Morning",21994
"Worodougou","Savanes","Night",21449
"Worodougou","Sud-Bandama","Afternoon",10346
"Worodougou","Sud-Bandama","Evening",481
"Worodougou","Sud-Bandama","Morning",11691
"Worodougou","Sud-Bandama","Night",9228
"Worodougou","Sud-Comoe","Afternoon",3646
"Worodougou","Sud-Comoe","Evening",215
"Worodougou","Sud-Comoe","Morning",3742
"Worodougou","Sud-Comoe","Night",3014
"Worodougou","Vallee du Bandama","Afternoon",33024
"Worodougou","Vallee du Bandama","Evening",1128
"Worodougou","Vallee du Bandama","Morning",33925
"Worodougou","Vallee du Bandama","Night",28836
"Worodougou","Worodougou","Afternoon",103209
"Worodougou","Worodougou","Evening",11463
"Worodougou","Worodougou","Morning",106654
"Worodougou","Worodougou","Night",93263
"Worodougou","Zanzan","Afternoon",1700
"Worodougou","Zanzan","Evening",58
"Worodougou","Zanzan","Morning",1606
"Worodougou","Zanzan","Night",1167
"Zanzan","Agneby","Afternoon",45884
"Zanzan","Agneby","Evening",1448
"Zanzan","Agneby","Morning",44571
"Zanzan","Agneby","Night",37179
"Zanzan","Bafing","Afternoon",621
"Zanzan","Bafing","Evening",24
"Zanzan","Bafing","Morning",488
"Zanzan","Bafing","Night",544
"Zanzan","Bas-Sassandra","Afternoon",26991
"Zanzan","Bas-Sassandra","Evening",851
"Zanzan","Bas-Sassandra","Morning",27389
"Zanzan","Bas-Sassandra","Night",21833
"Zanzan","Denguele","Afternoon",857
"Zanzan","Denguele","Evening",29
"Zanzan","Denguele","Morning",746
"Zanzan","Denguele","Night",538
"Zanzan","Dix-Huit Montagnes","Afternoon",5604
"Zanzan","Dix-Huit Montagnes","Evening",169
"Zanzan","Dix-Huit Montagnes","Morning",5229
"Zanzan","Dix-Huit Montagnes","Night",3418
"Zanzan","Fromager","Afternoon",12628
"Zanzan","Fromager","Evening",487
"Zanzan","Fromager","Morning",12521
"Zanzan","Fromager","Night",9516
"Zanzan","Haut-Sassandra","Afternoon",8011
"Zanzan","Haut-Sassandra","Evening",285
"Zanzan","Haut-Sassandra","Morning",7304
"Zanzan","Haut-Sassandra","Night",5578
"Zanzan","Lacs","Afternoon",26100
"Zanzan","Lacs","Evening",1029
"Zanzan","Lacs","Morning",22790
"Zanzan","Lacs","Night",19711
"Zanzan","Lagunes","Afternoon",397090
"Zanzan","Lagunes","Evening",14673
"Zanzan","Lagunes","Morning",368426
"Zanzan","Lagunes","Night",308716
"Zanzan","Marahoue","Afternoon",9594
"Zanzan","Marahoue","Evening",349
"Zanzan","Marahoue","Morning",9367
"Zanzan","Marahoue","Night",7270
"Zanzan","Moyen-Cavally","Afternoon",3578
"Zanzan","Moyen-Cavally","Evening",111
"Zanzan","Moyen-Cavally","Morning",3482
"Zanzan","Moyen-Cavally","Night",2821
"Zanzan","Moyen-Comoe","Afternoon",110448
"Zanzan","Moyen-Comoe","Evening",5027
"Zanzan","Moyen-Comoe","Morning",106845
"Zanzan","Moyen-Comoe","Night",94727
"Zanzan","NA","Afternoon",4448
"Zanzan","NA","Evening",175
"Zanzan","NA","Morning",4491
"Zanzan","NA","Night",4376
"Zanzan","Nzi-Comoe","Afternoon",35666
"Zanzan","Nzi-Comoe","Evening",1437
"Zanzan","Nzi-Comoe","Morning",35504
"Zanzan","Nzi-Comoe","Night",30609
"Zanzan","Savanes","Afternoon",13146
"Zanzan","Savanes","Evening",473
"Zanzan","Savanes","Morning",12760
"Zanzan","Savanes","Night",11770
"Zanzan","Sud-Bandama","Afternoon",16674
"Zanzan","Sud-Bandama","Evening",507
"Zanzan","Sud-Bandama","Morning",17150
"Zanzan","Sud-Bandama","Night",14597
"Zanzan","Sud-Comoe","Afternoon",28143
"Zanzan","Sud-Comoe","Evening",1013
"Zanzan","Sud-Comoe","Morning",27864
"Zanzan","Sud-Comoe","Night",25354
"Zanzan","Vallee du Bandama","Afternoon",31349
"Zanzan","Vallee du Bandama","Evening",1049
"Zanzan","Vallee du Bandama","Morning",29498
"Zanzan","Vallee du Bandama","Night",24248
"Zanzan","Worodougou","Afternoon",1945
"Zanzan","Worodougou","Evening",66
"Zanzan","Worodougou","Morning",1725
"Zanzan","Worodougou","Night",1371
"Zanzan","Zanzan","Afternoon",237379
"Zanzan","Zanzan","Evening",25006
"Zanzan","Zanzan","Morning",233321
"Zanzan","Zanzan","Night",213430
