"AREA2","CALLS","LATITUDE","LONGITUDE"
"Agneby",2539,6.10021,-3.876227
"Bafing",12327,8.374651,-7.541998
"Bas-Sassandra",47903,4.953655,-6.088798
"Denguele",75556,9.587551,-7.368807
"Dix-Huit Montagnes",31141,7.417101,-7.708636
"Fromager",13433,6.297443,-5.926289
"Haut-Sassandra",40510,7.129799,-6.647341
"Lacs",4743,6.90211,-5.185271
"Lagunes",82513,5.334337,-4.062678
"Marahoue",7650,6.99996,-5.7701
"Moyen-Cavally",14338,6.547917,-7.508182
"Moyen-Comoe",1528,6.727677,-3.480959
"Nzi-Comoe",2250,7.16166,-4.171053
"Savanes",12808,9.533049,-5.596829
"Sud-Bandama",12253,5.644361,-5.368657
"Sud-Comoe",4708,5.45433,-3.200261
"Vallee du Bandama",6914,8.293731,-4.86153
"Worodougou",13381,8.458087,-6.461454
"Zanzan",1386,8.801398,-3.242001
